"Item Code","Legacy Item Code","Manufacturers Item Code","Item Name","Item Description","Sell Unit UOM","Barcode","GST","Item Weight","Item Length","Item Width","Item Height","Price Level 1","Price Level 2","Price Level 3","Price Level 4","Break Quantity 1","Break Quantity 2","Break Quantity 3","Break Quantity 4","EDU Price Level 1","EDU Price Level 2","EDU Price Level 3","EDU Price Level 4","Retail Price","Item Status","Item Type","Date Active","Date Inactive","Replaced By Item","FLC Page No","EDU Page No","Preferred Supplier Code","Primary Range","Secondary Range","BI Category","Internet Menu1","Internet Menu2","Internet Menu3","Internet Menu4","Filter Brand","Filter Product Type","Filter Product Category","Filter Size","Filter Colour","Filter Certification","Filter Capacity","Filter Dimension","Filter Pack Qty","Filter Weight","Cross Sell Items","Upsell Items","Media Link Web","Media Link PDF","Media Link Video"
"ACO-0367100","PAR-0367100","0367100","ESSELTE 16K ELECT DIGITAL SAFE Int H380x300x300mm 15.5Kg ","4 fixing holes at back of safe and 4 fixing holes at bottom of safe.3-8 digit code and 20mm double bolts.Comes with 2 emergency keys supplied and the emergency lock is located under the plastic cover on the front panel.10ES - Internal size : 346x190x246mm, body/door thickness 2/4mm and net weight 9.5kg.16ES - Internal size : 376x240x296mm, body/door thickness 2/5mm and net weight 15.5kg.16ES includes one metal shelf.Delivery, installation and assembly charges may apply to furniture. Please enquire to confirm.","EACH","9311960367104","yes","1","","","","314.5455","301.8182","282.7273","280.0000","1","2","3","4","","","","","","active","normal","03/04/2017","","","357","","ACO","Core","Online;FLC;","24018 General Office Accessories/safes & cash boxes","Office Stationery/I.D & Security","","","","Celco","Key Safes","Safes","","","","","","","","","","","",""
"ACO-102135","","102135","ARTLINE Supreme 0.4MM Fine Liner Pen Assorted  Pack of 12","Ideal for general writing including cards, letters and illustrations.","PACK","4974052867019","yes","1","","","","","","","","1","2","4","8","","","","","2.2900","draft","normal","21/06/2018","","","","","ACO","Extended","","","","","","","Artline","Nib Size","Pens Pencils & Markers","","Assorted","","","","","","","","","",""
"ACO-102136","","102136","ARTLINE Supreme 0.4MM Fine Liner Pen Assorted  Pack of 12","Ideal for general writing including cards, letters and illustrations.","PACK","4974052867026","yes","1","","","","","","","","1","2","4","8","","","","","2.2900","draft","normal","21/06/2018","","","","","ACO","Extended","","","","","","","Artline","Nib Size","Pens Pencils & Markers","","Assorted","","","","","","","","","",""
"ACO-107135","","107135","ARTLINE   Permanent marker Kaleidoscope Pack of 4","Artline Supreme permanent markers offer a fun and contemporary design with leading functionality. ideal for all students and teens needs.1.00mm nib size. 4 bright and vibrant markers to make your work pop. ergonomic shape designed to fit neatly into your hand. gloss. smooth grip for easy comfort writing","PACK","4549441003028","yes","1","","","","","","","","1","2","4","8","","","","","8.9900","draft","normal","21/06/2018","","","","","ACO","Extended","","","","","","","Artline","Permanent","Pens Pencils & Markers","","","","","","","","","","","",""
"EDV-CB24","","CB24","EC CHALK COLOURED Sidewalk 100x24mm Bucket 24 ","This non-toxic and biodegradable chalk bucket, contains 24 jumbo washable chalks, 100x25mm, that are easy to grasp. Included is a sponge and reusable bucket.","BOX","11111","yes","1","","","","13.9091","13.3636","13.0000","12.4545","1","2","4","8","10.7000","10.5000","10.3000","10.0000","","active","normal","02/04/2017","","","","","EDV","Extended","EDU;","10039 Pens - Pencils Markers/chalk","Office Stationery/Markers & Highlighters","","","","EC","Chalk","Pens Pencils & Markers","","","","","","","","","","","",""
"EDV-CC100","","CC100","EC CHALK COLOURED Dustless Bx100 ","This dustless chalk is non-toxic and superior quality.There will be no messy hands or dust particles in the air from using this dustless chalk.Bright colours make these chalks easy to read on the blackboard.Box of 100.","BOX","11111","yes","1","","","","7.8182","7.5455","7.2727","7.0000","1","2","4","8","5.8364","5.7273","5.6182","5.4545","","active","normal","02/04/2017","","","","","EDV","Extended","EDU;","10039 Pens - Pencils Markers/chalk","Office Stationery/Markers & Highlighters","","","","EC","Chalk","Pens Pencils & Markers","","","","","","","","","","","",""
"EDV-CCH40","","CCH40","EC CHALK COLOURED Stumpies 57x140mm Bx40 ","Educational Colours coloured Stumpies chalks are ideal for small hands.Moulded to be extra thick, they are very hard to break.Each chalk is 5.7x1.4cm.","BOX","11111","yes","1","","","","15.7273","15.0909","14.6364","14.0000","1","2","4","8","11.6727","11.4545","11.2364","10.9091","","active","normal","02/04/2017","","","","","EDV","Extended","EDU;","10039 Pens - Pencils Markers/chalk","Office Stationery/Markers & Highlighters","","","","EC","Chalk","Pens Pencils & Markers","","","","","","","","","","","",""
"EDV-CW100","","CW100","EC CHALK WHITE Dustless Bx100 ","This dustless chalk is non-toxic and superior quality.There will be no messy hands or dust particles in the air from using this dustless chalk.Bright colours make these chalks easy to read on the blackboard.Box of 100.","BOX","11111","yes","1","","","","6.1818","5.9091","5.7273","5.4545","1","2","4","8","3.8909","3.8182","3.7455","3.6364","","active","normal","02/04/2017","","","","","EDV","Extended","EDU;","10039 Pens - Pencils Markers/chalk","Office Stationery/Markers & Highlighters","","","","EC","Chalk","Pens Pencils & Markers","","","","","","","","","","","",""
"EDV-MM12","","MM12","EDVANTAGE MASTER MARKERS Assorted Colours ","EC Master Markers are perfect for your artists with jumbo barrels, safe non-toxic, water based, childsafe ventilation caps.","PACK","9314289030988","yes","1","","","","4.6364","4.4545","4.2727","4.0909","1","2","4","8","2.9182","2.8636","2.8091","2.7273","","active","normal","23/07/2017","","","","","EDV","Extended","EDU;","10027 Pens - Pencils Markers/markers","Office Stationery/Markers & Highlighters","","","","Edvantage","Permanent","Pens Pencils & Markers","","","","","","","","","","","",""
"EDV-MM144","","MM144","EDVANTAGE MASTER MARKERS Assorted Colours ","EC Master Markers are perfect for your artists with jumbo barrels, safe non-toxic, water based, childsafe ventilation caps.","PACK","9314289029722","yes","1","","","","45.4545","43.6364","42.2727","40.4545","1","2","4","8","37.9364","37.2273","36.5182","35.4545","","active","normal","23/07/2017","","","","","EDV","Extended","EDU;","10027 Pens - Pencils Markers/markers","Office Stationery/Markers & Highlighters","","","","Edvantage","Permanent","Pens Pencils & Markers","","","","","","","","","","","",""
"EDV-MM96","","MM96","EDVANTAGE MASTER MARKERS Assorted Colours ","EC Master Markers are perfect for your artists with jumbo barrels, safe non-toxic, water based, childsafe ventilation caps.","PACK","9314289029692","yes","1","","","","31.9091","30.6364","29.7273","28.4545","1","2","4","8","25.2909","24.8182","24.3455","23.6364","","active","normal","23/07/2017","","","","","EDV","Extended","EDU;","10027 Pens - Pencils Markers/markers","Office Stationery/Markers & Highlighters","","","","Edvantage","Permanent","Pens Pencils & Markers","","","","","","","","","","","",""
"EDV-MMMB288","","MMMB288","EDVANTAGE MASTER MEGO MARKERS Assorted Colours ","EC Master Markers are perfect for your artists with jumbo barrels, safe non-toxic, water based, childsafe ventilation caps.","PACK","9314289029708","yes","1","","","","130.9091","125.4545","121.8182","116.3636","1","2","4","8","119.6455","117.4091","115.1727","111.8182","","active","normal","23/07/2017","","","","","EDV","Extended","EDU;","10027 Pens - Pencils Markers/markers","Office Stationery/Markers & Highlighters","","","","Edvantage","Permanent","Pens Pencils & Markers","","","","","","","","","","","",""
"EDV-MMMC96","","MMMC96","EDVANTAGE MASTER MEGO MARKERS Assorted Colours ","EC Master Markers are perfect for your artists with jumbo barrels, safe non-toxic, water based, childsafe ventilation caps.","PACK","9314289029753","yes","1","","","","45.5455","43.7273","42.3636","40.5455","1","2","4","8","41.8273","41.0455","40.2636","39.0909","","active","normal","23/07/2017","","","","","EDV","Extended","EDU;","10027 Pens - Pencils Markers/markers","Office Stationery/Markers & Highlighters","","","","Edvantage","Permanent","Pens Pencils & Markers","","","","","","","","","","","",""
"EDV-MMMP12","","MMMP12","EDVANTAGE MASTER MEGO MARKERS Assorted Colours ","EC Master Markers are perfect for your artists with jumbo barrels, safe non-toxic, water based, childsafe ventilation caps.","PACK","9314289029760","yes","1","","","","6.9091","6.6364","6.4545","6.1818","1","2","4","8","4.8636","4.7727","4.6818","4.5455","","active","normal","23/07/2017","","","","","EDV","Extended","EDU;","10027 Pens - Pencils Markers/markers","Office Stationery/Markers & Highlighters","","","","Edvantage","Permanent","Pens Pencils & Markers","","","","","","","","","","","",""
"EDV-MMMT48","","MMMT48","EDVANTAGE MASTER MEGO MARKERS Assorted Colours ","EC Master Markers are perfect for your artists with jumbo barrels, safe non-toxic, water based, childsafe ventilation caps.","PACK","9314289029999","yes","1","","","","25.6364","24.5455","23.8182","22.8182","1","2","4","8","21.4000","21.0000","20.6000","20.0000","","active","normal","23/07/2017","","","","","EDV","Extended","EDU;","10027 Pens - Pencils Markers/markers","Office Stationery/Markers & Highlighters","","","","Edvantage","Permanent","Pens Pencils & Markers","","","","","","","","","","","",""
"EDV-MSTM6","","MSTM6","EDVANTAGE MASTER MARKERS Skin Tone Colours ","EC Master Markers are perfect for your artists with jumbo barrels, safe non-toxic, water based, childsafe ventilation caps.","PACK","9314289023898","yes","1","","","","4.2727","4.0909","4.0000","3.8182","1","2","4","8","0.9727","0.9545","0.9364","0.9091","","active","normal","23/07/2017","","","","","EDV","Extended","EDU;","10027 Pens - Pencils Markers/markers","Office Stationery/Markers & Highlighters","","","","Edvantage","Permanent","Pens Pencils & Markers","","","","","","","","","","","",""
"EDV-TIC12","","TIC12","EC TWIST IT CRAYONS Pkt 12 ","Self propelling crayons in sturdy plastic barrel. No mess and no need for sharpening.Non-toxic.Each crayon is 5.8x146mm.","PACK","11111","yes","1","","","","7.8182","7.4545","7.2727","6.9091","1","2","4","8","5.8364","5.7273","5.6182","5.4545","","active","normal","02/04/2017","","","","","EDV","Extended","EDU;","25009 Art & Craft/crayons","School Supplies/Art & Craft","","","","EC","Crayons","Pens Pencils & Markers","","","","","","","","","","","",""
"EDV-TIC240","","TIC240","EC TWIST IT CRAYONS Pk 240 ","Self propelling crayons in sturdy plastic barrel. No mess and no need for sharpening.Non-toxic.Each crayon is 5.8x146mm.","BX","11111","yes","1","","","","132.7273","127.2727","123.6364","118.1818","1","2","4","8","109.9182","107.8636","105.8091","102.7273","","active","normal","02/04/2017","","","","","EDV","Extended","EDU;","25009 Art & Craft/crayons","School Supplies/Art & Craft","","","","EC","Crayons","Pens Pencils & Markers","","","","","","","","","","","",""
"FNX-GLA3801","","GLA380/1","STEEL STORAGE LOCKER 380 Wide Single Door ","Single point lock.Hat shelf. Coat rail.Vented doorsDoor stiffenerDelivery, installation and assembly charges may apply to furniture. Please enquire to confirm.","EACH","11111","yes","1","","","","214.5455","208.1818","203.6364","199.0909","1","2","4","8","","","","","","active","normal","03/04/2017","","","438","","FNX","Core","Online;FLC;","21060 Furniture/lockers & shelving","Furniture/Storage","","","","RapidLine","Single Door","Lockers","","","","","","","","","","","",""
"FNX-GLA3802","","GLA380/2","STEEL STORAGE LOCKER 380 Wide 2 Door ","Single point lock.Fixed shelf. Coat hook.Vented doors.Door stiffener.Delivery, installation and assembly charges may apply to furniture. Please enquire to confirm.","EACH","11111","yes","1","","","","223.6364","217.2727","212.7273","208.1818","1","2","4","8","","","","","","active","normal","03/04/2017","","","438","","FNX","Core","Online;FLC;","21060 Furniture/lockers & shelving","Furniture/Storage","","","","RapidLine","Multi Door","Lockers","","","","","","","","","","","",""
"FNX-GLA3804","","GLA380/4","STEEL STORAGE LOCKER 380 Wide 4 Door ","Single point lock.Fixed Shelves.Vented doorsDoor stiffener.Delivery, installation and assembly charges may apply to furniture. Please enquire to confirm.","EACH","11111","yes","1","","","","240.9091","233.6364","229.0909","223.6364","1","2","4","8","","","","","","active","normal","03/04/2017","","","438","","FNX","Core","Online;FLC;","21060 Furniture/lockers & shelving","Furniture/Storage","","","","RapidLine","Multi Door","Lockers","","","","","","","","","","","",""
"ITA-I330FGP","","I330FGP","ITALPLAST  4 Drawer Office Organiser Grape  ","contemporary modern space saving design.ideal for keeping all your stationery essentials organised in the one place.each unit comes with 1 large and 3 small drawers.large unit is ideal for storing items such as staplers, hole punches, small tape dispenser etc.small drawers are ideal for storing items such as paper / bulldog clips, post it notes, erasers, pens / pencils, scissors etc.securely stacks to create a modular storage system.designed to allow two units to sit on top of the italplast a4 document cabinet (code: i 326).clear drawers so that contents are easily visible.","EACH","9319196009195","yes","1","","","","31.7727","30.8182","29.5455","28.6364","1","2","4","8","21.8864","21.4773","21.0682","20.4545","","active","normal","17/05/2018","","","","","ITA","Core","Online;","17048 Desk Accessories/multi drawer systems","Office Stationery/Desk Top Accessories","","","","Italplast","Tray A4","Desk Organiser","","Purple","","","","","","","","","",""
"OKI-44059133","","O810Y","OKI C810 TONER CARTRIDGE 44059133 8,000 Pg Yellow ","Suits OKI C810 OKI C830","EACH","0","yes","1","","","","278.1818","270.0000","264.5455","259.0909","1","2","3","4","","","","","315.3920","active","normal","05/03/2015","","","0","","DYN","Core","Online;","01069 Toners - Ribbons - Cartridges/oki original fax & toner cartridges","Ink & Toner/Toner","","","","Oki","OKI Toner","Toner","","","","","","","","","","","",""
"OKI-44059134","","O810M","OKI C810 TONER CARTRIDGE 44059134 8,000 Pg Magenta ","Suits OKI C810 OKI C830","EACH","0","yes","1","","","","278.1818","270.0000","264.5455","259.0909","1","2","3","4","","","","","315.3920","active","normal","05/03/2015","","","0","","DYN","Core","Online;","01069 Toners - Ribbons - Cartridges/oki original fax & toner cartridges","Ink & Toner/Toner","","","","Oki","OKI Toner","Toner","","","","","","","","","","","",""
"OKI-44059135","","O810C","OKI C810 TONER CARTRIDGE 44059135 8,000 Pg Cyan ","Suits OKI C810 OKI C830","EACH","0","yes","1","","","","278.1818","270.0000","264.5455","259.0909","1","2","3","4","","","","","315.3920","active","normal","05/03/2015","","","0","","DYN","Core","Online;","01069 Toners - Ribbons - Cartridges/oki original fax & toner cartridges","Ink & Toner/Toner","","","","Oki","OKI Toner","Toner","","","","","","","","","","","",""
"OKI-44059136","","O810B","OKI C810 TONER CARTRIDGE 44059136 8,000 Pg Black ","Suits OKI C810 OKI C830","EACH","0","yes","1","","","","143.6364","139.0909","136.3636","133.6364","1","2","3","4","","","","","163.3940","active","normal","05/03/2015","","","0","","DYN","Core","Online;","01069 Toners - Ribbons - Cartridges/oki original fax & toner cartridges","Ink & Toner/Toner","","","","Oki","OKI Toner","Toner","","","","","","","","","","","",""
"OKI-44318666","","O711WT","OKI C711WT TONER CARTRIDGE White 6,000 pages ","Suit: OKI C711WT","EACH","0","yes","1","","","","471.8182","457.2727","448.1818","439.0909","1","2","4","8","","","","","535.7660","active","normal","03/04/2016","","","0","","DYN","Core","Online;","01069 Toners - Ribbons - Cartridges/oki original fax & toner cartridges","Ink & Toner/Toner","","","","Oki","OKI Toner","Toner","","","","","","","","","","","",""
"OKI-44469725","","O510Y","OKI TONER CARTRIDGE 44469725 Yellow ","Suits OKI MC562 OKI C511 OKI C531DN","EACH","0","yes","1","","","","218.1818","211.8182","207.2727","202.7273","1","2","3","4","","","","","240.6580","active","normal","05/03/2015","","","0","","DYN","Core","Online;","01069 Toners - Ribbons - Cartridges/oki original fax & toner cartridges","Ink & Toner/Toner","","","","Oki","OKI Toner","Toner","","Yellow","","","","","","","","","",""
"OKI-44469726","","O510M","OKI TONER CARTRIDGE 44469726 Magenta ","Suits OKI MC562 OKI C511 OKI C531DN","EACH","0","yes","1","","","","218.1818","211.8182","207.2727","202.7273","1","2","3","4","","","","","240.6580","active","normal","05/03/2015","","","0","","DYN","Core","Online;","01069 Toners - Ribbons - Cartridges/oki original fax & toner cartridges","Ink & Toner/Toner","","","","Oki","OKI Toner","Toner","","","","","","","","","","","",""
"OKI-44469727","","O510C","OKI TONER CARTRIDGE 44469727 Cyan ","Suits OKI MC562 OKI C511 OKI C531DN","EACH","0","yes","1","","","","218.1818","211.8182","207.2727","202.7273","1","2","3","4","","","","","240.6580","active","normal","05/03/2015","","","0","","DYN","Core","Online;","01069 Toners - Ribbons - Cartridges/oki original fax & toner cartridges","Ink & Toner/Toner","","","","Oki","OKI Toner","Toner","","","","","","","","","","","",""
"OKI-44472604","","O310F","OKI 44472604360000 Page Yield Transfer Unit","60000 pages","EACH","11111","yes","","","","","131.8182","128.1818","125.4545","122.7273","1","2","4","8","","","","","142.5050","active","normal","19/04/2018","","","","","DYN","Core","Online;","01069 Toners - Ribbons - Cartridges/oki original fax & toner cartridges","Ink & Toner/Toner","","","","Oki","OKI Toner","Toner","","","","","","","","","","","",""
"OKI-44844528","","O831B","OKI C831N TONER CARTRIDGE Black 10,000 pages ","Suit: OKI C831","EACH","0","yes","1","","","","140.9091","136.3636","133.6364","130.9091","1","2","4","8","","","","","151.9760","active","normal","03/04/2016","","","0","","DYN","Core","Online;","01069 Toners - Ribbons - Cartridges/oki original fax & toner cartridges","Ink & Toner/Toner","","","","Oki","OKI Toner","Toner","","","","","","","","","","","",""
"OKI-44973552","","O562B","OKI C562 BLACK TONER CARTRIDGE 7K C511/C531/MC562 ","Suits OKI MC562 OKI C511 OKI C531DN","EACH","0","yes","1","","","","152.7273","148.1818","145.4545","141.8182","1","2","3","4","","","","","168.4650","active","normal","05/03/2015","","","0","","DYN","Core","Online;","01069 Toners - Ribbons - Cartridges/oki original fax & toner cartridges","Ink & Toner/Toner","","","","Oki","OKI Toner","Toner","","Black","","","","","","","","","",""
"OKI-45396205","","O770Y","OKI YELLOW TONER CARTRIDGE MC770/MC780 ","Toner Cartridge For MC770/780 Yellow; 11500 Pages @ ISO/IEC 19798 coverage","EACH","0","yes","1","","","","230.9091","223.6364","219.0909","214.5455","1","2","4","8","","","","","253.8580","active","normal","05/03/2015","","","0","","DYN","Core","Online;","01069 Toners - Ribbons - Cartridges/oki original fax & toner cartridges","Ink & Toner/Toner","","","","Oki","OKI Toner","Toner","","","","","","","","","","","",""
"OKI-45396206","","O770M","OKI MAGENTA TONER CARTRIDGE MC770/MC780 ","Toner Cartridge For MC770/780 Yellow; 11500 Pages @ ISO/IEC 19798 coverage","EACH","0","yes","1","","","","230.9091","223.6364","219.0909","214.5455","1","2","4","8","","","","","253.8580","active","normal","05/03/2015","","","0","","DYN","Core","Online;","01069 Toners - Ribbons - Cartridges/oki original fax & toner cartridges","Ink & Toner/Toner","","","","Oki","OKI Toner","Toner","","","","","","","","","","","",""
"OKI-45396207","","O770C","OKI CYAN TONER CARTRIDGE MC770/MC780 ","Toner Cartridge For MC770/780 Yellow; 11500 Pages @ ISO/IEC 19798 coverage","EACH","0","yes","1","","","","230.9091","223.6364","219.0909","214.5455","1","2","4","8","","","","","253.8580","active","normal","05/03/2015","","","0","","DYN","Core","Online;","01069 Toners - Ribbons - Cartridges/oki original fax & toner cartridges","Ink & Toner/Toner","","","","Oki","OKI Toner","Toner","","","","","","","","","","","",""
"OKI-45396208","","O770B","OKI BLACK TONER CARTRIDGE MC770/MC780 ","Toner Cartridge For MC770/780 Yellow; 11500 Pages @ ISO/IEC 19798 coverage","EACH","0","yes","1","","","","176.3636","170.9091","167.2727","163.6364","1","2","4","8","","","","","193.4240","active","normal","05/03/2015","","","0","","DYN","Core","Online;","01069 Toners - Ribbons - Cartridges/oki original fax & toner cartridges","Ink & Toner/Toner","","","","Oki","OKI Toner","Toner","","","","","","","","","","","",""
"OKI-45439003","","O731T","OKI B731 TONER CARTRIDGE Black 36,000 pages ","Suit: OKI B731 OKI MB770","EACH","0","yes","1","","","","375.4545","364.5455","356.3636","349.0909","1","2","4","8","","","","","424.5010","active","normal","03/04/2016","","","0","","DYN","Core","Online;","01069 Toners - Ribbons - Cartridges/oki original fax & toner cartridges","Ink & Toner/Toner","","","","Oki","OKI Toner","Toner","","","","","","","","","","","",""
"OKI-45488903","","O721T","OKI B721 TONER CARTRIDGE Black 25,000 pages ","Suit: OKI B721 OKI B731 OKI MB770 OKI MB760","EACH","0","yes","1","","","","340.0000","330.0000","322.7273","316.3636","1","2","4","8","","","","","384.9890","active","normal","03/04/2016","","","0","","DYN","Core","Online;","01069 Toners - Ribbons - Cartridges/oki original fax & toner cartridges","Ink & Toner/Toner","","","","Oki","OKI Toner","Toner","","","","","","","","","","","",""
"OKI-45807103","","O432","OKI 458071033000 Page Yield Toner cartridge","3000 pages","EACH","11111","yes","","","","","97.2727","94.5455","92.7273","90.9091","1","2","4","8","","","","","103.5430","active","normal","19/04/2018","","","","","DYN","Core","Online;","01069 Toners - Ribbons - Cartridges/oki original fax & toner cartridges","Ink & Toner/Toner","","","","Oki","OKI Toner","Toner","","","","","","","","","","","",""
"OKI-45807107","","O432HY","OKI 458071077000 Page Yield Toner cartridge","7000 pages","EACH","11111","yes","","","","","148.1818","143.6364","140.9091","138.1818","1","2","4","8","","","","","162.5360","active","normal","19/04/2018","","","","","DYN","Core","Online;","01069 Toners - Ribbons - Cartridges/oki original fax & toner cartridges","Ink & Toner/Toner","","","","Oki","OKI Toner","Toner","","","","","","","","","","","",""
"OKI-45862828","","O873Y","OKI MC873 TONER Yellow 10,000 pages ","Suit:OKI MC873","EACH","0","yes","1","","","","223.6364","217.2727","212.7273","208.1818","1","2","4","8","","","","","245.8610","active","normal","28/02/2016","","","0","","DYN","Core","Online;","01069 Toners - Ribbons - Cartridges/oki original fax & toner cartridges","Ink & Toner/Toner","","","","Oki","OKI Toner","Toner","","","","","","","","","","","",""
"OKI-45862829","","O873M","OKI MC873 TONER Magenta 10,000 pages ","Suit:OKI MC873","EACH","0","yes","1","","","","223.6364","217.2727","212.7273","208.1818","1","2","4","8","","","","","245.8610","active","normal","28/02/2016","","","0","","DYN","Core","Online;","01069 Toners - Ribbons - Cartridges/oki original fax & toner cartridges","Ink & Toner/Toner","","","","Oki","OKI Toner","Toner","","","","","","","","","","","",""
"OKI-45862830","","O873C","OKI MC873 TONER Cyan 10,000 pages ","Suit:OKI MC873","EACH","0","yes","1","","","","223.6364","217.2727","212.7273","208.1818","1","2","4","8","","","","","245.8610","active","normal","28/02/2016","","","0","","DYN","Core","Online;","01069 Toners - Ribbons - Cartridges/oki original fax & toner cartridges","Ink & Toner/Toner","","","","Oki","OKI Toner","Toner","","","","","","","","","","","",""
"OKI-45862832","","O873B","OKI MC873 TONER Black 15,000 pages ","Suit:OKI MC873","EACH","0","yes","1","","","","144.5455","140.0000","137.2727","134.5455","1","2","4","8","","","","","160.8860","active","normal","28/02/2016","","","0","","DYN","Core","Online;","01069 Toners - Ribbons - Cartridges/oki original fax & toner cartridges","Ink & Toner/Toner","","","","Oki","OKI Toner","Toner","","","","","","","","","","","",""
"OKI-45862841","","O853Y","OKI MC853 TONER Yellow 7,300 pages ","Suit:OKI MC853 OKI MC873 (Drum)","EACH","0","yes","1","","","","208.1818","201.8182","198.1818","193.6364","1","2","4","8","","","","","229.9990","active","normal","28/02/2016","","","0","","DYN","Core","Online;","01069 Toners - Ribbons - Cartridges/oki original fax & toner cartridges","Ink & Toner/Toner","","","","Oki","OKI Toner","Toner","","","","","","","","","","","",""
"OKI-45862842","","O853M","OKI MC853 TONER Magenta 7,300 pages ","Suit:OKI MC853 OKI MC873 (Drum)","EACH","0","yes","1","","","","208.1818","201.8182","198.1818","193.6364","1","2","4","8","","","","","229.9990","active","normal","28/02/2016","","","0","","DYN","Core","Online;","01069 Toners - Ribbons - Cartridges/oki original fax & toner cartridges","Ink & Toner/Toner","","","","Oki","OKI Toner","Toner","","","","","","","","","","","",""
"OKI-45862843","","O853C","OKI MC853 TONER Cyan 7,300 pages ","Suit:OKI MC853 OKI MC873 (Drum)","EACH","0","yes","1","","","","208.1818","201.8182","198.1818","193.6364","1","2","4","8","","","","","229.9990","active","normal","28/02/2016","","","0","","DYN","Core","Online;","01069 Toners - Ribbons - Cartridges/oki original fax & toner cartridges","Ink & Toner/Toner","","","","Oki","OKI Toner","Toner","","","","","","","","","","","",""
"OKI-45862844","","O853B","OKI MC853 TONER Black 7,000 pages ","Suit:OKI MC853 OKI MC873 (Drum)","EACH","0","yes","1","","","","79.7727","77.3636","75.8182","74.1818","1","2","4","8","","","","","84.9750","active","normal","28/02/2016","","","0","","DYN","Core","Online;","01069 Toners - Ribbons - Cartridges/oki original fax & toner cartridges","Ink & Toner/Toner","","","","Oki","OKI Toner","Toner","","","","","","","","","","","",""
"OKI-46508717","","O332Y","OKI 465087173000 Page Yield Toner Cartridge","3000 pages","EACH","11111","yes","","","","","169.0909","163.6364","160.9091","157.2727","1","2","4","8","","","","","185.5260","active","normal","19/04/2018","","","","","DYN","Core","Online;","01069 Toners - Ribbons - Cartridges/oki original fax & toner cartridges","Ink & Toner/Toner","","","","Oki","OKI Toner","Toner","","","","","","","","","","","",""
"OKI-46508718","","O332M","OKI 465087183000 Page Yield Toner Cartridge","3000 pages","EACH","11111","yes","","","","","169.0909","163.6364","160.9091","157.2727","1","2","4","8","","","","","185.5260","active","normal","19/04/2018","","","","","DYN","Core","Online;","01069 Toners - Ribbons - Cartridges/oki original fax & toner cartridges","Ink & Toner/Toner","","","","Oki","OKI Toner","Toner","","","","","","","","","","","",""
"OKI-46508719","","O332C","OKI 465087193000 Page Yield Toner Cartridge","3000 pages","EACH","11111","yes","","","","","169.0909","163.6364","160.9091","157.2727","1","2","4","8","","","","","185.5260","active","normal","19/04/2018","","","","","DYN","Core","Online;","01069 Toners - Ribbons - Cartridges/oki original fax & toner cartridges","Ink & Toner/Toner","","","","Oki","OKI Toner","Toner","","","","","","","","","","","",""
"OKI-46508720","","O332B","OKI 465087203500 Page Yield Toner Cartridge","3500 pages","EACH","11111","yes","","","","","126.3636","122.7273","120.0000","117.2727","1","2","4","8","","","","","134.6290","active","normal","19/04/2018","","","","","DYN","Core","Online;","01069 Toners - Ribbons - Cartridges/oki original fax & toner cartridges","Ink & Toner/Toner","","","","Oki","OKI Toner","Toner","","","","","","","","","","","",""
"OPL-STNDPROMEMWH","","STNDPROMEMWH","Electric Pro Memory Sit Stand Desk, White","Bigger, innovative, ergonomic, and beautifully designed and now with a pre set memory function, anti collision software and sleep/dormant function to save power.Standesk Pro memory has 2 large work surfaces to enable greater flexibility when in operation. Keyboard size = 800 300mm desktop size = 900x540m mmaximum keyboard height is a generous 460mm.Suitable for 1, 2 or 3 monitor brackets.Standesk Pro memory has 2 larger work surfaces, one for the keyboard and mouse and the other upper desk area to accommodate your monitor, or your laptop. Standesk Pro memory has infinite height settings for any height you may desire and is adjustable in seconds!!Standesk Pro memory operates using an electric motor to adjust the telescopic adjustment inside the leg that allow for smooth movement of the desk surface. Sensor touch buttons conveniently positioned in front of the user, make the lifting process effortless to adjust, even fully loaded.Conforms to as/nzs60335.1 electrical standards. Patented & registered design in Australia & New Zealand5 year warranty.Delivery, installation and assembly charges may apply to furniture. Please enquire to confirm.","EACH","9350861001489","yes","1","","","","808.1818","783.6364","768.1818","751.8182","1","2","4","8","","","","","","draft","normal","03/06/2018","","","","","OPL","Extended","","21027 Furniture/office furniture","Furniture/Furniture","","","","Standesk","Sit & Stand","Desks Tables","","White","","","","","","","","","",""
"PEN-BL77B","","BL77-B","PENTEL BL77B GEL INK PEN Energel Retractable 0.7mm Red ","Super smooth and quick drying retractable liquid gel ink.Rubber grip for comfortable writing.Sleek and stylish designed clip and barrel.Contains 54% recycled material.","EACH","11111","yes","1","","","","5.4091","5.2727","5.1818","4.9091","1","6","12","36","","","","","0.0000","active","normal","24/07/2016","","","76","","PEN","Core","Online;FLC;","10003 Pens - Pencils Markers/gel ink pens","Office Stationery/Pens","","","","Pentel","Gel Ink Pens","Pens Pencils & Markers","","","","","","","","","","","",""
"PEN-BL77C","","BL77-C","PENTEL BL77 GEL INK PEN Energel DLX Retractable Blue ","Super smooth and quick drying retractable liquid gel ink.Rubber grip for comfortable writing.Sleek and stylish designed clip and barrel.Contains 54% recycled material.","EACH","4902506070975","yes","1","","","","5.4091","5.2727","5.1818","4.9091","1","6","12","36","","","","","0.0000","active","normal","19/07/2016","","","76","","PEN","Core","Online;FLC;","10003 Pens - Pencils Markers/gel ink pens","Office Stationery/Pens","","","","Pentel","Gel Ink Pens","Pens Pencils & Markers","","","","","","Pk 12","","","","","",""
"PEN-BL77D","","BL77-D","PENTEL BL77D GEL INK PEN Energel Retract 0 7mm Green ","","EACH","11111","yes","","","","","","","","","","","","","","","","","","active","normal","24/07/2016","","","0","","PEN","Extended","","","","","","","","","","","","","","","","","","","","",""
"PEN-BL77P","","BL77-P","PENTEL BL77P GEL INK PEN Energel Retractable 0 7mm Pink ","","EACH","11111","yes","","","","","","","","","","","","","","","","","","active","normal","24/07/2016","","","0","","PEN","Extended","","","","","","","","","","","","","","","","","","","","",""
"PEN-BL77V","","BL77-V","PENTEL BL77V GEL INK PEN Energel Retract 0 7mm Violet ","","EACH","0","yes","","","","","","","","","","","","","","","","","","active","normal","24/07/2016","","","0","","PEN","Extended","","","","","","","","","","","","","","","","","","","","",""
"SAN-S20051755","SAN-1931687","S20051755","PARKER IM BALLPOINT PEN Brushed CT Stainless Steel ","Designed as the perfect writing companion for your everyday needs.2 year manufacturers warranty.Push button mechanism fitted with Parker&#174; blue.Available in a variety of colours and are refillable using Parker&#174; refills.","EACH","0","yes","1","","","","45.4091","43.1364","42.2273","41.3182","1","5","10","15","","","","","","active","normal","03/04/2017","","","90","","SAN","Core","Online;FLC;","10018 Pens - Pencils Markers/quality pens","Office Stationery/Pens","","","","Parker","Ballpoint Pens","Pens Pencils & Markers","","","","","","","","","","","",""
"SPP-109437","EDP-109437","194944","VICTORY REINFORCED REFILLS A4 7mm -  7 Hole 200 Leaves ","A4 7mm punched 7 holes with reinforced spineWith marginRuled both sides","PACK","9311181112989","yes","1","","","","5.5096","5.3676","5.1404","4.7428","1","5","25","50","","","","","0.0000","active","normal","20/07/2015","","","0","","SPP","Core","Online;","08033 Books - Pads/loose leaf refills","Paper, Post & Books/Paper","","","","Victory","Loose Leaf","Books","A4","","","","","Pk 200","","","","","",""
