"Item Code","Legacy Item Code","Manufacturers Item Code","Item Name","Item Description","Sell Unit UOM","Barcode","GST","Item Weight","Item Length","Item Width","Item Height","Price Level 1","Price Level 2","Price Level 3","Price Level 4","Break Quantity 1","Break Quantity 2","Break Quantity 3","Break Quantity 4","EDU Price Level 1","EDU Price Level 2","EDU Price Level 3","EDU Price Level 4","Retail Price","Item Status","Item Type","Date Active","Date Inactive","Replaced By Item","FLC Page No","EDU Page No","Preferred Supplier Code","Primary Range","Secondary Range","BI Category","Internet Menu1","Internet Menu2","Internet Menu3","Internet Menu4","Filter Brand","Filter Product Type","Filter Product Category","Filter Size","Filter Colour","Filter Certification","Filter Capacity","Filter Dimension","Filter Pack Qty","Filter Weight","Cross Sell Items","Upsell Items","Media Link Web","Media Link PDF","Media Link Video"
"ACO-0308450","PAR-0308450","0308450","JASTEK ELECTRONIC SCALE 5kg Letter & Parcel ","1gm increments up to 5kg.Platform dimensions: 165x150mm.Uses 4x AAA batteries (included).12 month warranty.","EACH","9311960308459","yes","1","","","","94.5455","90.9091","85.4545","84.5455","1","2","3","4","","","","","","active","normal","03/04/2017","","","64","","ACO","Core","Online;FLC;","06024 Post - Packaging/postal scales","Paper, Post & Books/Envelopes & Post Accessories","","","","Jastek","Postage Scales","Carton Boxes","","","","","","","","","","","",""
"ACO-0308460","PAR-0308460","0308460","JASTEK ELECTRONIC SCALE 10kg Letter & Parcel ","5gm increments up to 10kg.Platform dimensions: 165x150mm.Uses 4x AAA batteries (included).12 month warranty.","EACH","9311960308466","yes","1","","","","128.1818","122.7273","115.4545","113.6364","1","2","3","4","","","","","","active","normal","03/04/2017","","","64","","ACO","Core","Online;FLC;","06024 Post - Packaging/postal scales","Paper, Post & Books/Envelopes & Post Accessories","","","","Jastek","Postage Scales","Carton Boxes","","","","","","","","","","","",""
"ACO-0308470","PAR-0308470","0308470","JASTEK ELECTRONIC SCALE 20kg Letter & Parcel ","5gm increments up to 20kg.Dimensions: L345xW287xH106mm.Platform dimensions: 300x285mm.Uses 1x 9V battery (included).12 month warranty.","EACH","9311960308473","yes","1","","","","188.1818","180.9091","169.0909","167.2727","1","2","3","4","","","","","","active","normal","03/04/2017","","","64","","ACO","Core","Online;FLC;","06024 Post - Packaging/postal scales","Paper, Post & Books/Envelopes & Post Accessories","","","","Jastek","Postage Scales","Carton Boxes","","","","","","","","","","","",""
"BIC-10241","BIC-10241","10241","BIC CRISTAL BALLPOINT PEN Medium Black ","The world renowned quality ballpoint pen.Transparent barrels for visible ink supply.Tungsten carbide ball for smooth writing. Medium 1.0mm tip.Available in boxes of 12 & 50.","EACH","9310025002417","yes","1","","","","0.5000","0.4545","0.4545","0.3636","1","6","12","36","0.5837","0.5728","0.5619","0.5455","","active","normal","03/04/2017","","","87","","BIC","Core","Online;FLC;EDU;","10015 Pens - Pencils Markers/ballpoint pens","Office Stationery/Pens","","","","Bic","Ballpoint Pens","Pens Pencils & Markers","1.0 mm","Black","","","","","","","","","",""
"BIC-41162","","41162","BIC CLIC MASTER PENCIL 0 5mm ","","EACH","","yes","","","","","","","","","","","","","","","","","","inactive","normal","11/03/2015","09/06/2018","","0","","BIC","Extended","","","","","","","","","","","","","","","","","","","","",""
"BIC-946655","","946655","BIC Cristal 946655Medium Point Ballpoint Pens Green  Pack of 12","The world renowned quality ballpoint pen.Transparent barrels for visible ink supply.Tungsten carbide ball for smooth writing - medium 1.0mm tip.Cap and plug colour matches ink colour.Available in boxes of 12.","PACK","11111","yes","","","","","","","","","1","2","4","8","","","","","5.7000","active","normal","29/08/2018","","","","","BIC","Extended","","10015 Pens - Pencils Markers/ballpoint pens","Office Stationery/Pens","","","","Bic","Nib Size","Pens Pencils & Markers","","Green","","","","","","","","","",""
"CAN-CS9000FMKII","","CSCS9000F","CANON CS9000F SCANNER Flatbed ","Item Code: CAN-CS9000FMKIIType: Flatbed ScannerSpeed: Preview Speed: approx. 3 secondsFeatures: White LED scanning. 7x one-touch buttons. Film scanning. Instant warm up.DPI (Scan):9600x9600dpiConnectivity: USB 2.0 Hi-SpeedWarranty: 12 Month","EACH","0","yes","1","","","","328.0100","328.0100","328.0100","328.0100","1","99999999","99999999","99999999","","","","","379.0100","inactive","normal","05/03/2015","29/09/2018","","243","","DYN","Core","Online;FLC;","04015 Business Machines/scanners","Technology & Accessories/Cameras & Scanners","","","","Canon","Flatbed Scanners","Scanners","","","","","","","","","","","",""
"CUM-4012802","ACO-4013802","4013802","LOR ESPRESSO COFFEE PODS Superiore Pack of 10","We have a wide range of coffee for all your beverage requirementsWe supply quality branded products at competitive pricesIf the product you require is not listed contact us for more information","PACK","0","no","1","","","","6.7500","6.4000","6.1000","5.4000","1","2","6","12","","","","","","active","normal","03/04/2017","","","0","","CUM","Core","Online;","22003 Canteen - Janitorial - Safety/beverages","Kitchen, Cleaning & Safety/Food & Beverages","","","","Lor Espresso","Capsules","Kitchen Supplies","","","","","","","","","","","",""
"CUM-4013804","ACO-4013804","4013804","LOR ESPRESSO COFFEE PODS Sontuoso Pack of 10","We have a wide range of coffee for all your beverage requirementsWe supply quality branded products at competitive pricesIf the product you require is not listed contact us for more information","PACK","0","no","1","","","","6.7600","6.4400","6.2500","6.1100","1","2","6","12","","","","","","inactive","normal","03/04/2017","","","0","","CUM","Core","Online;","22003 Canteen - Janitorial - Safety/beverages","Kitchen, Cleaning & Safety/Food & Beverages","","","","Lor Espresso","Capsules","Kitchen Supplies","","","","","","","","","","","",""
"CUM-CD150A","","CD150A","AURORA CD/DVD ROOM 150 Lock with 2 Keys 150 Cap ","Built-in lock with 2 keys for added security.Made from high impact plastic.Holds 150 CD/DVD including 75 sleeves & 3 index dividers.","EACH","9316792033609","yes","1","","","","45.4091","44.0909","41.8182","38.6364","1","2","3","4","","","","","0.0000","active","normal","11/08/2015","","","294","","CUM","Core","Online;FLC;","03003 Computer Accessories/cd & dvd storage","Technology & Accessories/Software & Data Storage","","","","Aurora","Cd/Dvd Wallets","Data Storage","","","","150 Capacity","","","","","","","",""
"CUM-JL505","","JL505","JUSTICK WHITEBOARD Aluminium Frame 600x900mm Wht ","Whiteboard to hold information with an added clear sheet providing a writeable surface.A practical, quality display for information that changes regularly.No pins, tape, glue or magnets required.Powered with 4x AA batteries (batteries not included), or AC adaptor available separately.Delivery & installation charges may apply. Please enquire to confirm.","EACH","0","yes","1","","","","217.5425","207.5977","198.8960","191.4374","1","2","3","4","","","","","","active","normal","03/04/2017","","","323","","CUM","Core","Online;FLC;","20021 Presentation Products/pin & memo boards","Furniture/Whiteboards & Memo Boards","","","","Cumberland","Aluminium","Flip Charts & Boards","","","","","","","","","","","",""
"CUM-JL507","","JL507","JUSTICK WHITEBOARD Aluminium Frame 900x1200mm Wht ","Whiteboard to hold information with an added clear sheet providing a writeable surface.A practical, quality display for information that changes regularly.No pins, tape, glue or magnets required.Powered with 4x AA batteries (batteries not included), or AC adaptor available separately.Delivery & installation charges may apply. Please enquire to confirm.","EACH","0","yes","1","","","","316.3475","301.8859","289.2320","278.3858","1","2","3","4","","","","","","active","normal","03/04/2017","","","323","","CUM","Core","Online;FLC;","20021 Presentation Products/pin & memo boards","Furniture/Whiteboards & Memo Boards","","","","Cumberland","Aluminium","Flip Charts & Boards","","","","","","","","","","","",""
"FNX-GFCA4WS","","GFCA4WC","GO 4 DRAWER FILING CABINET H1321xw460xd620mm White Furnx","Fully riveted and assembled.Anit-tilt feature to prevent tipping.10 year warranty.Dimensions: 2 drawer H705xW460xD620mm, 3 drawer H1016xW460xD620mm, 4 drawer H1321xW460xD620mm.Delivery, installation and assembly charges may apply to furniture. Please enquire to confirm.","EACH","11111","yes","1","","","","297.2727","285.4545","267.2727","238.1818","1","2","3","4","275.2818","270.1364","264.9909","257.2727","","inactive","normal","03/04/2017","29/09/2018","","434","","FNX","Core","Online;FLC;EDU;","21045 Furniture/coat racks","Furniture/Storage","","","","GO","Filing Cabinets","Cabinets","","White","","","","","","","","","",""
"JAS-0310380","","0310380","JASART   SKETCHING PENCIL TINS   Pack of 6","These artist quality sketching pencils are perfect for free style sketches, bold line drawings, detailed portraiture and much more.The Jasart Sketching Pencils are made out of a high quality wood meaning they will sharpen smoothly and the leads are fully bonded to the wood to prevent breakage.Includes a variety of degrees from 2H.Variety of pack sizes available.Tin of 6 contains 1 of each HB, 2B, 4B, 6B, 7B, 8B.Tin of 12 contains 1 of each 2H, H, F, HB, B, 2B, 3B, 4B, 5B, 6B, 7B, 8B.","PACK","9311960310384","yes","1","","","","14.0909","13.5455","12.7273","12.3636","1","2","4","8","13.8127","13.5545","13.2964","12.9091","","active","normal","23/06/2018","","","","","JAS","Core","Online;","25006 Art & Craft/coloured pencils","School Supplies/Art & Craft","","","","Jasart","Graphite","Pens Pencils & Markers","","","","","","","","","","","",""
"LOG-92003295","MMT-TCKBMMK220","14LT-CKBM-MK220","LOGITECH MK220 COMBO Wireless Keyboard and mouse ","Smaller design, same keys.Advanced 2.4 GHz wireless.Plug and play simplicity.Sleek, minimalist design.Whisper quiet keys.","EACH","097855077998","yes","1","","","","48.1364","46.1818","43.3636","42.3636","1","2","4","8","","","","","","active","normal","23/08/2017","","","306","","MMT","Core","Online;FLC;","03012 Computer Accessories/keyboards","Technology & Accessories/Computer Accessories","","","","Logitech","Wireless Keyboards","Computer Accessories","","","","","","","","","","","",""
"MMT-01SHCAT61MBL","MMT-01CAT61MBLK","01CAT61MBLK","SHINTARO CAT6 PATCH CABLE Blue 1m ","Quality Cat6 patch cables.Perfect in conjunction with 100Base-T and gigabit Ethernet networks.","EACH","0","yes","1","","","","3.0000","2.9400","2.8500","2.7000","1","2","4","8","","","","","","active","normal","03/04/2017","","","312","","MMT","Core","Online;FLC;","03042 Computer Accessories/cables","Technology & Accessories/Cleaning & Cables","","","","Shintaro","Network Cables","Cables & Chargers","","","","","","","","","","","",""
"MMT-01SHCAT62MBL","MMT-01CAT62MBLK","01CAT62MBLK","SHINTARO CAT6 PATCH CABLE Blue 2m ","Quality Cat6 patch cables.Perfect in conjunction with 100Base-T and gigabit Ethernet networks.","EACH","0","yes","1","","","","3.8500","3.7730","3.6575","3.4650","1","2","4","8","","","","","","active","normal","03/04/2017","","","312","","MMT","Core","Online;FLC;","03042 Computer Accessories/cables","Technology & Accessories/Cleaning & Cables","","","","Shintaro","Network Cables","Cables & Chargers","","","","","","","","","","","",""
"MMT-01SHCAT63MBL","MMT-01CAT63MBLK","01CAT63MBLK","SHINTARO CAT6 PATCH CABLE Blue 3m ","Quality Cat6 patch cables.Perfect in conjunction with 100Base-T and gigabit Ethernet networks.","EACH","0","yes","1","","","","4.9000","4.8020","4.6550","4.4100","1","2","4","8","","","","","","active","normal","03/04/2017","","","312","","MMT","Core","Online;FLC;","03042 Computer Accessories/cables","Technology & Accessories/Cleaning & Cables","","","","Shintaro","Network Cables","Cables & Chargers","","","","","","","","","","","",""
"MMT-01SHCAT65MBL","MMT-01CAT65MBLK","01CAT65MBLK","SHINTARO CAT6 PATCH CABLE Blue 5m ","Quality Cat6 patch cables.Perfect in conjunction with 100Base-T and gigabit Ethernet networks.","EACH","0","yes","1","","","","5.7700","5.4900","5.3100","5.0200","1","2","4","8","","","","","","active","normal","03/04/2017","","","312","","MMT","Core","Online;FLC;","03042 Computer Accessories/cables","Technology & Accessories/Cleaning & Cables","","","","Shintaro","Network Cables","Cables & Chargers","","","","","","","","","","","",""
"MMT-28SHHUB4USB3","","28SHHUB4USB3V2","SHINTARO USB 3 0 4 PORT HUB USB 3 0 4 Port High Speed ","","EACH","9328157003684","yes","","","","","","","","","","","","","","","","","","active","normal","16/07/2013","","","0","","MMT","Extended","","","","","","","","","","","","","","","","","","","","",""
"MMT-28SHHUB4V4","MMT-28SHHUB4V3","28SHHUB4V3","SHINTARO 4 PORT USB HUB 4 Port ","High speed USB 2.0 connection with 4 ports.Includes 60cm USB extension cable & user manual.","EACH","9328157003950","yes","1","","","","18.3960","17.5200","16.8630","16.2060","1","2","3","4","","","","","","active","normal","03/04/2017","","","315","","MMT","Core","Online;FLC;","03051 Computer Accessories/computer & laptop","Technology & Accessories/Computer Accessories","","","","Shintaro","Usb Hubs","Computer Accessories","","","","","","","","","","","",""
"MOK-HPCAMB","","ACC HPCAMB","MOKI ACC HPCAMB Camo Headphones Blue  ","Camo headphones allow you to receive and end phone calls directly from the in-line mic.Finished with a durable, contemporary camouflage print, the adjustable cloth headband and soft, padded ear cups hold comfortably and securely.In-line mic and single button control.Suitable for use with all 3.5 mm (1/8&quote;) audio devices.","EACH","9328854006124","yes","1","","","","35.6275","34.5586","33.8461","33.1335","1","2","4","8","32.4210","","","","36.3546","active","normal","13/03/2018","","","","","MOK","Core","Online;","03018 Computer Accessories/ipad, iphone & ipod accessories","Technology & Accessories/Computer Accessories","","","","Moki","Headphones & Earphones","Audio","","Blue","","","","","","","","","",""
"MOK-HPCAMGY","","ACC HPCAMGY","MOKI ACC HPCAMGY Camo Headphones Grey  ","Camo headphones allow you to receive and end phone calls directly from the in-line mic.Finished with a durable, contemporary camouflage print, the adjustable cloth headband and soft, padded ear cups hold comfortably and securely.In-line mic and single button control.Suitable for use with all 3.5 mm (1/8&quote;) audio devices.","EACH","9328854006117","yes","1","","","","34.5000","33.4545","31.7273","29.2727","1","2","4","8","29.2727","","","","38.8900","active","normal","13/03/2018","","","","","MOK","Core","Online;","03018 Computer Accessories/ipad, iphone & ipod accessories","Technology & Accessories/Computer Accessories","","","","Moki","Headphones & Earphones","Audio","","Grey","","","","","","","","","",""
"MOK-HPCAMP","","ACC HPCAMP","MOKI ACC HPCAMP Camo Headphones Pink  ","Camo headphones allow you to receive and end phone calls directly from the in-line mic.Finished with a durable, contemporary camouflage print, the adjustable cloth headband and soft, padded ear cups hold comfortably and securely.In-line mic and single button control.Suitable for use with all 3.5 mm (1/8&quote;) audio devices.","EACH","9328854006131","yes","1","","","","35.6275","34.5586","33.8461","33.1335","1","2","4","8","32.4210","","","","36.3546","active","normal","13/03/2018","","","","","MOK","Core","Online;","03018 Computer Accessories/ipad, iphone & ipod accessories","Technology & Accessories/Computer Accessories","","","","Moki","Headphones & Earphones","Audio","","Pink","","","","","","","","","",""
"MOK-HPNEBK","","ACC HPNEBK","MOKI ACC HPNEBK Nero Headphones   ","Moki Nero headphones deliver an outstanding sound that covers all audible frequencies in a stylishly minimal design.With super soft, super comfortable ear cups and adjustable headband, Moki Nero headphones hold with very little ear pressure meaning they can be worn comfortably for extended listening sessions.Cable includes in-line mic and  single button control.Single sided removable cable  reduces tangles.Suitable for use with all 3.5mm (1/8&quote;) audio devices.","EACH","9328854009323","yes","1","","","","35.6275","34.5586","33.8461","33.1335","1","2","4","8","32.4210","","","","36.3546","active","normal","13/03/2018","","","","","MOK","Core","Online;","03018 Computer Accessories/ipad, iphone & ipod accessories","Technology & Accessories/Computer Accessories","","","","Moki","Headphones & Earphones","Audio","","","","","","","","","","","",""
"MOK-HPP17A","","ACC HPP17A","MOKI ACC HPP17A Poppers Headphones   ","Moki poppers are a soft cushioned headphones ideal for those who want to listen to their tunes or play games in their own style.120cm (4 inch) flat cable easier to untangle.Dj style swivel ear cups.Great quality sound.Available in a range of appealing designs.Suitable for use with all 3.5 mm (1/8&quote;) audio devices.","EACH","9328854009699","yes","1","","","","35.6275","34.5586","33.8461","33.1335","1","2","4","8","32.4210","","","","36.3546","active","normal","13/03/2018","","","","","MOK","Core","Online;","03018 Computer Accessories/ipad, iphone & ipod accessories","Technology & Accessories/Computer Accessories","","","","Moki","Headphones & Earphones","Audio","","","","","","","","","","","",""
"MOK-HPP17F","","ACC HPP17F","MOKI ACC HPP17F Poppers Headphones   ","Moki poppers are a soft cushioned headphones ideal for those who want to listen to their tunes or play games in their own style.120cm (4 inch) flat cable easier to untangle.Dj style swivel ear cups.Great quality sound.Available in a range of appealing designs.Suitable for use with all 3.5 mm (1/8&quote;) audio devices.","EACH","9328854009743","yes","1","","","","35.6275","34.5586","33.8461","33.1335","1","2","4","8","32.4210","","","","36.3546","active","normal","13/03/2018","","","","","MOK","Core","Online;","03018 Computer Accessories/ipad, iphone & ipod accessories","Technology & Accessories/Computer Accessories","","","","Moki","Headphones & Earphones","Audio","","","","","","","","","","","",""
"MOK-HPP17H","","ACC HPP17H","MOKI ACC HPP17H Poppers Headphones   ","Moki poppers are a soft cushioned headphones ideal for those who want to listen to their tunes or play games in their own style.120cm (4 inch) flat cable easier to untangle.Dj style swivel ear cups.Great quality sound.Available in a range of appealing designs.Suitable for use with all 3.5 mm (1/8&quote;) audio devices.","EACH","9328854009767","yes","1","","","","35.6275","34.5586","33.8461","33.1335","1","2","4","8","32.4210","","","","36.3546","active","normal","13/03/2018","","","","","MOK","Core","Online;","03018 Computer Accessories/ipad, iphone & ipod accessories","Technology & Accessories/Computer Accessories","","","","Moki","Headphones & Earphones","Audio","","","","","","","","","","","",""
"MOK-HPP17L","","ACC HPP17L","MOKI ACC HPP17L Poppers Headphones   ","Moki poppers are a soft cushioned headphones ideal for those who want to listen to their tunes or play games in their own style.120cm (4 inch) flat cable easier to untangle.Dj style swivel ear cups.Great quality sound.Available in a range of appealing designs.Suitable for use with all 3.5 mm (1/8&quote;) audio devices.","EACH","9328854009804","yes","1","","","","35.6275","34.5586","33.8461","33.1335","1","2","4","8","32.4210","","","","36.3546","active","normal","13/03/2018","","","","","MOK","Core","Online;","03018 Computer Accessories/ipad, iphone & ipod accessories","Technology & Accessories/Computer Accessories","","","","Moki","Headphones & Earphones","Audio","","","","","","","","","","","",""
"MOK-HPPOB","","ACC HPPOB","MOKI ACC HPPOB Poppers Headphones   ","Moki poppers are a soft cushioned headphones ideal for those who want to listen to their tunes or play games in their own style.120cm (4 inch) flat cable easier to untangle.Dj style swivel ear cups.Great quality sound.Available in a range of appealing designs.Suitable for use with all 3.5 mm (1/8&quote;) audio devices.","EACH","9328854005592","yes","1","","","","35.6275","34.5586","33.8461","33.1335","1","2","4","8","32.4210","","","","36.3546","active","normal","13/03/2018","","","","","MOK","Core","Online;","03018 Computer Accessories/ipad, iphone & ipod accessories","Technology & Accessories/Computer Accessories","","","","Moki","Headphones & Earphones","Audio","","","","","","","","","","","",""
"MOK-HPPOD","","ACC HPPOD","MOKI ACC HPPOD Poppers Headphones   ","Moki poppers are a soft cushioned headphones ideal for those who want to listen to their tunes or play games in their own style.120cm (4 inch) flat cable easier to untangle.Dj style swivel ear cups.Great quality sound.Available in a range of appealing designs.Suitable for use with all 3.5 mm (1/8&quote;) audio devices.","EACH","9328854005639","yes","1","","","","35.6275","34.5586","33.8461","33.1335","1","2","4","8","32.4210","","","","36.3546","active","normal","13/03/2018","","","","","MOK","Core","Online;","03018 Computer Accessories/ipad, iphone & ipod accessories","Technology & Accessories/Computer Accessories","","","","Moki","Headphones & Earphones","Audio","","","","","","","","","","","",""
"MOK-HPPOE","","ACC HPPOE","MOKI ACC HPPOE Poppers Headphones   ","Moki poppers are a soft cushioned headphones ideal for those who want to listen to their tunes or play games in their own style.120cm (4 inch) flat cable easier to untangle.Dj style swivel ear cups.Great quality sound.Available in a range of appealing designs.Suitable for use with all 3.5 mm (1/8&quote;) audio devices.","EACH","9328854005585","yes","1","","","","35.6275","34.5586","33.8461","33.1335","1","2","4","8","32.4210","","","","36.3546","active","normal","13/03/2018","","","","","MOK","Core","Online;","03018 Computer Accessories/ipad, iphone & ipod accessories","Technology & Accessories/Computer Accessories","","","","Moki","Headphones & Earphones","Audio","","","","","","","","","","","",""
"MOK-HPPOH","","ACC HPPOH","MOKI ACC HPPOH Poppers Headphones   ","Moki poppers are a soft cushioned headphones ideal for those who want to listen to their tunes or play games in their own style.120cm (4 inch) flat cable easier to untangle.Dj style swivel ear cups.Great quality sound.Available in a range of appealing designs.Suitable for use with all 3.5 mm (1/8&quote;) audio devices.","EACH","9328854005615","yes","1","","","","35.6275","34.5586","33.8461","33.1335","1","2","4","8","32.4210","","","","36.3546","active","normal","13/03/2018","","","","","MOK","Core","Online;","03018 Computer Accessories/ipad, iphone & ipod accessories","Technology & Accessories/Computer Accessories","","","","Moki","Headphones & Earphones","Audio","","","","","","","","","","","",""
"MOK-HPPOI","","ACC HPPOI","MOKI ACC HPPOI Poppers Headphones   ","Moki poppers are a soft cushioned headphones ideal for those who want to listen to their tunes or play games in their own style.120cm (4 inch) flat cable easier to untangle.Dj style swivel ear cups.Great quality sound.Available in a range of appealing designs.Suitable for use with all 3.5 mm (1/8&quote;) audio devices.","EACH","9328854006209","yes","1","","","","35.6275","34.5586","33.8461","33.1335","1","2","4","8","32.4210","","","","36.3546","active","normal","13/03/2018","","","","","MOK","Core","Online;","03018 Computer Accessories/ipad, iphone & ipod accessories","Technology & Accessories/Computer Accessories","","","","Moki","Headphones & Earphones","Audio","","","","","","","","","","","",""
"MOK-HPPON","","ACC HPPON","MOKI ACC HPPON Poppers Headphones   ","Moki poppers are a soft cushioned headphones ideal for those who want to listen to their tunes or play games in their own style120cm (4 inch) flat cable easier to untangle.Dj style swivel ear cups.Great quality sound.Available in a range of appealing designs.Suitable for use with all 3.5 mm (1/8&quote;) audio devices.","EACH","9328854006216","yes","1","","","","35.6275","34.5586","33.8461","33.1335","1","2","4","8","32.4210","","","","36.3546","active","normal","13/03/2018","","","","","MOK","Core","Online;","03018 Computer Accessories/ipad, iphone & ipod accessories","Technology & Accessories/Computer Accessories","","","","Moki","Headphones & Earphones","Audio","","","","","","","","","","","",""
"MOK-HPPOS1","","ACC HPPOS1","MOKI ACC HPPOS1 Poppers Headphones   ","Moki poppers are a soft cushioned headphones ideal for those who want to listen to their tunes or play games in their own style.120cm (4 inch) flat cable easier to untangle.Dj style swivel ear cups.Great quality sound.Available in a range of appealing designs.Suitable for use with all 3.5 mm (1/8&quote;) audio devices.","EACH","9328854006247","yes","1","","","","35.6275","34.5586","33.8461","33.1335","1","2","4","8","32.4210","","","","36.3546","active","normal","13/03/2018","","","","","MOK","Core","Online;","03018 Computer Accessories/ipad, iphone & ipod accessories","Technology & Accessories/Computer Accessories","","","","Moki","Headphones & Earphones","Audio","","","","","","","","","","","",""
"MOK-HPPOU4","","ACC HPPOU4","MOKI ACC HPPOU4 Poppers Headphones   ","Moki poppers are a soft cushioned headphones ideal for those who want to listen to their tunes or play games in their own style.120cm (4Dj style swivel ear cups.Great quality sound.Available in a range of appealing designs.Suitable for use with all 3.5 mm (1/8&quote;) audio devices.","EACH","9328854006254","yes","1","","","","35.6275","34.5586","33.8461","33.1335","1","2","4","8","32.4210","","","","36.3546","active","normal","13/03/2018","","","","","MOK","Core","Online;","03018 Computer Accessories/ipad, iphone & ipod accessories","Technology & Accessories/Computer Accessories","","","","Moki","Headphones & Earphones","Audio","","","","","","","","","","","",""
"MOK-MPB2600B","","ACC MPB2600B","MOKI ACC MPB2600B  Powerbank Black  ","Moki power banks charge your portable usb devices anywhere, anytime.2600MAH is the ideal capacity & size to carry with you every day for extending daily use of a smartphonePower input: 5v / 1a.Power output: 5v / 1a.Charge time: 3 hrs via usb.Dimensions: H10.5x W3.1xD2.2 cm (4.3 x 1.2 x 0.9&quote;).","EACH","9328854007374","yes","1","","","","26.3182","25.2727","23.7273","21.0909","1","2","4","8","22.3636","","","","29.9900","active","normal","13/03/2018","","","","","MOK","Core","Online;","03018 Computer Accessories/ipad, iphone & ipod accessories","Technology & Accessories/Computer Accessories","","","","Moki","Single Port","Power Banks","","Black","","","","","","","","","",""
"MOK-MPB5200B","","ACC MPB5200B","MOKI ACC MPB5200B  Powerbank Black  ","The 5200MAH is the ideal capacity & size for extending your daily use of a smartphone without the need for recharging it every time it's used.5200MAH will fully recharge most smart phones at least oncePower input: 5v / 1a.Power output: 5v / 1a.Charge time: 4-5 hrs via usb.Dimensions: H10.5xW4.4xD2.2 cm (4.3ix1.7x 0.9&quote;).","EACH","9328854007350","yes","1","","","","35.4091","34.0000","31.9091","28.3636","1","2","4","8","30.0909","","","","49.9900","active","normal","13/03/2018","","","","","MOK","Core","Online;","03018 Computer Accessories/ipad, iphone & ipod accessories","Technology & Accessories/Computer Accessories","","","","Moki","Single Port","Power Banks","","Black","","","","","","","","","",""
"MOK-MPB7800B","","ACC MPB7800B","MOKI ACC MPB7800B  Powerbank Black  ","7800MAH is the ideal size for extended trips when you don't have access to power for a couple of days or heavy smartphone users who find they constantly need a daily top-up.Will fully charge most smartphones 2-3 times before recharge is required.The dual 1a + 2.4a outputs makes it suitable for charging tablets and fast charge devices.Power input: 5v / 1a.Power output: 5v / 1a - 5v / 2.1a.Charge time: 8 hrs via usb.Dimensions: H10.5xW6.2xD2.2cm (4.3x2.4x 0.9&quote;).","EACH","9328854007367","yes","1","","","","53.5909","51.4545","48.2727","42.9091","1","2","4","8","45.5455","","","","69.9900","active","normal","13/03/2018","","","","","MOK","Core","Online;","03018 Computer Accessories/ipad, iphone & ipod accessories","Technology & Accessories/Computer Accessories","","","","Moki","Single Port","Power Banks","","Black","","","","","","","","","",""
"MOK-MSTLCABGM","","ACC MSTLCABGM","MOKI ACC MSTLCABGM Lightning Cable   ","Lightning cables are suitable for charging all lightning idevices.Standard usb can plug direct into your pc for charge and sync or to power adaptors for recharging only.Lightning to usb syncharge 90cm.Braided cable and aluminium casing for extra strength.","EACH","9328854009224","yes","1","","","","26.7184","25.9168","25.3825","24.8481","1","2","4","8","24.3137","","","","27.2636","active","normal","13/03/2018","","","","","MOK","Core","Online;","03042 Computer Accessories/cables","Technology & Accessories/Cleaning & Cables","","","","Moki","Usb /Firewall Cables","Cables & Chargers","","","","","","","","","","","",""
"MOK-MSTLCABRG","","ACC MSTLCABRG","MOKI ACC MSTLCABRG Lightning Cable   ","Lightning cables are suitable for charging all lightning idevices.Standard usb can plug direct into your pc for charge and sync or to power adaptors for recharging only.Lightning to usb syncharge 90cmBraided cable and aluminium casing for extra strength.","EACH","9328854009217","yes","1","","","","26.7184","25.9168","25.3825","24.8481","1","2","4","8","24.3137","","","","27.2636","active","normal","13/03/2018","","","","","MOK","Core","Online;","03042 Computer Accessories/cables","Technology & Accessories/Cleaning & Cables","","","","Moki","Usb /Firewall Cables","Cables & Chargers","","","","","","","","","","","",""
"MOK-MSTLCABSV","","ACC MSTLCABSV","MOKI ACC MSTLCABSV Lightning Cable Silver  ","Lightning cables are suitable for charging all lightning idevices.Standard usb can plug direct into your pc for charge and sync or to power adaptors for recharging only.Lightning to usb syncharge 90cm.Braided cable and aluminium casing for extra strength.","EACH","9328854008586","yes","1","","","","26.7184","25.9168","25.3825","24.8481","1","2","4","8","24.3137","","","","27.2636","active","normal","13/03/2018","","","","","MOK","Core","Online;","03042 Computer Accessories/cables","Technology & Accessories/Cleaning & Cables","","","","Moki","Usb /Firewall Cables","Cables & Chargers","","Silver","","","","","","","","","",""
"MOK-MSTLCAKSRG","","ACC MSTLCAKSRG","MOKI ACC MSTLCAKSRG Lightning Cable   ","Lightning cables are suitable for charging all lightning idevices.Standard usb can plug direct into your pc for charge and sync or to power adaptors for recharging only.Lightning to usb syncharge 3m.Braided cable and aluminium casing for extra strength.","EACH","9328854009231","yes","1","","","","35.6275","34.5586","33.8461","33.1335","1","2","4","8","32.4210","","","","36.3546","active","normal","13/03/2018","","","","","MOK","Core","Online;","03042 Computer Accessories/cables","Technology & Accessories/Cleaning & Cables","","","","Moki","Usb /Firewall Cables","Cables & Chargers","","","","","","","","","","","",""
"MOK-MSTLCAKSSV","","ACC MSTLCAKSSV","MOKI ACC MSTLCAKSSV Lightning Cable Silver  ","Lightning cables are suitable for charging all lightning idevices.Standard usb can plug direct into your pc for charge and sync or to power adaptors for recharging only.Lightning to usb syncharge 3m.Braided cable and aluminium casing for extra strength.","EACH","9328854008630","yes","1","","","","35.6275","34.5586","33.8461","33.1335","1","2","4","8","32.4210","","","","36.3546","active","normal","13/03/2018","","","","","MOK","Core","Online;","03042 Computer Accessories/cables","Technology & Accessories/Cleaning & Cables","","","","Moki","Usb /Firewall Cables","Cables & Chargers","","Silver","","","","","","","","","",""
"MOK-MTAEU","","ACC MTAEU","MOKI ACC MTAEU Travel Adaptors For Europe Adaptor   ","The Moki travel adaptor - AUS/NZ to EU allows you to use Australian devices in Europe and other regions including Indonesia (Bali), Noumea, many parts of north africa and the Middle East + more.","EACH","9328854010046","yes","1","","","","9.7911","9.4974","9.3015","9.1057","1","2","4","8","8.9099","","","","9.9909","active","normal","13/03/2018","","","","","MOK","Core","Online;","03045 Computer Accessories/electrical cords & boards","Technology & Accessories/Cleaning & Cables","","","","Moki","Adaptors","Batteries & Power Supplies","","","","","","","","","","","",""
"MOK-MTAJA","","ACC MTAJA","MOKI ACC MTAJA Travel Adaptors For Japan Adaptor   ","The Moki travel adaptor -  AUS/NZ to Japan for use in Japan, Mexico, USA, Philippines,  Vietnam + more.","EACH","9328854010053","yes","1","","","","9.7911","9.4974","9.3015","9.1057","1","2","4","8","8.9099","","","","9.9909","active","normal","13/03/2018","","","","","MOK","Core","Online;","03045 Computer Accessories/electrical cords & boards","Technology & Accessories/Cleaning & Cables","","","","Moki","Adaptors","Batteries & Power Supplies","","","","","","","","","","","",""
"MOK-MTAUK","","ACC MTAUK","MOKI ACC MTAUK Travel Adaptors For Uk Adaptor   ","The Moki travel adaptor - AUS/NZ to UK allows you to use Australian and New zealand cables and appliances in all of the UK and other countries including Hong Kong, Malaysia, Singapore + more.","EACH","9328854010060","yes","1","","","","9.7911","9.4974","9.3015","9.1057","1","2","4","8","8.9099","","","","9.9909","active","normal","13/03/2018","","","","","MOK","Core","Online;","03045 Computer Accessories/electrical cords & boards","Technology & Accessories/Computer Accessories","","","","Moki","Adaptors","Batteries & Power Supplies","","","","","","","","","","","",""
"MOK-MTAUS","","ACC MTAUS","MOKI ACC MTAUS Travel Adaptors For Us Adaptor   ","The Moki travel adaptor - AUS/NZ to USA allows you to use Australian and New zealand cables and appliances in the USA and other regions including Thailand, Canada, Mexico, Japan and much of South America + more.","EACH","9328854010077","yes","1","","","","9.7911","9.4974","9.3015","9.1057","1","2","4","8","8.9099","","","","9.9909","active","normal","13/03/2018","","","","","MOK","Core","Online;","03045 Computer Accessories/electrical cords & boards","Technology & Accessories/Cleaning & Cables","","","","Moki","Adaptors","Batteries & Power Supplies","","","","","","","","","","","",""
"MOK-MUSBLCAKS","","ACC MUSBLCAKS","MOKI ACC MUSBLCAKS Lightning Cable White  ","Lightning cables are suitable for charging all lightning idevices.Standard usb can plug direct into your pc for charge and sync or to power adaptors for recharging only.Lightning to usb syncharge 3m.","EACH","9328854008500","yes","1","","","","31.1729","30.2377","29.6143","28.9908","1","2","4","8","28.3674","","","","31.8091","active","normal","13/03/2018","","","","","MOK","Core","Online;","03042 Computer Accessories/cables","Technology & Accessories/Cleaning & Cables","","","","Moki","Apple Cables","Cables & Chargers","","White","","","","","","","","","",""
"MOK-MUSBLCAPO","","ACC MUSBLCAPO","MOKI ACC MUSBLCAPO Lightning Cable White  ","Lightning cables are suitable for charging all lightning idevices.Standard usb can plug direct into your pc for charge and sync or to power adaptors for recharging only.Lightning to usb syncharge 10cm.","EACH","9328854008494","yes","1","","","","17.8093","17.2750","16.9188","16.5626","1","2","4","8","16.2064","","","","18.1727","active","normal","13/03/2018","","","","","MOK","Core","Online;","03042 Computer Accessories/cables","Technology & Accessories/Cleaning & Cables","","","","Moki","Apple Cables","Cables & Chargers","","White","","","","","","","","","",""
"MOK-MUSBLCF","","ACC MUSBLCF","MOKI ACC MUSBLCF Lightning Charger   ","Moki fixed usb car chargers give you the convenience to charge your portable usb devices on the go.Along with a Apple lightning 2.4 amp fixed cable, there is also the 1.0a usb input port ideal for connecting any other usb charged device.Recharge via 2.4a fixed lightning cable.1.0a usb port for other devices.Compact coiled cable stretches up to 2m.","EACH","9328854007466","yes","1","","","","26.7184","25.9168","25.3825","24.8481","1","2","4","8","24.3137","","","","27.2636","active","normal","13/03/2018","","","","","MOK","Core","Online;","03042 Computer Accessories/cables","Technology & Accessories/Cleaning & Cables","","","","Moki","Apple Cables","Cables & Chargers","","","","","","","","","","","",""
"NPL-38887900","","38887900","Bibbulmun Foldback Clips 15mm Pack of 12","The Foldback Clips come in black metal finish and have chrome silver handles.","PACK","9332109004469","yes","1","","","","0.9091","0.9091","0.9091","0.8182","1","2","4","8","0.9091","0.8182","0.8182","0.8182","","active","normal","26/08/2018","","","","","NPL","Core","Online;FLC;","14003 Clips - Fasteners/foldback clips","Office Stationery/Clips & Fasteners","","","","Bibbulmun","Binder Clips","Clips & Fastener","","","","","","","","","","","",""
"NPL-38888000","","38888000","Bibbulmun Foldback Clips 19mm Pack of 12","The Foldback Clips come in black metal finish and have chrome silver handles.","PACK","9332109007897","yes","1","","","","1.0000","1.0000","0.9091","0.9091","1","2","4","8","1.0000","0.9091","0.9091","0.9000","","active","normal","26/08/2018","","","","","NPL","Core","Online;FLC;","14003 Clips - Fasteners/foldback clips","Office Stationery/Clips & Fasteners","","","","Bibbulmun","Binder Clips","Clips & Fastener","","","","","","","","","","","",""
"NPL-38889000","","38889000","Bibbulmun Foldback Clips 25mm Pack of 12","The Foldback Clips come in black metal finish and have chrome silver handles.","PACK","9332109006463","yes","1","","","","1.6364","1.5455","1.5455","1.5455","1","2","4","8","1.5455","1.5455","1.5455","1.4727","","active","normal","26/08/2018","","","","","NPL","Core","Online;FLC;","14003 Clips - Fasteners/foldback clips","Office Stationery/Clips & Fasteners","","","","Bibbulmun","Binder Clips","Clips & Fastener","","","","","","","","","","","",""
"NPL-38890000","","38890000","Bibbulmun Foldback Clips 32mm Pack of 12","The Foldback Clips come in black metal finish and have chrome silver handles.","PACK","9332109006005","yes","1","","","","2.2727","2.1818","2.1818","2.0909","1","2","4","8","2.1818","2.1818","2.0909","2.0455","","active","normal","26/08/2018","","","","","NPL","Core","Online;FLC;","14003 Clips - Fasteners/foldback clips","Office Stationery/Clips & Fasteners","","","","Bibbulmun","Binder Clips","Clips & Fastener","","","","","","","","","","","",""
"NPL-38891000","","38891000","Bibbulmun Foldback Clips 41mm Pack of 12","The Foldback Clips come in black metal finish and have chrome silver handles.","PACK","9332109001598","yes","1","","","","3.7273","3.6364","3.5455","3.4545","1","2","4","8","3.5455","3.5455","3.4545","3.3545","","active","normal","26/08/2018","","","","","NPL","Core","Online;FLC;","14003 Clips - Fasteners/foldback clips","Office Stationery/Clips & Fasteners","","","","Bibbulmun","Binder Clips","Clips & Fastener","","","","","","","","","","","",""
"NPL-38892000","","38892000","Bibbulmun Foldback Clips 51mm Pack of 12","The Foldback Clips come in black metal finish and have chrome silver handles.","PACK","9332109008511","yes","1","","","","5.9091","5.7273","5.6364","5.4545","1","2","4","8","5.7273","5.5455","5.4545","5.3182","","active","normal","26/08/2018","","","","","NPL","Core","Online;FLC;","14003 Clips - Fasteners/foldback clips","Office Stationery/Clips & Fasteners","","","","Bibbulmun","Binder Clips","Clips & Fastener","","","","","","","","","","","",""
"OLY-V403121SG000","","V403121SG000","OLYMPUS DS2500 VOICE RECORDER Digital 2GB SD Card Included ","Item Code: OLY-V403121SG000Type: Digital Voice RecorderFeatures: Enjoy plenty of recording time with the included 2GB SD Card removable media. Customisable Navigation Pod. Allows users to control how they navigate and create short cuts that suit them. Choose between SP and QP recording modes. Compatible with v","EACH","4545350040628","yes","1","","","","298.3500","298.3500","298.3500","298.3500","1","99999999","99999999","99999999","","","","","0.0000","inactive","normal","16/07/2012","29/09/2018","","245","","MOR","Core","Online;FLC;","04051 Business Machines/dictating machines","Printers & Office Machines/Calculators & Dictation","","","","Olympus","Voice Recorders","Communication Accessories","","","","2 GB","","","","","","","",""
"SPP-108830","","108830","COLOR COPY DIGITAL PAPER A4 250gsm Ream of 125","Ideal choice for premium printing applicationsBest quality for high-impact presentations personalised mailing and promotional materialNeedle-sharp print outs exceptional colour brillianceColor Copy is suitable to run on all dry toner color laser printers and is approved by all leading machine manufacturers Forest Stewardship Council&#153; (FSC&#153; ) Certified","REAM","9003974406602","yes","1","","","","35.8750","34.7988","34.0813","31.9288","1","5","10","15","","","","","0.0000","inactive","normal","28/05/2015","29/09/2018","","0","","SPP","Core","Online;","05009 Envelopes - Paper Products/digital paper","Paper, Post & Books/Paper","","","","Color Copy","Digital Paper","A4 Copy Paper","A4","White","","","","","","","","","",""
"STD-430M5","","430MA-5","STAEDTLER STICK 430 BALL PEN Medium Green ","Reliable high performance ballpoint pen at the right priceFeatures metal tip ventilated cap and comfortable hexagonal gripContains smooth writing ink that dries immediately and can write up to more than 3 200 metres for medium and 4 200 metres for fineAvailable in boxes of 10 and boxes of 50 (medium blue black and red)","EACH","4007817410912","yes","1","","","","0.6060","0.5909","0.5636","0.5212","1","2","3","5","","","","","0.0000","active","normal","17/11/2016","","","0","","STD","Core","Online;","10015 Pens - Pencils Markers/ballpoint pens","Office Stationery/Pens","","","","Staedtler","Ballpoint Pens","Pens Pencils & Markers","","Green","","","","","","","","","",""
