"Supplier Code","Item Code","Supplier Item Code","Pty Order","Buy UOM","Order Multiple","Divisor","Unit Barcode","Unit Length","Unit Width","Unit Height","Unit Weight","Master Qty","Master Barcode","Master Length","Master Width","Master Height","Master Weight","Inner Qty","Inner Barcode","Inner Length","Inner Width","Inner Height","Inner Weight","Cost 1","Cost 2","Cost 3","Cost 4","Cost 5","Promotion Cost","Future Cost","Future Cost Eff Date","Special Cost","Special Cost From","Special Cost To","Status"
"ACO","ACO-634040700","634040700","4","PACK","1","3","9317257500209","","","","","","","","","","","","","","","","","26.7100","","","","","","","","","","","active"
"GNS","ACO-634040700","72859","8","EACH","1","1","11111","","","","","","","","","","","","","","","","","8.9000","","","","","","","","","","","active"
"CUM","CUM-33105M","4001915","4","BOX","1","6","11111","","","","","","","","","","","","","","","","","87.0000","","","","","","","","","","","active"
"CUM","CUM-4012802","4028214","4","BOX","1","10","11111","","","","","","","","","","","","","","","","","48.2800","","","","","","","","","","","active"
"CUM","CUM-4028211","4028211","4","BOX","1","10","8711000362532","","","","","","","","","","","","","","","","","48.2800","","","","","","","","","","","active"
"CUM","CUM-4028212","4028212","4","BOX","1","10","8711000362556","","","","","","","","","","","","","","","","","48.2800","","","","","","","","","","","active"
"CUM","CUM-4028216","4028216","4","BOX","1","10","8711000362631","","","","","","","","","","","","","","","","","48.2800","","","","","","","","","","","active"
"CUM","CUM-4028218","4028218","4","BOX","1","10","8711000362679","","","","","","","","","","","","","","","","","48.2800","","","","","","","","","","","active"
"CUM","CUM-903316","903316","4","BOX","1","10","9316792049747","","","","","","","","","","","","","","","","","33.1500","","","","","","","","","","","active"
"CUM","CUM-906323","906323","4","BOX","1","20","9316792049693","","","","","","","","","","","","","","","","","30.3200","","","","","","","","","","","active"
"CUM","CUM-906333","906333","4","BOX","1","20","9316792049709","","","","","","","","","","","","","","","","","29.5900","","","","","","","","","","","active"
"CUM","CUM-912323","912323","4","BOX","1","10","9316792049723","","","","","","","","","","","","","","","","","26.3100","","","","","","","","","","","active"
"CUM","CUM-912333","912333","4","BOX","1","10","9316792049716","","","","","","","","","","","","","","","","","22.8300","","","","","","","","","","","active"
"CUM","CUM-913333","913333","4","BOX","1","10","9316792049730","","","","","","","","","","","","","","","","","33.9300","","","","","","","","","","","active"
"FAB","FAB-11112500","11-112500","4","PACK","1","1","1111111111130","","","","","","","","","","","","","","","","","3.0000","","","","","","","","","","","active"
"FAB","FAB-11112504","11-112504","4","PACK","1","1","1111111111178","","","","","","","","","","","","","","","","","3.0000","","","","","","","","","","","active"
"FAB","FAB-16315812","16-315812","4","PACK","1","1","8991761312353","","","","","","","","","","","","","","","","","1.6000","","","","","","","","","","","active"
"FAB","FAB-82702018","82127020","4","EACH","18","1","9556089720182","","","","","","","","","","","","","","","","","1.0200","","","","","","","","","","","active"
"FAB","FAB-82708230","82188230","4","EACH","30","1","9556089882309","","","","","","","","","","","","","","","","","0.4500","","","","","","","","","","","active"
"FAB","FAB-82708520","82188539","4","EACH","20","1","9556089885201","","","","","","","","","","","","","","","","","0.4500","","","","","","","","","","","active"
"FAB","FAB-82708530","82188538","4","EACH","30","1","9556089885300","","","","","","","","","","","","","","","","","0.3000","","","","","","","","","","","active"
"JPM","JPM-20303","20303","4","EACH","1","1","9317468931892","","","","","","","","","","","","","","","","","70.0000","","","","","","","","","","","active"
"JPM","JPM-20403","20403","4","EACH","1","1","9317468931908","","","","","","","","","","","","","","","","","70.0000","","","","","","","","","","","active"
"JPM","JPM-20503","20503","4","EACH","1","1","9317468931915","","","","","","","","","","","","","","","","","47.5000","","","","","","","","","","","active"
"JPM","JPM-20603","20603","4","EACH","1","1","9317468931922","","","","","","","","","","","","","","","","","26.5000","","","","","","","","","","","active"
"JPM","JPM-20903","20903","4","EACH","1","1","9317468931939","","","","","","","","","","","","","","","","","19.5000","","","","","","","","","","","active"
"JPM","JPM-2223","2223","4","EACH","1","1","9317468222303","","","","","","","","","","","","","","","","","0.6000","","","","","","","","","","","active"
"JPM","JPM-2230","2230","4","EACH","1","1","9317468223003","","","","","","","","","","","","","","","","","0.4000","","","","","","","","","","","active"
"JPM","JPM-2250","2250","4","EACH","1","1","0","","","","","","","","","","","","","","","","","1.0000","","","","","","","","","","","active"
"JPM","JPM-2365","2365","4","EACH","1","1","9317468236508","","","","","","","","","","","","","","","","","0.6800","","","","","","","","","","","active"
"JPM","JPM-39103","39103","4","EACH","1","1","779881391032","","","","","","","","","","","","","","","","","11.5000","","","","","","","","","","","active"
"JPM","JPM-39132","39132","4","EACH","1","1","79916039176","","","","","","","","","","","","","","","","","9.6500","","","","","","","","","","","active"
"JPM","JPM-39232","39232","4","EACH","1","1","79916039190","","","","","","","","","","","","","","","","","8.2500","","","","","","","","","","","active"
"JPM","JPM-39332","39332","4","EACH","1","1","79916039206","","","","","","","","","","","","","","","","","5.4000","","","","","","","","","","","active"
"JPM","JPM-39510","39510","4","EACH","1","1","776881395107","","","","","","","","","","","","","","","","","6.7000","","","","","","","","","","","active"
"JPM","JPM-39511","39511","4","EACH","1","1","776881395114","","","","","","","","","","","","","","","","","5.0000","","","","","","","","","","","active"
"JPM","JPM-39512","39512","4","EACH","1","1","776881395121","","","","","","","","","","","","","","","","","3.1000","","","","","","","","","","","active"
"JPM","JPM-39610","39610","4","EACH","1","1","0776881396104","","","","","","","","","","","","","","","","","5.4900","","","","","","","","","","","active"
"JPM","JPM-39611","39611","4","EACH","1","1","0776881396111","","","","","","","","","","","","","","","","","3.2800","","","","","","","","","","","active"
"JPM","JPM-39612","39612","4","EACH","1","1","0776881237506","","","","","","","","","","","","","","","","","2.5400","","","","","","","","","","","active"
"JPM","JPM-39620","39620","4","EACH","1","1","9317468396202","","","","","","","","","","","","","","","","","14.3800","","","","","","","","","","","active"
"JPM","JPM-39623","39623","4","EACH","1","1","9317468396233","","","","","","","","","","","","","","","","","25.8800","","","","","","","","","","","active"
"JPM","JPM-45101","45101","4","EACH","1","1","079916451015","","","","","","","","","","","","","","","","","2.2900","","","","","","","","","","","active"
"JPM","JPM-45201","45201","4","EACH","1","1","079916452012","","","","","","","","","","","","","","","","","1.5800","","","","","","","","","","","active"
"JPM","JPM-46901","46901","4","EACH","1","1","079916469012","","","","","","","","","","","","","","","","","4.4600","","","","","","","","","","","active"
"JPM","JPM-47001","47001","4","EACH","1","1","079916470016","","","","","","","","","","","","","","","","","4.7300","","","","","","","","","","","active"
"JPM","JPM-47201","47201","4","EACH","1","1","079916472010","","","","","","","","","","","","","","","","","13.2000","","","","","","","","","","","active"
"JPM","JPM-47211","47211","4","EACH","1","1","079916472119","","","","","","","","","","","","","","","","","13.2000","","","","","","","","","","","active"
"JPM","JPM-47401","47401","4","EACH","1","1","79916474014","","","","","","","","","","","","","","","","","4.3500","","","","","","","","","","","active"
"JPM","JPM-47511","47511","4","EACH","1","1","79916475110","","","","","","","","","","","","","","","","","3.3300","","","","","","","","","","","active"
"JPM","JPM-47611","47611","4","EACH","1","1","79916476117","","","","","","","","","","","","","","","","","13.8000","","","","","","","","","","","active"
"JPM","JPM-47801","47801","4","EACH","1","1","079916478012","","","","","","","","","","","","","","","","","4.5600","","","","","","","","","","","active"
"JPM","JPM-47901","47901","4","EACH","1","1","079916479019","","","","","","","","","","","","","","","","","2.6000","","","","","","","","","","","active"
"JPM","JPM-48701","48701","4","EACH","1","1","79916487014","","","","","","","","","","","","","","","","","4.0000","","","","","","","","","","","active"
"JPM","JPM-510601","510601","4","PACK","1","1","9317468106016","","","","","","","","","","","","","","","","","12.0000","","","","","","","","","","","active"
"JPM","JPM-510602","510602","4","PACK","1","1","9317468106023","","","","","","","","","","","","","","","","","12.0000","","","","","","","","","","","active"
"JPM","JPM-58021","58021","4","EACH","1","1","079916580210","","","","","","","","","","","","","","","","","430.0000","","","","","","","","","","","active"
"JPM","JPM-592701","592701","4","EACH","1","1","79916590271","","","","","","","","","","","","","","","","","24.6500","","","","","","","","","","","active"
"JPM","JPM-592704","592704","4","EACH","1","1","9317468933810","","","","","","","","","","","","","","","","","24.6500","","","","","","","","","","","active"
"JPM","JPM-63001","63001","4","EACH","1","1","079916630014","","","","","","","","","","","","","","","","","6.8000","","","","","","","","","","","active"
"JPM","JPM-63101","63101","4","EACH","1","1","079916631011","","","","","","","","","","","","","","","","","6.8000","","","","","","","","","","","active"
"JPM","JPM-66601","66601","4","EACH","1","1","0079916039138","","","","","","","","","","","","","","","","","32.0000","","","","","","","","","","","active"
"JPM","JPM-6801401A4","6801401A4","4","EACH","1","1","97468680141","","","","","","","","","","","","","","","","","17.5000","","","","","","","","","","","active"
"JPM","JPM-6801401A5","6801401A5","4","EACH","1","1","9317468684019","","","","","","","","","","","","","","","","","11.0000","","","","","","","","","","","active"
"JPM","JPM-6801401DL","6801401DL","4","EACH","1","1","79916614717","","","","","","","","","","","","","","","","","8.5000","","","","","","","","","","","active"
"JPM","JPM-6900401A5","6900401A5","4","EACH","1","1","9317468900409","","","","","","","","","","","","","","","","","11.0000","","","","","","","","","","","active"
"JPM","JPM-6900401DL","6900401DL","4","EACH","1","1","79916721408","","","","","","","","","","","","","","","","","8.5000","","","","","","","","","","","active"
"JPM","JPM-693161","693161","4","EACH","1","1","9317468147897","","","","","","","","","","","","","","","","","80.0000","","","","","","","","","","","active"
"JPM","JPM-69901L","69901L","4","EACH","1","1","79916699110","","","","","","","","","","","","","","","","","13.8000","","","","","","","","","","","active"
"JPM","JPM-699101P","699101P","4","EACH","1","1","79916699011","","","","","","","","","","","","","","","","","15.0000","","","","","","","","","","","active"
"JPM","JPM-70101","70101","4","EACH","1","1","079916701015","","","","","","","","","","","","","","","","","0.8500","","","","","","","","","","","active"
"JPM","JPM-70401","70401","4","EACH","1","1","079916704012","","","","","","","","","","","","","","","","","2.1000","","","","","","","","","","","active"
"JPM","JPM-70501","70501","4","EACH","1","1","79916705019","","","","","","","","","","","","","","","","","2.3000","","","","","","","","","","","active"
"JPM","JPM-70801","70801","4","EACH","1","1","079916708010","","","","","","","","","","","","","","","","","4.1300","","","","","","","","","","","active"
"JPM","JPM-71345","71345","4","EACH","1","1","9317468713450","","","","","","","","","","","","","","","","","10.0000","","","","","","","","","","","active"
"JPM","JPM-74001","74001","4","EACH","1","1","079916740010","","","","","","","","","","","","","","","","","6.2800","","","","","","","","","","","active"
"JPM","JPM-74501","74501","4","EACH","1","1","079916745015","","","","","","","","","","","","","","","","","7.1000","","","","","","","","","","","active"
"JPM","JPM-745DIV","745DIV","4","EACH","1","1","9317468933698","","","","","","","","","","","","","","","","","0.5800","","","","","","","","","","","active"
"JPM","JPM-74901","74901","4","EACH","1","1","079916749013","","","","","","","","","","","","","","","","","4.1200","","","","","","","","","","","active"
"JPM","JPM-76601","76601","4","EACH","1","1","9317468766012","","","","","","","","","","","","","","","","","4.0000","","","","","","","","","","","active"
"JPM","JPM-77001","77001","4","EACH","1","1","079916770017","","","","","","","","","","","","","","","","","5.5000","","","","","","","","","","","active"
"JPM","JPM-77301","77301","4","EACH","1","1","079916773018","","","","","","","","","","","","","","","","","14.2200","","","","","","","","","","","active"
"JPM","JPM-77331","77331","4","EACH","1","1","079916993315","","","","","","","","","","","","","","","","","21.8000","","","","","","","","","","","active"
"JPM","JPM-77411","77411","4","EACH","1","1","79916774114","","","","","","","","","","","","","","","","","8.1000","","","","","","","","","","","active"
"JPM","JPM-77451","77451","4","EACH","1","1","9317468932776","","","","","","","","","","","","","","","","","31.6300","","","","","","","","","","","active"
"JPM","JPM-77451DIV","77451DIV","4","EACH","1","1","9317468933810","","","","","","","","","","","","","","","","","0.5800","","","","","","","","","","","active"
"JPM","JPM-77501","77501","4","EACH","1","1","079916775012","","","","","","","","","","","","","","","","","2.4700","","","","","","","","","","","active"
"JPM","JPM-77701","77701","4","EACH","1","1","079916777016","","","","","","","","","","","","","","","","","8.2700","","","","","","","","","","","active"
"JPM","JPM-77862","77862","4","EACH","1","1","79916778624","","","","","","","","","","","","","","","","","5.0400","","","","","","","","","","","active"
"JPM","JPM-77865","77865","4","EACH","1","1","79916778655","","","","","","","","","","","","","","","","","11.8800","","","","","","","","","","","active"
"JPM","JPM-77901","77901","4","EACH","1","1","079916779010","","","","","","","","","","","","","","","","","10.2000","","","","","","","","","","","active"
"JPM","JPM-781049","781049","4","EACH","1","1","9317468932731","","","","","","","","","","","","","","","","","81.5000","","","","","","","","","","","active"
"JPM","JPM-78145","78145","4","EACH","1","1","079916714103","","","","","","","","","","","","","","","","","8.5000","","","","","","","","","","","active"
"JPM","JPM-790345","790345","4","EACH","1","1","9317468147903","","","","","","","","","","","","","","","","","92.5000","","","","","","","","","","","active"
"JPM","JPM-790545","790545","4","EACH","1","1","9317468147927","","","","","","","","","","","","","","","","","121.0000","","","","","","","","","","","active"
"JPM","JPM-790645","790645","4","EACH","1","1","9317468147934","","","","","","","","","","","","","","","","","121.0000","","","","","","","","","","","active"
"JPM","JPM-790845","790845","4","EACH","1","1","9317468147910","","","","","","","","","","","","","","","","","90.5000","","","","","","","","","","","active"
"JPM","JPM-790901","790901","4","EACH","1","1","79916790916","","","","","","","","","","","","","","","","","17.5500","","","","","","","","","","","active"
"JPM","JPM-80401","80401","4","EACH","1","1","9317468932981","","","","","","","","","","","","","","","","","1.4500","","","","","","","","","","","active"
"JPM","JPM-82501","82501","4","EACH","1","1","9317468825016","","","","","","","","","","","","","","","","","38.8300","","","","","","","","","","","active"
"JPM","JPM-82502","82502","4","EACH","1","1","9317468825023","","","","","","","","","","","","","","","","","25.8800","","","","","","","","","","","active"
"JPM","JPM-82503","82503","4","EACH","1","1","9317468825030","","","","","","","","","","","","","","","","","17.2600","","","","","","","","","","","active"
"JPM","JPM-82504","82504","4","EACH","1","1","9317468825047","","","","","","","","","","","","","","","","","11.2200","","","","","","","","","","","active"
"JPM","JPM-82541","82541","4","EACH","1","1","9317468825412","","","","","","","","","","","","","","","","","45.0000","","","","","","","","","","","active"
"JPM","JPM-82542","82542","4","EACH","1","1","9317468825429","","","","","","","","","","","","","","","","","33.0000","","","","","","","","","","","active"
"JPM","JPM-82543","82543","4","EACH","1","1","9317468825436","","","","","","","","","","","","","","","","","23.5000","","","","","","","","","","","active"
"JPM","JPM-82544","82544","4","EACH","1","1","9317468825443","","","","","","","","","","","","","","","","","15.5000","","","","","","","","","","","active"
"JPM","JPM-83103","83103","4","EACH","1","1","9317468831031","","","","","","","","","","","","","","","","","80.0000","","","","","","","","","","","active"
"JPM","JPM-83104","83104","4","EACH","1","1","9317468831048","","","","","","","","","","","","","","","","","70.0000","","","","","","","","","","","active"
"JPM","JPM-86111","86111","4","EACH","1","1","9317468861113","","","","","","","","","","","","","","","","","57.5000","","","","","","","","","","","active"
"JPM","JPM-86112","86112","4","EACH","1","1","93174688611120","","","","","","","","","","","","","","","","","57.5000","","","","","","","","","","","active"
"JPM","JPM-86501","86501","4","EACH","1","1","9317468865012","","","","","","","","","","","","","","","","","2.8800","","","","","","","","","","","active"
"JPM","JPM-86610","86610","4","EACH","1","1","9317468866101","","","","","","","","","","","","","","","","","5.5000","","","","","","","","","","","active"
"JPM","JPM-86611","86611","4","EACH","1","1","9317468866118","","","","","","","","","","","","","","","","","3.8500","","","","","","","","","","","active"
"JPM","JPM-86862","86862","4","EACH","1","1","9317468933230","","","","","","","","","","","","","","","","","5.4500","","","","","","","","","","","active"
"JPM","JPM-86901","86901","4","EACH","1","1","9317468869010","","","","","","","","","","","","","","","","","3.4500","","","","","","","","","","","active"
"JPM","JPM-87104","87104","4","EACH","1","1","9317468871044","","","","","","","","","","","","","","","","","24.0000","","","","","","","","","","","active"
"JPM","JPM-87204","87204","4","EACH","1","1","9317468872041","","","","","","","","","","","","","","","","","41.0000","","","","","","","","","","","active"
"JPM","JPM-87304","87304","4","EACH","1","1","9317468873048","","","","","","","","","","","","","","","","","41.0000","","","","","","","","","","","active"
"JPM","JPM-87404","87404","4","EACH","1","1","9317468874045","","","","","","","","","","","","","","","","","65.5000","","","","","","","","","","","active"
"JPM","JPM-90104","90104","4","EACH","1","1","079916025063","","","","","","","","","","","","","","","","","0.8700","","","","","","","","","","","active"
"JPM","JPM-90404","90404","4","EACH","1","1","79916025070","","","","","","","","","","","","","","","","","2.2000","","","","","","","","","","","active"
"JPM","JPM-90503","90503","4","EACH","1","1","9317468931762","","","","","","","","","","","","","","","","","65.0000","","","","","","","","","","","active"
"JPM","JPM-90603","90603","4","EACH","1","1","9317468931793","","","","","","","","","","","","","","","","","40.0000","","","","","","","","","","","active"
"JPM","JPM-90804","90804","4","EACH","1","1","79916025094","","","","","","","","","","","","","","","","","4.0200","","","","","","","","","","","active"
"JPM","JPM-97004","97004","4","EACH","1","1","079916025032","","","","","","","","","","","","","","","","","5.8700","","","","","","","","","","","active"
"JPM","JPM-97304","97304","4","EACH","1","1","079916025049","","","","","","","","","","","","","","","","","15.5000","","","","","","","","","","","active"
"JPM","JPM-97504","97504","4","EACH","1","1","079916025025","","","","","","","","","","","","","","","","","2.7700","","","","","","","","","","","active"
"JPM","JPM-97704","97704","4","EACH","1","1","079916025056","","","","","","","","","","","","","","","","","9.2000","","","","","","","","","","","active"
"JPM","JPM-DR1001","DR1001","4","EACH","1","1","79916008417","","","","","","","","","","","","","","","","","65.0000","","","","","","","","","","","active"
"JPM","JPM-DR1002","DR1002","4","EACH","1","1","79916008424","","","","","","","","","","","","","","","","","77.5000","","","","","","","","","","","active"
"JPM","JPM-DR1003","DR1003","4","EACH","1","1","79916008431","","","","","","","","","","","","","","","","","162.0000","","","","","","","","","","","active"
"JPM","JPM-DR1004","DR1004","4","EACH","1","1","79916008448","","","","","","","","","","","","","","","","","77.5000","","","","","","","","","","","active"
"JPM","JPM-DR1005","DR1005","4","EACH","1","1","79916008455","","","","","","","","","","","","","","","","","77.5000","","","","","","","","","","","active"
"JPM","JPM-DR1006","DR1006","4","EACH","1","1","11111","","","","","","","","","","","","","","","","","127.5000","","","","","","","","","","","active"
"JPM","JPM-DR1007","DR1007","4","EACH","1","1","9317468010078","","","","","","","","","","","","","","","","","137.5000","","","","","","","","","","","active"
"JPM","JPM-OPBKT01","OPBKT01","4","EACH","1","1","799167660010","","","","","","","","","","","","","","","","","6.0800","","","","","","","","","","","active"
"JPM","JPM-UNS1","UNS1","4","EACH","1","1","9317468100014","","","","","","","","","","","","","","","","","1.4800","","","","","","","","","","","active"
"JPM","JPM-WD1","WD001","4","EACH","1","1","9317468147279","","","","","","","","","","","","","","","","","20.0000","","","","","","","","","","","active"
"JPM","JPM-WD101","WD101","4","EACH","1","1","9317468147286","","","","","","","","","","","","","","","","","40.0000","","","","","","","","","","","active"
"STD","STD-430M5","430MA-5","4","BOX","5","10","4007817410912","","","","","","","","","","","","","","","","","3.3100","","","","","","","","","","","active"
"THM","THM-70005250959","70005250959","4","BOX","1","4","0","","","","","","","","","","","","","","","","","37.2600","","","","","","","","","","","active"
