"Supplier Code","Item Code","Supplier Item Code","Pty Order","Buy UOM","Order Multiple","Divisor","Unit Barcode","Unit Length","Unit Width","Unit Height","Unit Weight","Master Qty","Master Barcode","Master Length","Master Width","Master Height","Master Weight","Inner Qty","Inner Barcode","Inner Length","Inner Width","Inner Height","Inner Weight","Cost 1","Cost 2","Cost 3","Cost 4","Cost 5","Promotion Cost","Future Cost","Future Cost Eff Date","Special Cost","Special Cost From","Special Cost To","Status"
"ACO","ACO-0269410","0269410","4","PACK","1","10","4006381105316","","","","","","","","","","","","","","","","","8.5300","","","","","","","","","","","active"
"ACO","ACO-0269420","0269420","4","PACK","1","10","4006381105279","","","","","","","","","","","","","","","","","8.5300","","","","","","","","","","","active"
"ACO","ACO-0269440","0269440","4","PACK","1","10","4006381105262","","","","","","","","","","","","","","","","","8.5300","","","","","","","","","","","active"
"ACO","ACO-0363080","0363080","4","PACK","1","1","9311960363083","","","","","","","","","","","","","","","","","2.8900","","","","","","0","","","","","active"
"ACO","ACO-102235","102235","4","PACK","1","1","4549441006821","","","","","","","","","","","","","","","","","5.7500","","","","","","","","","","","active"
"ACO","ACO-1716601G","1716601H","4","EACH","10","1","9312311192895","","","","","","","","","","","","","","","","","5.4100","","","","","","","","","","","active"
"AUP","AUP-107371","107371","4","PACK","1","1","9310355400037","","","","","","","","","","","","","","","","","2.0500","","","","","","","","","","","active"
"AUP","AUP-107392","107392","4","PACK","1","1","9310355400068","","","","","","","","","","","","","","","","","4.5000","","","","","","","","","","","active"
"AUP","AUP-1482939","1482939","4","PACK","1","1","9310355905013","","","","","","","","","","","","","","","","","5.1870","","","","","","","","","","","active"
"AUP","AUP-1482947","1482947","4","PACK","1","1","9310355904009","","","","","","","","","","","","","","","","","11.6800","","","","","","","","","","","active"
"AUP","AUP-19564","19564","4","EACH","1","1","9310355195643","","","","","","","","","","","","","","","","","3.6900","","","","","","","","","","","active"
"AUP","AUP-19595","19595","4","EACH","1","1","9310355195957","","","","","","","","","","","","","","","","","10.8500","","","","","","","","","","","active"
"AUP","AUP-19596","19596","4","EACH","1","1","9310355009131","","","","","","","","","","","","","","","","","10.8500","","","","","","","","","","","active"
"AUP","AUP-19597","19597","4","EACH","1","1","9310355195971","","","","","","","","","","","","","","","","","10.8500","","","","","","","","","","","active"
"AUP","AUP-19599","19599","4","EACH","1","1","9310355195995","","","","","","","","","","","","","","","","","10.8500","","","","","","","","","","","active"
"AUP","AUP-19600","19600","4","EACH","1","1","9310355196008","","","","","","","","","","","","","","","","","10.8500","","","","","","","","","","","active"
"AUP","AUP-19601","19601","4","EACH","1","1","9310355196015","","","","","","","","","","","","","","","","","10.8500","","","","","","","","","","","active"
"AUP","AUP-2501252","2501252","4","PACK","1","1","9310355904023","","","","","","","","","","","","","","","","","11.6800","","","","","","","","","","","active"
"AUP","AUP-2501325","2501325","4","PACK","1","1","9310355904030","","","","","","","","","","","","","","","","","11.6800","","","","","","","","","","","active"
"AUP","AUP-2501589","2501589","4","PACK","1","1","9310355904047","","","","","","","","","","","","","","","","","11.6800","","","","","","","","","","","active"
"AUP","AUP-2501686","2501686","4","PACK","1","1","9310355904054","","","","","","","","","","","","","","","","","11.6800","","","","","","","","","","","active"
"AUP","AUP-2501902","2501902","4","PACK","1","1","9310355904061","","","","","","","","","","","","","","","","","11.6800","","","","","","","","","","","active"
"AUP","AUP-2502550","2502550","4","PACK","1","1","9310355904078","","","","","","","","","","","","","","","","","11.6800","","","","","","","","","","","active"
"AUP","AUP-2503557","2503557","4","PACK","1","1","9310355008509","","","","","","","","","","","","","","","","","11.6800","","","","","","","","","","","active"
"AUP","AUP-2504332","2504332","4","PACK","1","1","9310355904092","","","","","","","","","","","","","","","","","11.6800","","","","","","","","","","","active"
"AUP","AUP-29356","29356","4","ROLL","1","1","9310355293561","","","","","","","","","","","","","","","","","2.0000","","","","","","","","","","","active"
"AUP","AUP-29357","29357","4","ROLL","1","1","9310355293578","","","","","","","","","","","","","","","","","2.0000","","","","","","","","","","","active"
"AUP","AUP-29358","29358","4","ROLL","1","1","9310355293585","","","","","","","","","","","","","","","","","2.0000","","","","","","","","","","","active"
"AUP","AUP-29359","29359","4","ROLL","1","1","9310355293592","","","","","","","","","","","","","","","","","2.0000","","","","","","","","","","","active"
"AUP","AUP-29360","29360","4","ROLL","1","1","9310355293608","","","","","","","","","","","","","","","","","2.0000","","","","","","","","","","","active"
"AUP","AUP-29949","29949","4","PACK","1","1","9310355000107","","","","","","","","","","","","","","","","","4.7500","","","","","","","","","","","active"
"AUP","AUP-970880","970880","4","PACK","1","1","9310355000503","","","","","","","","","","","","","","","","","6.0000","","","","","","","","","","","active"
"AUP","AUP-970882","970882","4","PACK","1","1","9310355000510","","","","","","","","","","","","","","","","","6.0000","","","","","","","","","","","active"
"AUP","AUP-970883","970883","4","PACK","1","1","9310355000602","","","","","","","","","","","","","","","","","6.0000","","","","","","","","","","","active"
"AUP","AUP-970884","970884","4","PACK","1","1","9310355000534","","","","","","","","","","","","","","","","","6.0000","","","","","","","","","","","active"
"AUP","AUP-970885","970885","4","PACK","1","1","9310355000558","","","","","","","","","","","","","","","","","6.0000","","","","","","","","","","","active"
"AUP","AUP-970886","970886","4","PACK","1","1","9310355000527","","","","","","","","","","","","","","","","","6.0000","","","","","","","","","","","active"
"AUP","AUP-970887","970887","4","PACK","1","1","9310355000596","","","","","","","","","","","","","","","","","6.0000","","","","","","","","","","","active"
"AUP","AUP-970888","970888","4","PACK","1","1","9310355000589","","","","","","","","","","","","","","","","","6.0000","","","","","","","","","","","active"
"AUP","AUP-970889","970889","4","PACK","1","1","9310355000619","","","","","","","","","","","","","","","","","6.0000","","","","","","","","","","","active"
"AUP","AUP-970890","970890","4","PACK","1","1","9310355000565","","","","","","","","","","","","","","","","","6.0000","","","","","","","","","","","active"
"AUP","AUP-970891","970891","4","PACK","1","1","9310355000572","","","","","","","","","","","","","","","","","6.0000","","","","","","","","","","","active"
"AUP","AUP-BSCC","BSCC","4","EACH","1","1","9310355008899","","","","","","","","","","","","","","","","","19.0600","","","","","","","","","","","active"
"AUP","AUP-CRG","CRG","4","ROLL","1","1","9310355003498","","","","","","","","","","","","","","","","","16.2500","","","","","","","","","","","active"
"AUP","AUP-CRS","CRS","4","ROLL","1","1","9310355003184","","","","","","","","","","","","","","","","","16.2500","","","","","","","","","","","active"
"AUP","AUP-F127120","F127120","4","PACK","1","1","9310355011127","","","","","","","","","","","","","","","","","1.6000","","","","","","","","","","","active"
"AUP","AUP-FC1","FC1","4","PACK","1","1","9310355030005","","","","","","","","","","","","","","","","","2.8800","","","","","","","","","","","active"
"AUP","AUP-FC1C","FC1C","4","PACK","1","1","9310355030012","","","","","","","","","","","","","","","","","5.8200","","","","","","","","","","","active"
"AUP","AUP-FC2","FC2","4","PACK","1","1","9310355008103","","","","","","","","","","","","","","","","","9.0500","","","","","","","","","","","active"
"AUP","AUP-FC2C","FC2C","4","PACK","1","1","9310355031019","","","","","","","","","","","","","","","","","16.3500","","","","","","","","","","","active"
"AUP","AUP-HB315","HB315","4","PACK","1","1","9310355000053","","","","","","","","","","","","","","","","","8.9300","","","","","","","","","","","active"
"AUP","AUP-MCBA4","MCBA4","4","PACK","1","1","9310355000060","","","","","","","","","","","","","","","","","7.2975","","","","","","","","","","","active"
"AUP","AUP-NP1","NP1","4","PACK","1","1","9310355908007","","","","","","","","","","","","","","","","","5.7300","","","","","","","","","","","active"
"AUP","AUP-NP3","NP3","4","PACK","1","1","9310355908021","","","","","","","","","","","","","","","","","15.3700","","","","","","","","","","","active"
"AUP","AUP-NP4","NP4","4","PACK","1","1","9310355908038","","","","","","","","","","","","","","","","","28.6500","","","","","","","","","","","active"
"AUP","AUP-RCP255AS","FCP255AS","4","PACK","1","1","9310355005751","","","","","","","","","","","","","","","","","24.9060","","","","","","","","","","","inactive"
"AUP","AUP-RCP255AS","RCP255AS","4","PACK","1","1","9310355005751","","","","","","","","","","","","","","","","","24.9060","","","","","","","","","","","active"
"AUP","AUP-RCP380AS","RCP380AS","4","PACK","1","1","9310355005768","","","","","","","","","","","","","","","","","45.4125","","","","","","","","","","","active"
"AUP","AUP-RCP380AS","FCP380AS","4","PACK","1","1","9310355005768","","","","","","","","","","","","","","","","","45.4125","","","","","","","","","","","inactive"
"AUP","AUP-RCP510AS","RCP510AS","4","PACK","1","1","9310355005775","","","","","","","","","","","","","","","","","46.3260","","","","","","","","","","","active"
"AUP","AUP-RCP510AS","FCP510AS","4","PACK","1","1","9310355005775","","","","","","","","","","","","","","","","","46.3260","","","","","","","","","","","inactive"
"AUP","AUP-RCPA3100BBL","FCPA3100BBL","4","PACK","1","1","9310355005997","","","","","","","","","","","","","","","","","7.7700","","","","","","","","","","","inactive"
"AUP","AUP-RCPA3100BBL","RCPA3100BBL","4","PACK","1","1","9310355005997","","","","","","","","","","","","","","","","","7.7700","","","","","","","","","","","active"
"AUP","AUP-RCPA3100BL","RCPA3100BL","4","PACK","1","1","9310355006055","","","","","","","","","","","","","","","","","7.7700","","","","","","","","","","","active"
"AUP","AUP-RCPA3100BL","FCPA3100BL","4","PACK","1","1","9310355006055","","","","","","","","","","","","","","","","","7.7700","","","","","","","","","","","inactive"
"AUP","AUP-RCPA3100BR","RCPA3100BR","4","PACK","1","1","9310355006000","","","","","","","","","","","","","","","","","7.7700","","","","","","","","","","","active"
"AUP","AUP-RCPA3100BR","FCPA3100BR","4","PACK","1","1","9310355006000","","","","","","","","","","","","","","","","","7.7700","","","","","","","","","","","inactive"
"AUP","AUP-RCPA3100GO","RCPA3100GO","4","PACK","1","1","9310355006017","","","","","","","","","","","","","","","","","7.7700","","","","","","","","","","","active"
"AUP","AUP-RCPA3100GO","FCPA3100GO","4","PACK","1","1","9310355006017","","","","","","","","","","","","","","","","","7.7700","","","","","","","","","","","inactive"
"AUP","AUP-RCPA3100HP","RCPA3100HP","4","PACK","1","1","9310355006659","","","","","","","","","","","","","","","","","7.7700","","","","","","","","","","","active"
"AUP","AUP-RCPA3100HP","FCPA3100HP","4","PACK","1","1","9310355006659","","","","","","","","","","","","","","","","","7.7700","","","","","","","","","","","inactive"
"AUP","AUP-RCPA3100IVS","FCPA3100IVS","4","PACK","1","1","9310355006031","","","","","","","","","","","","","","","","","7.7700","","","","","","","","","","","inactive"
"AUP","AUP-RCPA3100IVS","RCPA3100IVS","4","PACK","1","1","9310355006031","","","","","","","","","","","","","","","","","7.7700","","","","","","","","","","","active"
"AUP","AUP-RCPA3100LGR","FCPA3100LGR","4","PACK","1","1","9310355006024","","","","","","","","","","","","","","","","","7.7700","","","","","","","","","","","inactive"
"AUP","AUP-RCPA3100LGR","RCPA3100LGR","4","PACK","1","1","9310355006024","","","","","","","","","","","","","","","","","7.7700","","","","","","","","","","","active"
"AUP","AUP-RCPA3100PU","FCPA3100PU","4","PACK","1","1","9310355006628","","","","","","","","","","","","","","","","","7.7700","","","","","","","","","","","inactive"
"AUP","AUP-RCPA3100PU","RCPA3100PU","4","PACK","1","1","9310355006628","","","","","","","","","","","","","","","","","7.7700","","","","","","","","","","","active"
"AUP","AUP-RCPA3100RB","FCPA3100RB","4","PACK","1","1","9310355006611","","","","","","","","","","","","","","","","","7.7700","","","","","","","","","","","inactive"
"AUP","AUP-RCPA3100RB","RCPA3100RB","4","PACK","1","1","9310355006611","","","","","","","","","","","","","","","","","7.7700","","","","","","","","","","","active"
"AUP","AUP-RCPA3100RE","FCPA3100RE","4","PACK","1","1","9310355006574","","","","","","","","","","","","","","","","","7.7700","","","","","","","","","","","inactive"
"AUP","AUP-RCPA3100RE","RCPA3100RE","4","PACK","1","1","9310355006574","","","","","","","","","","","","","","","","","7.7700","","","","","","","","","","","active"
"AUP","AUP-RCPA3100SOR","RCPA3100SOR","4","PACK","1","1","9310355006062","","","","","","","","","","","","","","","","","7.7700","","","","","","","","","","","active"
"AUP","AUP-RCPA3100SOR","FCPA3100SOR","4","PACK","1","1","9310355006062","","","","","","","","","","","","","","","","","7.7700","","","","","","","","","","","inactive"
"AUP","AUP-RCPA3100SY","FCPA3100SY","4","PACK","1","1","9310355006581","","","","","","","","","","","","","","","","","7.7700","","","","","","","","","","","inactive"
"AUP","AUP-RCPA3100SY","RCPA3100SY","4","PACK","1","1","9310355006581","","","","","","","","","","","","","","","","","7.7700","","","","","","","","","","","active"
"AUP","AUP-RCPA3100WH","FCPA3100WH","4","PACK","1","1","9310355006598","","","","","","","","","","","","","","","","","7.7700","","","","","","","","","","","inactive"
"AUP","AUP-RCPA3100WH","RCPA3100WH","4","PACK","1","1","9310355006598","","","","","","","","","","","","","","","","","7.7700","","","","","","","","","","","active"
"AUP","AUP-RCPA3100XG","FCPA3100XG","4","PACK","1","1","9310355006635","","","","","","","","","","","","","","","","","7.7700","","","","","","","","","","","inactive"
"AUP","AUP-RCPA3100XG","RCPA3100XG","4","PACK","1","1","9310355006635","","","","","","","","","","","","","","","","","7.7700","","","","","","","","","","","active"
"AUP","AUP-RCPA350015AS","RCPA350015AS","4","PACK","1","1","9310355005461","","","","","","","","","","","","","","","","","30.1900","","","","","","","","","","","active"
"AUP","AUP-RCPA3BL","RCPA3500BL","4","PACK","1","1","9310355005669","","","","","","","","","","","","","","","","","30.0000","","","","","","","","","","","active"
"AUP","AUP-RCPA3BL","FCPA3500BL","4","PACK","1","1","9310355005669","","","","","","","","","","","","","","","","","30.0000","","","","","","","","","","","inactive"
"AUP","AUP-RCPA3WH","RCPA3500WH","4","PACK","1","1","9310355005744","","","","","","","","","","","","","","","","","30.0000","","","","","","","","","","","active"
"AUP","AUP-RCPA3WH","FCPA3500WH","4","PACK","1","1","9310355005744","","","","","","","","","","","","","","","","","30.0000","","","","","","","","","","","inactive"
"AUP","AUP-RCPA4100BBL","FCPA4100BBL","4","PACK","1","1","9310355005799","","","","","","","","","","","","","","","","","3.9500","","","","","","","","","","","inactive"
"AUP","AUP-RCPA4100BBL","RCPA4100BBL","4","PACK","1","1","9310355005799","","","","","","","","","","","","","","","","","3.9500","","","","","","","","","","","active"
"AUP","AUP-RCPA4100BL","FCPA4100BL","4","PACK","1","1","9310355005850","","","","","","","","","","","","","","","","","3.9500","","","","","","","","","","","inactive"
"AUP","AUP-RCPA4100BL","RCPA4100BL","4","PACK","1","1","9310355005850","","","","","","","","","","","","","","","","","3.9500","","","","","","","","","","","active"
"AUP","AUP-RCPA4100BR","RCPA4100BR","4","PACK","1","1","9310355005805","","","","","","","","","","","","","","","","","3.9500","","","","","","","","","","","active"
"AUP","AUP-RCPA4100BR","FCPA4100BR","4","PACK","1","1","9310355005805","","","","","","","","","","","","","","","","","3.9500","","","","","","","","","","","inactive"
"AUP","AUP-RCPA4100GO","FCPA4100GO","4","PACK","1","1","9310355005812","","","","","","","","","","","","","","","","","3.9500","","","","","","","","","","","inactive"
"AUP","AUP-RCPA4100GO","RCPA4100GO","4","PACK","1","1","9310355005812","","","","","","","","","","","","","","","","","3.9500","","","","","","","","","","","active"
"AUP","AUP-RCPA4100HP","RCPA4100HP","4","PACK","1","1","9310355005973","","","","","","","","","","","","","","","","","3.9500","","","","","","","","","","","active"
"AUP","AUP-RCPA4100HP","FCPA4100HP","4","PACK","1","1","9310355005973","","","","","","","","","","","","","","","","","3.9500","","","","","","","","","","","inactive"
"AUP","AUP-RCPA4100IVS","FCPA4100IVS","4","PACK","1","1","9310355005836","","","","","","","","","","","","","","","","","3.9500","","","","","","","","","","","inactive"
"AUP","AUP-RCPA4100IVS","RCPA4100IVS","4","PACK","1","1","9310355005836","","","","","","","","","","","","","","","","","3.9500","","","","","","","","","","","active"
"AUP","AUP-RCPA4100LGR","FCPA4100LGR","4","PACK","1","1","9310355005829","","","","","","","","","","","","","","","","","3.9500","","","","","","","","","","","inactive"
"AUP","AUP-RCPA4100LGR","RCPA4100LGR","4","PACK","1","1","9310355005829","","","","","","","","","","","","","","","","","3.9500","","","","","","","","","","","active"
"AUP","AUP-RCPA4100RB","RCPA4100RB","4","PACK","1","1","9310355005935","","","","","","","","","","","","","","","","","3.9500","","","","","","","","","","","active"
"AUP","AUP-RCPA4100RB","FCPA4100RB","4","PACK","1","1","9310355005935","","","","","","","","","","","","","","","","","3.9500","","","","","","","","","","","inactive"
"AUP","AUP-RCPA4100RE","FCPA4100RE","4","PACK","1","1","9310355005898","","","","","","","","","","","","","","","","","3.9500","","","","","","","","","","","inactive"
"AUP","AUP-RCPA4100RE","RCPA4100RE","4","PACK","1","1","9310355005898","","","","","","","","","","","","","","","","","3.9500","","","","","","","","","","","active"
"AUP","AUP-RCPA4100SOR","FCPA4100SOR","4","PACK","1","1","9310355005867","","","","","","","","","","","","","","","","","3.9500","","","","","","","","","","","inactive"
"AUP","AUP-RCPA4100SOR","RCPA4100SOR","4","PACK","1","1","9310355005867","","","","","","","","","","","","","","","","","3.9500","","","","","","","","","","","active"
"AUP","AUP-RCPA4100SY","FCPA4100SY","4","PACK","1","1","9310355005904","","","","","","","","","","","","","","","","","3.9500","","","","","","","","","","","inactive"
"AUP","AUP-RCPA4100SY","RCPA4100SY","4","PACK","1","1","9310355005904","","","","","","","","","","","","","","","","","3.9500","","","","","","","","","","","active"
"AUP","AUP-RCPA4100WH","RCPA4100WH","4","PACK","1","1","9310355005911","","","","","","","","","","","","","","","","","3.9500","","","","","","","","","","","active"
"AUP","AUP-RCPA4100WH","FCPA4100WH","4","PACK","1","1","9310355005911","","","","","","","","","","","","","","","","","3.9500","","","","","","","","","","","inactive"
"AUP","AUP-RCPA4100XG","RCPA4100XG","4","PACK","1","1","9310355005959","","","","","","","","","","","","","","","","","3.9500","","","","","","","","","","","active"
"AUP","AUP-RCPA4100XG","FCPA4100XG","4","PACK","1","1","9310355005959","","","","","","","","","","","","","","","","","3.9500","","","","","","","","","","","inactive"
"AUP","AUP-RCPA4250AS","RCPA4250AS","4","PACK","1","1","9310355005478","","","","","","","","","","","","","","","","","7.7280","","","","","","","","","","","active"
"AUP","AUP-RCPA4250AS","FCPA4250AS","4","PACK","1","1","9310355005478","","","","","","","","","","","","","","","","","7.7280","","","","","","","","","","","inactive"
"AUP","AUP-RCPA4300XA","FCPA4300XA","4","PACK","1","1","9310355991894","","","","","","","","","","","","","","","","","9.1455","","","","","","","","","","","inactive"
"AUP","AUP-RCPA4300XA","RCPA4300XA","4","PACK","1","1","9310355991894","","","","","","","","","","","","","","","","","9.1455","","","","","","","","","","","active"
"AUP","AUP-RCPA450015AS","RCPA450015AS","4","PACK","1","1","9310355005454","","","","","","","","","","","","","","","","","15.0000","","","","","","","","","","","active"
"AUP","AUP-RCPA4500BL","FCPA4500BL","4","PACK","1","1","9310355005508","","","","","","","","","","","","","","","","","15.0000","","","","","","","","","","","inactive"
"AUP","AUP-RCPA4500BL","RCPA4500BL","4","PACK","1","1","9310355005508","","","","","","","","","","","","","","","","","15.0000","","","","","","","","","","","active"
"AUP","AUP-RCPA4500WH","FCPA4500WH","4","PACK","1","1","9310355005621","","","","","","","","","","","","","","","","","15.0000","","","","","","","","","","","inactive"
"AUP","AUP-RCPA4500WH","RCPA4500WH","4","PACK","1","1","9310355005621","","","","","","","","","","","","","","","","","15.0000","","","","","","","","","","","active"
"AUP","AUP-RCPGG","RCPGG","4","PACK","1","1","9310355000640","","","","","","","","","","","","","","","","","6.0000","","","","","","","","","","","active"
"AUP","AUP-RFC110BBL","RFC110BBL","4","EACH","1","1","9310355995502","","","","","","","","","","","","","","","","","2.4800","","","","","","","","","","","active"
"AUP","AUP-RFC110BL","RFC110BL","4","EACH","1","1","9310355995489","","","","","","","","","","","","","","","","","2.4800","","","","","","","","","","","active"
"AUP","AUP-RFC110BR","RFC110BR","4","EACH","1","1","9310355995533","","","","","","","","","","","","","","","","","2.4800","","","","","","","","","","","active"
"AUP","AUP-RFC110DG","RFC110DG","4","EACH","1","1","9310355995519","","","","","","","","","","","","","","","","","2.4800","","","","","","","","","","","active"
"AUP","AUP-RFC110LG","RFC110LG","4","EACH","1","1","9310355995571","","","","","","","","","","","","","","","","","2.4800","","","","","","","","","","","active"
"AUP","AUP-RFC110OR","RFC110OR","4","EACH","1","1","9310355995564","","","","","","","","","","","","","","","","","2.4800","","","","","","","","","","","active"
"AUP","AUP-RFC110PI","RFC110PI","4","EACH","1","1","9310355995526","","","","","","","","","","","","","","","","","2.4800","","","","","","","","","","","active"
"AUP","AUP-RFC110PU","RFC110PU","4","EACH","1","1","9310355995557","","","","","","","","","","","","","","","","","2.4800","","","","","","","","","","","active"
"AUP","AUP-RFC110RE","RFC110RE","4","EACH","1","1","9310355995496","","","","","","","","","","","","","","","","","2.4800","","","","","","","","","","","active"
"AUP","AUP-RFC110SA","RFC110SA","4","EACH","1","1","9310355995588","","","","","","","","","","","","","","","","","2.4800","","","","","","","","","","","active"
"AUP","AUP-RFC110WH","RFC110WH","4","EACH","1","1","9310355995472","","","","","","","","","","","","","","","","","2.4800","","","","","","","","","","","active"
"AUP","AUP-RFC110YE","RFC110YE","4","EACH","1","1","9310355995472","","","","","","","","","","","","","","","","","2.4800","","","","","","","","","","","active"
"AUP","AUP-RKPFDA2","RKPFDA2","4","EACH","50","1","9310355994710","","","","","","","","","","","","","","","","","1.0815","","","","","","","","","","","active"
"AUP","AUP-RKPFDA3","RKPFDA3","4","EACH","50","1","9310355994703","","","","","","","","","","","","","","","","","0.7035","","","","","","","","","","","active"
"AUP","AUP-ROPA3100AS","ROPA3100AS","4","PACK","1","1","9310355994055","","","","","","","","","","","","","","","","","5.4000","","","","","","","","","","","active"
"AUP","AUP-ROPA3100PAS","ROPA3100PAS","4","PACK","1","1","9310355994024","","","","","","","","","","","","","","","","","5.0500","","","","","","","","","","","active"
"AUP","AUP-ROPA4100AS","ROPA4100AS","4","PACK","1","1","9310355994031","","","","","","","","","","","","","","","","","2.5600","","","","","","","","","","","active"
"AUP","AUP-ROPA4100PAS","ROPA4100PAS","4","PACK","1","1","9310355994000","","","","","","","","","","","","","","","","","2.4700","","","","","","","","","","","active"
"AUP","AUP-ROPA4500AS","ROPA4500AS","4","REAM","1","1","9310355994055","","","","","","","","","","","","","","","","","12.1500","","","","","","","","","","","active"
"AUP","AUP-ROPA4500BLU","ROPA4500BLU","4","REAM","1","1","9310355994178","","","","","","","","","","","","","","","","","9.1500","","","","","","","","","","","active"
"AUP","AUP-ROPA4500FGR","ROPA4500FGR","4","REAM","1","1","9310355994130","","","","","","","","","","","","","","","","","13.7000","","","","","","","","","","","active"
"AUP","AUP-ROPA4500FOR","ROPA4500FOR","4","REAM","1","1","9310355994147","","","","","","","","","","","","","","","","","13.7000","","","","","","","","","","","active"
"AUP","AUP-ROPA4500FPI","ROPA4500FPI","4","REAM","1","1","9310355994154","","","","","","","","","","","","","","","","","13.7000","","","","","","","","","","","active"
"AUP","AUP-ROPA4500FYL","ROPA4500FYL","4","REAM","1","1","9310355994161","","","","","","","","","","","","","","","","","13.7000","","","","","","","","","","","active"
"AUP","AUP-ROPA4500GR","ROPA4500GR","4","REAM","1","1","9310355994215","","","","","","","","","","","","","","","","","9.1500","","","","","","","","","","","active"
"AUP","AUP-ROPA4500LAV","ROPA4500LAV","4","REAM","1","1","9310355994260","","","","","","","","","","","","","","","","","7.9000","","","","","","","","","","","active"
"AUP","AUP-ROPA4500MI","ROPA4500MI","4","REAM","1","1","9310355994239","","","","","","","","","","","","","","","","","7.9000","","","","","","","","","","","active"
"AUP","AUP-ROPA4500OR","ROPA4500OR","4","REAM","1","1","9310355994208","","","","","","","","","","","","","","","","","9.1500","","","","","","","","","","","active"
"AUP","AUP-ROPA4500PAS","ROPA4500PAS","4","REAM","1","1","9310355994024","","","","","","","","","","","","","","","","","11.5000","","","","","","","","","","","active"
"AUP","AUP-ROPA4500PIN","ROPA4500PIN","4","REAM","1","1","9310355994246","","","","","","","","","","","","","","","","","7.9000","","","","","","","","","","","active"
"AUP","AUP-ROPA4500RE","ROPA4500RE","4","REAM","1","1","9310355994192","","","","","","","","","","","","","","","","","9.1500","","","","","","","","","","","active"
"AUP","AUP-ROPA4500SAN","ROPA4500SAN","4","REAM","1","1","9310355994253","","","","","","","","","","","","","","","","","7.9000","","","","","","","","","","","active"
"AUP","AUP-ROPA4500SBLU","ROPA4500SBLU","4","REAM","1","1","9310355994222","","","","","","","","","","","","","","","","","7.9000","","","","","","","","","","","active"
"AUP","AUP-ROPA4500YE","ROPA4500YE","4","REAM","1","1","9310355994185","","","","","","","","","","","","","","","","","9.1500","","","","","","","","","","","active"
"AUP","AUP-RPRFB","RPRFB","4","ROLL","1","1","9310355994536","","","","","","","","","","","","","","","","","6.0300","","","","","","","","","","","active"
"AUP","AUP-RPRFG","RPRFG","4","ROLL","1","1","9310355994543","","","","","","","","","","","","","","","","","6.0300","","","","","","","","","","","active"
"AUP","AUP-RPRFO","RPRFO","4","ROLL","1","1","9310355994550","","","","","","","","","","","","","","","","","6.0300","","","","","","","","","","","active"
"AUP","AUP-RPRFP","RPRFP","4","ROLL","1","1","9310355994567","","","","","","","","","","","","","","","","","6.0300","","","","","","","","","","","active"
"AUP","AUP-RPRFY","RPRFY","4","ROLL","1","1","9310355994574","","","","","","","","","","","","","","","","","6.0300","","","","","","","","","","","active"
"AUP","AUP-RSBB","RSBB","4","PACK","1","1","9310355007311","","","","","","","","","","","","","","","","","19.2500","","","","","","","","","","","active"
"AUP","AUP-RSBDB","RSBDB","4","PACK","1","1","9310355007328","","","","","","","","","","","","","","","","","19.2500","","","","","","","","","","","active"
"AUP","AUP-RSBE","RSBE","4","PACK","1","1","9310355007335","","","","","","","","","","","","","","","","","19.2500","","","","","","","","","","","active"
"AUP","AUP-RSBG","RSBG","4","PACK","1","1","9310355007472","","","","","","","","","","","","","","","","","19.2500","","","","","","","","","","","active"
"AUP","AUP-RSBL","RSBL","4","PACK","1","1","9310355007274","","","","","","","","","","","","","","","","","19.2500","","","","","","","","","","","active"
"AUP","AUP-RSBLB","RSBLB","4","PACK","1","1","9310355007267","","","","","","","","","","","","","","","","","19.2500","","","","","","","","","","","active"
"AUP","AUP-RSBLG","RSBLG","4","PACK","1","1","9310355007342","","","","","","","","","","","","","","","","","19.2500","","","","","","","","","","","active"
"AUP","AUP-RSBM","RSBM","4","PACK","1","1","9310355007250","","","","","","","","","","","","","","","","","77.0100","","","","","","","","","","","active"
"AUP","AUP-RSBO","RSBO","4","PACK","1","1","9310355007359","","","","","","","","","","","","","","","","","19.2500","","","","","","","","","","","active"
"AUP","AUP-RSBP","RSBP","4","PACK","1","1","9310355007281","","","","","","","","","","","","","","","","","19.2500","","","","","","","","","","","active"
"AUP","AUP-RSBR","RSBR","4","PACK","1","1","9310355007298","","","","","","","","","","","","","","","","","19.2500","","","","","","","","","","","active"
"AUP","AUP-RSBS","RSBS","4","PACK","1","1","9310355007489","","","","","","","","","","","","","","","","","19.2500","","","","","","","","","","","active"
"AUP","AUP-RSBY","RSBY","4","PACK","1","1","9310355007304","","","","","","","","","","","","","","","","","19.2500","","","","","","","","","","","active"
"AUP","AUP-SPBA3LBLU","SPBA3LBLU","4","PACK","1","1","9310355007410","","","","","","","","","","","","","","","","","18.7800","","","","","","","","","","","inactive"
"BIC","BIC-811524","811524","4","PACK","1","10","070330616998","","","","","","","","","","","","","","","","","42.1700","","","","","","","","","","","active"
"NPL","NPL-1025454","1025454","4","BOX","1","12","9332109001116","","","","","","","","","","","","","","","","","58.2708","","","","","","","","","","","active"
"NPL","NPL-1037602","1037602","4","BOX","1","5","9332109008818","","","","","","","","","","","","","","","","","48.0120","","","","","","","","","","","active"
"NPL","NPL-14187329","14187329","4","BOX","1","32","9332109005541","","","","","","","","","","","","","","","","","44.6940","","","","","","","","","","","active"
"NPL","NPL-39112600","39112600","4","BOX","2","12","9332109006623","","","","","","","","","","","","","","","","","49.4520","","","","","","","","","","","active"
"NPL","NPL-645900700","645900700","4","PACK","1","6","9332109007002","","","","","","","","","","","","","","","","","23.2000","","","","","","","","","","","active"
"AUP","OCP-0000145","OCP-0000145","4","REAM","5","1","19310355005161","","","","","","","","","","","","","","","","","7.2500","","","","","","","","","","","active"
"AUP","OCP-0000154","OCP-0000154","4","REAM","5","1","19310355005178","","","","","","","","","","","","","","","","","7.2500","","","","","","0","","","","","active"
"AUP","OCP-0000163","OCP-0000163","4","REAM","5","1","19310355005185","","","","","","","","","","","","","","","","","7.2500","","","","","","0","","","","","active"
"AUP","OCP-0000181","OCP-0000181","4","REAM","5","1","19310355005192","","","","","","","","","","","","","","","","","7.2500","","","","","","","","","","","active"
"SPP","SPP-103455","193451","4","PACK","5","1","9311995034552","","","","","","","","","","","","","","","","","6.1800","","","","","","","","","","","inactive"
"SPP","SPP-140905","105083","4","EACH","20","1","9310029200574","","","","","","","","","","","","","","","","","0.4300","","","","","","","","","","","inactive"
"SPP","SPP-140921","105076","4","EACH","20","1","9310029220473","","","","","","","","","","","","","","","","","0.4800","","","","","","","","","","","inactive"
"SPP","SPP-158150","162122","4","REAM","5","1","9311995036518","","","","","","","","","","","","","","","","","3.7500","3.5500","3.4900","3.4400","3.3400","","","","","","","active"
"SPP","SPP-162336","103604","4","REAM","3","1","11111","","","","","","","","","","","","","","","","","11.5100","","","","","","","","","","","active"
"SPP","SPP-194926","194926","4","BOX","1","6","11111","","","","","","","","","","","","","","","","","42.2400","","","","","","","","","","","active"
"SPP","SPP-194931","194931","4","BOX","1","20","9311181113603","","","","","","","","","","","","","","","","","50.8000","","","","","","","","","","","active"
"SPP","SPP-194933","194933","4","BOX","1","20","9311181113498","","","","","","","","","","","","","","","","","50.8000","","","","","","","","","","","active"
"SPP","SPP-194934","194934","4","BOX","1","20","9311181113504","","","","","","","","","","","","","","","","","80.6000","","","","","","","","","","","active"
"SPP","SPP-194935","194935","4","BOX","1","20","9311181116949","","","","","","","","","","","","","","","","","29.4000","","","","","","","","","","","active"
"SPP","SPP-194942","140893","4","PACK","10","10","9311181111678","","","","","","","","","","","","","","","","","23.5000","","","","","","","","","","","active"
"SPP","SPP-194982","140791","4","PACK","1","20","9311181115096","","","","","","","","","","","","","","","","","7.0000","","","","","","","","","","","active"
"SYL","SYL-FEHARDK1058B","FEHARISDK1058BK","4","EACH","1","1","1111","","","","","","","","","","","","","","","","","340.0000","","","","","","","","","","","active"
