"PFD","","099888","NESCAFE BLEND 43 COFFEE","500gm","EACH","","1","1","27.0125","","","","E","11111","","","","","","","PFD-099888","","","","","","","","","","","","","","","","","","","","","EACH","","","","04/12/2017","","",""
"PFD","","100249","INTERNATIONAL ROAST COFFEE","Caterers Blend 500gm","EACH","","1","1","16.7125","","","","E","11111","","","","","","","PFD-100249","","","","","","","","","","","","","","","","","","","","","EACH","","","","04/12/2017","","",""
"PFD","","101873","ALLENS CONFECTIONERY","Minties 1kg","EACH","","1","1","10.8875","","","","","11111","","","","","","","PFD-101873","","","","","","","","","","","","","","","","","","","","","EACH","","","","04/12/2017","","",""
"PFD","","104094","PREMIUM GARBAGE BAGS","70 to 77 Ltr","PACK","","1","1","7.3625","","","","","11111","","","","","","","PFD-104094","","","","","","","","","","","","","","","","","","","","","PACK","","","","04/12/2017","","",""
"PFD","","401429","MOCCONA CLASSIC COFFEE","Freeze Dried 200gm","EACH","","1","1","21.35","","","","E","11111","","","","","","","PFD-401429","","","","","","","","","","","","","","","","","","","","","EACH","","","","04/12/2017","","",""
"PFD","","501066","DISPOSABLE LATEX GLOVES","Medium","BOX","","1","1","8.6","","","","","11111","","","","","","","PFD-501066","","","","","","","","","","","","","","","","","","","","","BOX","","","","04/12/2017","","",""
"PFD","","019562","NU PURE SPRING WATER","1.5lt - Pack of 8","PACK","","1","1","7.4125","","","","E","11111","","","","","","","PFD-019562","","","","","","","","","","","","","","","","","","","","","PACK","","","","04/12/2017","","",""
"PFD","","021818","DEVONDALE UHT MILK","150ml UHT Full Cream","PACK","","1","1","21.4","","","","E","11111","","","","","","","PFD-021818","","","","","","","","","","","","","","","","","","","","","PACK","","","","04/12/2017","","",""
"PFD","","025079","ARNOTTS BISCUITS P/CONTROL","Water Cracker Twin Packs","BOX","","1","1","22.175","","","","","11111","","","","","","","PFD-025079","","","","","","","","","","","","","","","","","","","","","BOX","","","","04/12/2017","","",""
"PFD","","034883","OCEAN SPRAY FRUIT JUICE","1.5lt light Classic Cranberry","EACH","","8","1","5.1875","","","","","11111","","","","","","","PFD-034883","","","","","","","","","","","","","","","","","","","","","EACH","","","","04/12/2017","","",""
"PFD","","038103","ARNOTTS BISCUITS","190gm Pizza Shapes","EACH","","1","1","3.1375","","","","","11111","","","","","","","PFD-038103","","","","","","","","","","","","","","","","","","","","","EACH","","","","04/12/2017","","",""
"PFD","","053217","EQUAL SWEETNER PORTIONS","Portion Control Sachets","BOX","","12","1","25","","","","E","11111","","","","","","","PFD-053217","","","","","","","","","","","","","","","","","","","","","BOX","","","","04/12/2017","","",""
"PFD","","061250","ARNOTTS BISCUITS","Milk Arrowroot 250gm","EACH","","20","1","2.1875","","","","","11111","","","","","","","PFD-061250","","","","","","","","","","","","","","","","","","","","","EACH","","","","04/12/2017","","",""
"PFD","","061259","ARNOTTS BISCUITS","250gm Sao Original","EACH","","1","1","3.1125","","","","","11111","","","","","","","PFD-061259","","","","","","","","","","","","","","","","","","","","","EACH","","","","04/12/2017","","",""
"PFD","","061301","ARNOTTS BISCUITS","Water Crackers 125gm","EACH","","1","1","1.6","","","","","11111","","","","","","","PFD-061301","","","","","","","","","","","","","","","","","","","","","EACH","","","","04/12/2017","","",""
"PFD","","061329","ARNOTTS BISCUITS","1.5kg Family Assorted","EACH","","1","1","12.8375","","","","","11111","","","","","","","PFD-061329","","","","","","","","","","","","","","","","","","","","","EACH","","","","04/12/2017","","",""
"PFD","","061368","ARNOTTS BISCUITS","1.5k Assorted Cream Bulk Pack","EACH","","1","1","15.5125","","","","","11111","","","","","","","PFD-061368","","","","","","","","","","","","","","","","","","","","","EACH","","","","04/12/2017","","",""
"PFD","","061905","ARNOTTS BISCUITS P/CONTROL","Creamy Chocolate / Shortbread","BOX","","1","1","40.2625","","","","","11111","","","","","","","PFD-061905","","","","","","","","","","","","","","","","","","","","","BOX","","","","04/12/2017","","",""
"PFD","","064979","DEVONDALE UHT MILK","Full Cream 1lt","PACK","","1","1","17","","","","E","11111","","","","","","","PFD-064979","","","","","","","","","","","","","","","","","","","","","PACK","","","","04/12/2017","","",""
"PFD","","064980","DEVONDALE UHT MILK","Skim 1lt","PACK","","1","1","17","","","","E","11111","","","","","","","PFD-064980","","","","","","","","","","","","","","","","","","","","","PACK","","","","04/12/2017","","",""
"PFD","","068673","ARNOTTS BISCUITS","2.25kg Jatz Bulk","EACH","","1","1","21.7","","","","","11111","","","","","","","PFD-068673","","","","","","","","","","","","","","","","","","","","","EACH","","","","04/12/2017","","",""
"PFD","","068747","ARNOTTS BISCUITS P/CONTROL","Scotch Finger / Nice","BOX","","1","1","35.8875","","","","","11111","","","","","","","PFD-068747","","","","","","","","","","","","","","","","","","","","","BOX","","","","04/12/2017","","",""
"PFD","","068752","ARNOTTS BISCUITS P/CONTROL","Jatz 11gm 3 Per pack","BOX","","1","1","20.55","","","","","11111","","","","","","","PFD-068752","","","","","","","","","","","","","","","","","","","","","BOX","","","","04/12/2017","","",""
"PFD","","068757","ARNOTTS BISCUITS P/CONTROL","Milk Coffee Nice","BOX","","1","1","26.4375","","","","","11111","","","","","","","PFD-068757","","","","","","","","","","","","","","","","","","","","","BOX","","","","04/12/2017","","",""
"PFD","","068769","ARNOTTS BISCUITS P/CONTROL","Choc/Chip Butternut Snap","BOX","","1","1","38.25","","","","","11111","","","","","","","PFD-068769","","","","","","","","","","","","","","","","","","","","","BOX","","","","04/12/2017","","",""
"PFD","","071470","MASTERFOODS TOMATO SAUCE","14gm Tomato Sauce Portions","PACK","","1","1","12.875","","","","E","11111","","","","","","","PFD-071470","","","","","","","","","","","","","","","","","","","","","PACK","","","","04/12/2017","","",""
"PFD","","072204","MASTERFOODS BBQ SAUCE","14gm BBQ Sauce Portions","PACK","","1","1","19.275","","","","E","11111","","","","","","","PFD-072204","","","","","","","","","","","","","","","","","","","","","PACK","","","","04/12/2017","","",""
"PFD","","078492","GOLDEN CIRCLE FRUIT JUICE","2lt 100% Long Life Pine Juice","EACH","","6","1","3.4125","","","","","11111","","","","","","","PFD-078492","","","","","","","","","","","","","","","","","","","","","EACH","","","","04/12/2017","","",""
"PFD","","083316","GOLDEN CIRCLE FRUIT JUICE","2lt 100% L/Life Tropical Fruit","EACH","","6","1","3.9","","","","","11111","","","","","","","PFD-083316","","","","","","","","","","","","","","","","","","","","","EACH","","","","04/12/2017","","",""
"PFD","","087005","KRAFT VEGEMITE","220gm","EACH","","1","1","4.675","","","","E","11111","","","","","","","PFD-087005","","","","","","","","","","","","","","","","","","","","","EACH","","","","04/12/2017","","",""
"PFD","","095467","ARNOTTS BISCUITS P/CONTROL","Tim Tam","BOX","","1","1","47.425","","","","","11111","","","","","","","PFD-095467","","","","","","","","","","","","","","","","","","","","","BOX","","","","04/12/2017","","",""
"PFD","","096010","SPRING VALLEY APPLE JUICE","250ml","EACH","","30","1","1.325","","","","","11111","","","","","","","PFD-096010","","","","","","","","","","","","","","","","","","","","","EACH","","","","04/12/2017","","",""
"PFD","","190515","EQUAL SWEETNER PORTIONS","Portion Pencils","PACK","","1","1","28.5625","","","","E","11111","","","","","","","PFD-190515","","","","","","","","","","","","","","","","","","","","","PACK","","","","04/12/2017","","",""
"PFD","","015230","SIR THOMAS LIPTON TEA BAG","English Breakfast","EACH","","6","1","3.8375","","","","E","11111","","","","","","","PFD-015230","","","","","","","","","","","","","","","","","","","","","EACH","","","","04/12/2017","","",""
"PFD","","015234","SIR THOMAS LIPTON TEA BAG","Lemon","EACH","","6","1","4.475","","","","E","11111","","","","","","","PFD-015234","","","","","","","","","","","","","","","","","","","","","EACH","","","","04/12/2017","","",""
"PFD","","015235","SIR THOMAS LIPTON TEA BAG","Jasmine Green","EACH","","6","1","4.475","","","","E","11111","","","","","","","PFD-015235","","","","","","","","","","","","","","","","","","","","","EACH","","","","04/12/2017","","",""
"PFD","","015239","SIR THOMAS LIPTON TEA BAG","Decaf","EACH","","6","1","4.475","","","","E","11111","","","","","","","PFD-015239","","","","","","","","","","","","","","","","","","","","","EACH","","","","04/12/2017","","",""
"PFD","","015683","ALLENS CONFECTIONERY","Snakes Alive 1 3kg","EACH","","1","1","10.8875","","","","","11111","","","","","","","PFD-015683","","","","","","","","","","","","","","","","","","","","","EACH","","","","04/12/2017","","",""
"PFD","","017286","HEINZ TOMATO SAUCE","300ml","EACH","","1","1","2.125","","","","E","11111","","","","","","","PFD-017286","","","","","","","","","","","","","","","","","","","","","EACH","","","","04/12/2017","","",""
"PFD","","017850","COSTWISE PLASTIC TEASPOON","100 s","PACK","","1","1","1.9625","","","","","11111","","","","","","","PFD-017850","","","","","","","","","","","","","","","","","","","","","PACK","","","","04/12/2017","","",""
"PFD","","019020","ECOLAB DISINFECTANT","28 4gm Sink Sanitiser","EACH","","1","1","85.75","","","","","11111","","","","","","","PFD-019020","","","","","","","","","","","","","","","","","","","","","EACH","","","","04/12/2017","","",""
"PFD","","019563","NU PURE SPRING WATER","600ml","PACK","","1","1","10.5","","","","E","11111","","","","","","","PFD-019563","","","","","","","","","","","","","","","","","","","","","PACK","","","","04/12/2017","","",""
"PFD","","021217","BEYOND PAPER TOWEL","80m","CTN","","1","1","41.425","","","","","11111","","","","","","","PFD-021217","","","","","","","","","","","","","","","","","","","","","CTN","","","","04/12/2017","","",""
"PFD","","022651","NEXCARE PLASTIC STRIPS","BLUE 50 s","PACK","","1","1","9.0625","","","","","11111","","","","","","","PFD-022651","","","","","","","","","","","","","","","","","","","","","PACK","","","","04/12/2017","","",""
"PFD","","027735","BARISTAS OWN MILK UHT","2lt Long Life","EACH","","1","1","21.9125","","","","E","11111","","","","","","","PFD-027735","","","","","","","","","","","","","","","","","","","","","EACH","","","","04/12/2017","","",""
"PFD","","047990","ACTIVATE LIQUID HAND SOAP","5lt","EACH","","1","1","14.7125","","","","","11111","","","","","","","PFD-047990","","","","","","","","","","","","","","","","","","","","","EACH","","","","04/12/2017","","",""
"PFD","","048098","ACTIVATE DISINFECTANT","5lt Lemon","EACH","","3","1","14.3375","","","","","11111","","","","","","","PFD-048098","","","","","","","","","","","","","","","","","","","","","EACH","","","","04/12/2017","","",""
"PFD","","051416","LIPTON PYRAMID TEA BAGS","Mint Tea Bags","EACH","","6","1","6.175","","","","E","11111","","","","","","","PFD-051416","","","","","","","","","","","","","","","","","","","","","EACH","","","","04/12/2017","","",""
"PFD","","051418","LIPTON PYRAMID TEA BAGS","Green Tea Bags","EACH","","6","1","6.175","","","","E","11111","","","","","","","PFD-051418","","","","","","","","","","","","","","","","","","","","","EACH","","","","04/12/2017","","",""
"PFD","","052403","NESCAFE FOODSERVICE COFFEE","Blend 1kg Tin","EACH","","1","1","39.2375","","","","E","11111","","","","","","","PFD-052403","","","","","","","","","","","","","","","","","","","","","EACH","","","","04/12/2017","","",""
"PFD","","057648","SILK LUNCH NAPKIN","1 Ply White","PACK","","1","1","2.175","","","","","11111","","","","","","","PFD-057648","","","","","","","","","","","","","","","","","","","","","PACK","","","","04/12/2017","","",""
"PFD","","061426","COSTWISE PLASTIC KNIFE","100 s","PACK","","1","1","2.3125","","","","","11111","","","","","","","PFD-061426","","","","","","","","","","","","","","","","","","","","","PACK","","","","04/12/2017","","",""
"PFD","","061427","COSTWISE PLASTIC FORK","100 s","PACK","","1","1","2.3125","","","","","11111","","","","","","","PFD-061427","","","","","","","","","","","","","","","","","","","","","PACK","","","","04/12/2017","","",""
"PFD","","066014","HANDY ANDY AMMONIA","5lt White","EACH","","2","1","22.8","","","","","11111","","","","","","","PFD-066014","","","","","","","","","","","","","","","","","","","","","EACH","","","","04/12/2017","","",""
"PFD","","077112","BUSHELLS TEA CUP BAGS","1000 s","CTN","","1","1","40.1625","","","","E","11111","","","","","","","PFD-077112","","","","","","","","","","","","","","","","","","","","","CTN","","","","04/12/2017","","",""
"PFD","","078552","DISPOSABLE GLOVES POWDERED","Clear Small","BOX","","1","1","4.4","","","","","11111","","","","","","","PFD-078552","","","","","","","","","","","","","","","","","","","","","BOX","","","","04/12/2017","","",""
"PFD","","078554","DISPOSABLE GLOVES POWDERED","Clear Medium","BOX","","1","1","4.4","","","","","11111","","","","","","","PFD-078554","","","","","","","","","","","","","","","","","","","","","BOX","","","","04/12/2017","","",""
"PFD","","078555","DISPOSABLE GLOVES POWDERED","Clear Large","BOX","","1","1","4.4","","","","","11111","","","","","","","PFD-078555","","","","","","","","","","","","","","","","","","","","","BOX","","","","04/12/2017","","",""
"PFD","","084195","INTERNATIONAL ROAST COFFEE","Portion Control 1 7gm Sticks","CTN","","1","1","23.85","","","","E","11111","","","","","","","PFD-084195","","","","","","","","","","","","","","","","","","","","","CTN","","","","04/12/2017","","",""
"PFD","","085901","HEINZ BBQ SAUCE","300ml Squeeze Pack","EACH","","12","1","2.6625","","","","E","11111","","","","","","","PFD-085901","","","","","","","","","","","","","","","","","","","","","EACH","","","","04/12/2017","","",""
"PFD","","089618","INTERNATIONAL ROAST COFFEE","Caterers Blend 1kg","EACH","","1","1","31.475","","","","E","11111","","","","","","","PFD-089618","","","","","","","","","","","","","","","","","","","","","EACH","","","","04/12/2017","","",""
"PFD","","092137","JIF CREAM CLEANSER","Regular 2lt","EACH","","1","1","14.2625","","","","","11111","","","","","","","PFD-092137","","","","","","","","","","","","","","","","","","","","","EACH","","","","04/12/2017","","",""
"PFD","","095061","NESTLE DRINKING HOT CHOCOLATE","750gm Vending Chocolate","EACH","","1","1","12.1","","","","E","11111","","","","","","","PFD-095061","","","","","","","","","","","","","","","","","","","","","EACH","","","","04/12/2017","","",""
"PFD","","098952","CASTAWAY WOODEN STIRRERS","1000 s","PACK","","1","1","7.3375","","","","","11111","","","","","","","PFD-098952","","","","","","","","","","","","","","","","","","","","","PACK","","","","04/12/2017","","",""
