"BIC","","173021","BIC REACTION BALL PENS","Black","BOX","","1","12","15.25","","","","","9310025173025","","","","","","","BIC-17302","","","","","","","","","","","","","","","","","","","","","EACH","","","","21/05/2018","","",""
"BIC","","173031","BIC REACTION BALL PENS","Blue","BOX","","1","12","15.25","","","","","9310025173032","","","","","","","BIC-17303","","","","","","","","","","","","","","","","","","","","","EACH","","","","21/05/2018","","",""
"BIC","","1865","BIC CAPTIVE BALLPEN","Medium Black","BOX","","1","12","30.58","","","","","9310025018654","","","","","","","BIC-1865","","","","","","","","","","","","","","","","","","","","","EACH","","","","21/05/2018","","",""
"BIC","","926556","BIC KIDS CASCADE MARKERS","Wlt12","EACH","","12","1","35.09731343","","","","","9415567886829","","","","","","","BIC-4592","","","","","","","","","","","","","","","","","","","","","EACH","","","","21/05/2018","","",""
"BIC","","4645","BIC PENCIL PAL REFRESH","Pouch 4","EACH","","12","1","24.13","","","","","9310025046459","","","","","","","BIC-4645","","","","","","","","","","","","","","","","","","","","","EACH","","","","21/05/2018","","",""
"BIC","","31257","BIC BRITELINER GRIP HIGHLIGHTR","Assorted BP/5","EACH","","6","6","25.73","","","","","0070330312579","","","","","","","BIC-31257","","","","","","","","","","","","","","","","","","","","","PACK","","","","21/05/2018","","",""
"BIC","","10382","BIC CRISTAL BALLPOINT PEN","Super Saver Asst Pouch 10","EACH","","12","1","43.67","","","","","9310025083829","","","","","","","BIC-0382","","","","","","","","","","","","","","","","","","","","","EACH","","","","21/05/2018","","",""
"BIC","","46551","BIC PENCIL PAL REFRESH","0 7mm","EACH","","12","1","6.45358209","","","","","9310025146555","","","","","","","BIC-4655","","","","","","","","","","","","","","","","","","","","","EACH","","","","21/05/2018","","",""
"BIC","","31532","BIC MARK IT PERMANENT MARKER","Fine Blue","BOX","","12","12","9.23","","","","","9310025315326","","","","","","","BIC-31532","","","","","","","","","","","","","","","","","","","","","EACH","","","","21/05/2018","","",""
"BIC","","10383","BIC CRISTAL BALLPOINT PEN","Super Saver Blk Pouch 10","EACH","","12","1","43.67","","","","","9310025003834","","","","","","","BIC-0383","","","","","","","","","","","","","","","","","","","","","EACH","","","","21/05/2018","","",""
"BIC","","31533","BIC MARK IT PERMANENT MARKER","Fine Red","BOX","","12","12","9.23","","","","","9310025315333","","","","","","","BIC-31533","","","","","","","","","","","","","","","","","","","","","EACH","","","","21/05/2018","","",""
"BIC","","10571","BIC CLIC BALLPOINT PEN","Blue BP 3","PACK","","12","1","16.98","","","","","9310025005715","","","","","","","BIC-0571","","","","","","","","","","","","","","","","","","","","","PACK","","","","21/05/2018","","",""
"BIC","","4720","BIC OFFICE PENCIL 0 5MM","Bic Office Pencil 0 5mm","EACH","","20","1","10.78776119","","","","","9310025057202","","","","","","","BIC-4720","","","","","","","","","","","","","","","","","","","","","EACH","","","","21/05/2018","","",""
"BIC","","50171","BIC MARK IT PERMANENT MARKER","Fine Black","BOX","","12","12","9.23","","","","","9310025150170","","","","","","","BIC-5017","","","","","","","","","","","","","","","","","","","","","EACH","","","","21/05/2018","","",""
"BIC","","50262","BIC MARK IT PERMANENT MARKER","Fine Tip Metallic Silver","BOX","","1","12","13.35","","","","","9310025502627","","","","","","","BIC-50262","","","","","","","","","","","","","","","","","","","","","EACH","","","","21/05/2018","","",""
"BIC","","50272","BIC MARK IT PERMANENT MARKER","Fine Tip Metallic Gold","BOX","","1","12","13.35","","","","","9310025502726","","","","","","","BIC-50272","","","","","","","","","","","","","","","","","","","","","EACH","","","","21/05/2018","","",""
"BIC","","50605","BIC WITE OUT PLUS QUICK DRY","20ml","PACK","","1","1","10.55","","","","","70330506060","","","","","","","BIC-50605","","","","","","","","","","","","","","","","","","","","","PACK","","","","21/05/2018","","",""
"BIC","","801867","BIC 4 COLOUR BALLPOINT PENS","Retractable 4 Colour","BOX","","1","12","22.55","","","","","3086121011313","","","","","","","BIC-801867","","","","","","","","","","","","","","","","","","","","","EACH","","","","21/05/2018","","",""
"BIC","","8030101","BIC 2 COLOUR BALLPOINT PENS","Retractable 2 Colour","BOX","","1","12","15.1961194","","","","","3086121011214","","","","","","","BIC-803010","","","","","","","","","","","","","","","","","","","","","EACH","","","","21/05/2018","","",""
"BIC","","50624","BIC WITE OUT EXTRA COVERAGE","New Formula","EACH","","12","1","10.55462687","","","","","070330506169","","","","","","","BIC-50624","","","","","","","","","","","","","","","","","","","","","EACH","","","","21/05/2018","","",""
"BIC","","91433","BIC SOFT FEEL BALLPOINT PEN","Retractable Blue","BOX","","1","12","10.3","","","","","9310025005913","","","","","","","BIC-91433","","","","","","","","","","","","","","","","","","","","","EACH","","","","21/05/2018","","",""
"BIC","","51423","BIC GLUE STICK","36gm","EACH","","12","1","1.71","","","","","70330514232","","","","","","","BIC-51423","","","","","","","","","","","","","","","","","","","","","EACH","","","","21/05/2018","","",""
"BIC","","91435","BIC SOFT FEEL BALLPOINT PEN","Retractable Black","BOX","","1","12","10.3","","","","","9310025005944","","","","","","","BIC-91435","","","","","","","","","","","","","","","","","","","","","EACH","","","","21/05/2018","","",""
"BIC","","8127971","BIC CRISTAL BALLPOINT PEN","Easy Glide Medium Red","BOX","","1","1","12.23955224","","","","","11111","","","","","","","BIC-10207","","","","","","","","","","","","","","","","","","","","","BOX","","","","21/05/2018","","",""
"BIC","","91437","BIC SOFT FEEL BALLPOINT PEN","Retractable Red","BOX","","1","12","10.3","","","","","9310025005920","","","","","","","BIC-91437","","","","","","","","","","","","","","","","","","","","","EACH","","","","21/05/2018","","",""
"BIC","","9202992","BIC KIDS PLASTIDECOR CRAYONS","Assorted Wlt12","EACH","","25","1","71.76","","","","","3270220000341","","","","","","","BIC-5432","","","","","","","","","","","","","","","","","","","","","EACH","","","","21/05/2018","","",""
"BIC","","922615","BIC CLIC BALLPOINT PEN","Medium Black","PACK","","1","1","4.45","","","","","9415567100130","","","","","","","BIC-922615","","","","","","","","","","","","","","","","","","","","","PACK","","","","21/05/2018","","",""
"BIC","","922617","BIC CLIC BALLPOINT PEN","Medium Blue","PACK","","1","1","4.450746269","","","","","9415567100109","","","","","","","BIC-922617","","","","","","","","","","","","","","","","","","","","","PACK","","","","21/05/2018","","",""
"BIC","","922619","BIC CLIC BALLPOINT PEN","Medium Red","PACK","","1","1","4.450746269","","","","","9415567100116","","","","","","","BIC-922619","","","","","","","","","","","","","","","","","","","","","PACK","","","","21/05/2018","","",""
"BIC","","922627","BIC CLIC BALLPOINT PEN","Fine Blue","PACK","","1","1","4.45","","","","","941556710028","","","","","","","BIC-922627","","","","","","","","","","","","","","","","","","","","","PACK","","","","21/05/2018","","",""
"BIC","","829772","BIC PLASTIDECOR 421 CRAYON","Pack of 24","PACK","","6","1","5.55","","","","","3270220010722","","","","","","","BIC-829772","","","","","","","","","","","","","","","","","","","","","PACK","","","","21/05/2018","","",""
"BIC","","895789","BIC KIDS COLOURING PENCIL","Circus","PACK","","12","1","2.67","","","","","3086123272064","","","","","","","BIC-895789","","","","","","","","","","","","","","","","","","","","","PACK","","","","21/05/2018","","",""
"BIC","","6236","BIC SHAKE SQUEEZE CORRECT PEN","8ml","EACH","","12","1","16.79","","","","","0070330506923","","","","","","","BIC-6236","","","","","","","","","","","","","","","","","","","","","EACH","","","","21/05/2018","","",""
"BIC","","926556","BIC KIDS FELT MARKERS","Cascade","PACK","","12","1","2.92","","","","","9415567886829","","","","","","","BIC-926556","","","","","","","","","","","","","","","","","","","","","PACK","","","","21/05/2018","","",""
"BIC","","45952","BIC COLOUR & ERASE FELT PENS","Pack of 12","PACK","","12","1","4.380099502","","","","","3086123174115","","","","","","","BIC-45951","","","","","","","","","","","","","","","","","","","","","PACK","","","","21/05/2018","","",""
"BIC","","13937","BIC ATLANTIS BALLPOINT PEN","Retractable Blue BP 4","PACK","","1","1","30.87","","","","","70330139374","","","","","","","BIC-13937","","","","","","","","","","","","","","","","","","","","","PACK","","","","21/05/2018","","",""
"BIC","","13938","BIC ATLANTIS BALLPOINT PEN","Retractable Black BP 4","PACK","","1","1","30.87","","","","","70330139381","","","","","","","BIC-13938","","","","","","","","","","","","","","","","","","","","","PACK","","","","21/05/2018","","",""
"BIC","","7145403","BIC 4 COLOUR BALLPOINT PEN","BP 3","PACK","","6","1","35.16089552","","","","","70330145405","","","","","","","BIC-14540","","","","","","","","","","","","","","","","","","","","","PACK","","","","21/05/2018","","",""
"BIC","","751601","BIC WITE OUT CORRECTION TAPE","EZ Grip Blister Pack","EACH","","6","1","18.82","","","","","70330516014","","","","","","","BIC-751601","","","","","","","","","","","","","","","","","","","","","EACH","","","","21/05/2018","","",""
"BIC","","918515","BIC 4 COLOUR COUNTER PEN","Medium Blue","PACK","","1","1","9.54","","","","","3086123340596","","","","","","","BIC-918515","","","","","","","","","","","","","","","","","","","","","PACK","","","","21/05/2018","","",""
"BIC","","829735","BIC KIDS COLOUR PENCIL","Triangular","PACK","","12","1","2.71","","","","","3086124001632","","","","","","","BIC-829735","","","","","","","","","","","","","","","","","","","","","PACK","","","","21/05/2018","","",""
"BIC","","829773","BIC KIDS CRAYONS","Triangular","PACK","","12","1","3.81","","","","","3086124000789","","","","","","","BIC-829773","","","","","","","","","","","","","","","","","","","","","PACK","","","","21/05/2018","","",""
"BIC","","904940","BIC WHITEBOARD MARKER","Bullet Green","EACH","","12","1","13.26","","","","","3086129999644","","","","","","","BIC-170102","","","","","","","","","","","","","","","","","","","","","EACH","","","","21/05/2018","","",""
"BIC","","929556","BIC KIDS CASCADE MARKERS","Assorted Colours","PACK","","1","1","35.09731343","","","","","9415567886829","","","","","","","BIC-929556","","","","","","","","","","","","","","","","","","","","","PACK","","","","21/05/2018","","",""
"BIC","","143471","BIC ATLANTIS BALLPOINT PEN","Retractable Black","PACK","","1","1","14.88880597","","","","","11111","","","","","","","BIC-14347P","","","","","","","","","","","","","","","","","","","","","PACK","","","","21/05/2018","","",""
"BIC","","829007","BIC KIDS XL MARKERS","Visacolor","PACK","","12","1","5.02","","","","","3270220000594","","","","","","","BIC-829007","","","","","","","","","","","","","","","","","","","","","PACK","","","","21/05/2018","","",""
"BIC","","75052319","BIC WITE OUT CORRECTION TAPE","4.2mm X 12m Tape","EACH","","6","1","1.87","","","","","70330505230","","","","","","","BIC-75052316","","","","","","","","","","","","","","","","","","","","","EACH","","","","21/05/2018","","",""
"BIC","","904939","BIC WHITEBOARD 1701 ECO MARKER","Red, Bullet Tip","PACK","","1","1","13.26","","","","","3086129999637","","","","","","","BIC-904939","","","","","","","","","","","","","","","","","","","","","PACK","","","","21/05/2018","","",""
"BIC","","144081","BIC ATLANTIS BALLPOINT PEN","Retractable Blue","PACK","","1","1","14.88880597","","","","","11111","","","","","","","BIC-14408P","","","","","","","","","","","","","","","","","","","","","PACK","","","","21/05/2018","","",""
"BIC","","904938","BIC WHITEBOARD 1701 ECO MARKER","Blue, Bullet Tip","PACK","","1","1","13.26","","","","","3086129999620","","","","","","","BIC-904938","","","","","","","","","","","","","","","","","","","","","PACK","","","","21/05/2018","","",""
"BIC","","32670","BIC MARK-IT ULTRA FINE MARKERS","Assorted Colours","PACK","","1","1","31.63","","","","","9310025326704","","","","","","","BIC-32670","","","","","","","","","","","","","","","","","","","","","PACK","","","","21/05/2018","","",""
"BIC","","935377","BIC MARK-IT FINE MARKERS","Assorted Office Colours","PACK","","1","1","25.85671642","","","","","9310025326698","","","","","","","BIC-32669","","","","","","","","","","","","","","","","","","","","","PACK","","","","21/05/2018","","",""
"BIC","","32667","BIC MARK-IT FINE MARKERS","Assorted Colours","PACK","","1","1","25.86","","","","","9310025326674","","","","","","","BIC-32667","","","","","","","","","","","","","","","","","","","","","PACK","","","","21/05/2018","","",""
"BIC","","32668","BIC MARK-IT FINE MARKERS","Assorted Pastel Colours","PACK","","1","1","25.86","","","","","9310025326681","","","","","","","BIC-32668","","","","","","","","","","","","","","","","","","","","","PACK","","","","21/05/2018","","",""
"BIC","","32675","BIC MARK-IT FINE MARKERS","Assorted Metallic Colours","PACK","","1","1","35.92","","","","","9310025326759","","","","","","","BIC-32675","","","","","","","","","","","","","","","","","","","","","PACK","","","","21/05/2018","","",""
"BIC","","904949","BIC WHITEBOARD MARKER","Chisel Green","EACH","","12","1","13.25686567","","","","","3086129999682","","","","","","","BIC-175102","","","","","","","","","","","","","","","","","","","","","EACH","","","","21/05/2018","","",""
"BIC","","893626","BIC GLUE STICK","21gm","EACH","","20","1","1.26","","","","","3086123239234","","","","","","","BIC-893626","","","","","","","","","","","","","","","","","","","","","EACH","","","","21/05/2018","","",""
"BIC","","71893","BIC INTENSITY MARKER","Black","PACK","","1","1","13.98","","","","","11111","","","","","","","BIC-71893","","","","","","","","","","","","","","","","","","","","","PACK","","","","21/05/2018","","",""
"BIC","","904948","BIC WHITEBOARD 1751 ECO MARKER","Red, Chisel Tip","PACK","","1","1","13.26","","","","","3086129999675","","","","","","","BIC-904948","","","","","","","","","","","","","","","","","","","","","PACK","","","","21/05/2018","","",""
"BIC","","71892","BIC INTENSITY MARKER","Assorted Colours","PACK","","1","1","13.98","","","","","11111","","","","","","","BIC-71892","","","","","","","","","","","","","","","","","","","","","PACK","","","","21/05/2018","","",""
"BIC","","904947","BIC WHITEBOARD 1751 ECO MARKER","Blue, Chisel Tip","PACK","","1","1","13.26","","","","","3086129999668","","","","","","","BIC-904947","","","","","","","","","","","","","","","","","","","","","PACK","","","","21/05/2018","","",""
"BIC","","14438","BIC ATLANTIS RETRACTABLE PEN","Medium Red","PACK","","1","1","14.88880597","","","","","9310025044387","","","","","","","BIC-14438","","","","","","","","","","","","","","","","","","","","","PACK","","","","21/05/2018","","",""
"BIC","","904946","BIC WHITEBOARD 1751 ECO MARKER","Black, Chisel Tip","PACK","","1","1","13.26","","","","","3086129999651","","","","","","","BIC-904946","","","","","","","","","","","","","","","","","","","","","PACK","","","","21/05/2018","","",""
"BIC","","8922931","BIC 4 COLOUR BALLPOINT PEN","Retractable Grip Pro","BOX","","1","1","24.92","","","","","9310025145671","","","","","","","BIC-8922931","","","","","","","","","","","","","","","","","","","","","BOX","","","","21/05/2018","","",""
"BIC","","1873","BIC CAPTIVE BALLPEN","Medium Blue BP 1","EACH","","24","1","77.99","","","","","9310025018739","","","","","","","BIC-1873","","","","","","","","","","","","","","","","","","","","","EACH","","","","21/05/2018","","",""
"BIC","","9010","BIC EVOLUTION GRAPHITE PENCIL","HB Graphite","EACH","","12","1","3.518208955","","","","","3270220004608","","","","","","","BIC-9010","","","","","","","","","","","","","","","","","","","","","EACH","","","","21/05/2018","","",""
"BIC","","1875","BIC CAPTIVE BALLPEN","Medium Blue","EACH","","12","1","30.58","","","","","9310025018753","","","","","","","BIC-1875","","","","","","","","","","","","","","","","","","","","","EACH","","","","21/05/2018","","",""
"BIC","","10790","BIC SOLO DELUXE DESK PEN SET","Fine BP 1","EACH","","10","1","65.71","","","","","6001539107905","","","","","","","BIC-1880","","","","","","","","","","","","","","","","","","","","","EACH","","","","21/05/2018","","",""
"BIC","","8209123","BIC PERMANENT MARKER","Bullet Green","EACH","","12","1","13.08","","","","","3086129999729","","","","","","","BIC-200002","","","","","","","","","","","","","","","","","","","","","EACH","","","","21/05/2018","","",""
"BIC","","8209133","BIC MARKING 2000 MARKER","Permanent Red Bullet Tip","PACK","","1","1","13.08","","","","","3086129999712","","","","","","","BIC-8209133","","","","","","","","","","","","","","","","","","","","","PACK","","","","21/05/2018","","",""
"BIC","","8209143","BIC MARKING 2000 MARKER","Permanent Blue Bullet Tip","PACK","","1","1","13.08","","","","","3086129999705","","","","","","","BIC-8209143","","","","","","","","","","","","","","","","","","","","","PACK","","","","21/05/2018","","",""
"BIC","","91441","BIC SOFT FEEL BALLPOINT PEN","Retractable Blue BP 2","PACK","","6","1","11.14","","","","","70330914421","","","","","","","BIC-91441","","","","","","","","","","","","","","","","","","","","","PACK","","","","21/05/2018","","",""
"BIC","","8209153","BIC MARKING 2000 MARKER","Permanent Black Bullet Tip","PACK","","1","1","13.08","","","","","3086129999699","","","","","","","BIC-8209153","","","","","","","","","","","","","","","","","","","","","PACK","","","","21/05/2018","","",""
"BIC","","91444","BIC SOFT FEEL BALLPOINT PEN","Retractable Black BP 2","PACK","","6","1","11.14","","","","","70330914452","","","","","","","BIC-91444","","","","","","","","","","","","","","","","","","","","","PACK","","","","21/05/2018","","",""
"BIC","","91447","BIC SOFT FEEL BALLPOINT PEN","Retractable Red BP 2","PACK","","6","1","11.13746269","","","","","70330914483","","","","","","","BIC-91447","","","","","","","","","","","","","","","","","","","","","PACK","","","","21/05/2018","","",""
"BIC","","919380","BIC 4 COLOUR BALLPOINT PEN","Retractable Shine","BOX","","1","1","24.92","","","","","11111","","","","","","","BIC-919380","","","","","","","","","","","","","","","","","","","","","BOX","","","","21/05/2018","","",""
"BIC","","946642","BIC ROUND STIC BALLPOINT PEN","Blue Pouch 10","EACH","","12","1","24.91358209","","","","","0070330201224","","","","","","","BIC-20122","","","","","","","","","","","","","","","","","","","","","EACH","","","","21/05/2018","","",""
"BIC","","93151","BIC PLASTIDECOR 421 CRAYON","Pack of 12","PACK","","12","1","2.76","","","","","3270220000341","","","","","","","BIC-93151","","","","","","","","","","","","","","","","","","","","","PACK","","","","21/05/2018","","",""
"BIC","","20123","BIC ROUND STIC BALLPOINT PEN","Black Pouch 10","EACH","","12","1","24.91358209","","","","","0070330201231","","","","","","","BIC-20123","","","","","","","","","","","","","","","","","","","","","EACH","","","","21/05/2018","","",""
"BIC","","9339481","BIC 4 COLOUR BALLPOINT PEN","Retractable Fluo","BOX","","1","1","24.92","","","","","3086123419063","","","","","","","BIC-9339481","","","","","","","","","","","","","","","","","","","","","BOX","","","","21/05/2018","","",""
"BIC","","20124","BIC ROUND STIC BALLPOINT PEN","Assorted Pouch 10","EACH","","12","1","24.91","","","","","9310025201247","","","","","","","BIC-20124","","","","","","","","","","","","","","","","","","","","","EACH","","","","21/05/2018","","",""
"BIC","","44621","BIC GELOCITY ROLLERBALL PEN","Black","PACK","","1","1","22.55","","","","","9310025144629","","","","","","","BIC-829157","","","","","","","","","","","","","","","","","","","","","PACK","","","","21/05/2018","","",""
"BIC","","44611","BIC GELOCITY ROLLERBALL PEN","Blue","PACK","","1","1","22.55044776","","","","","9310025144612","","","","","","","BIC-829158","","","","","","","","","","","","","","","","","","","","","PACK","","","","21/05/2018","","",""
"BIC","","20220","BIC ROUND STIC BALLPOINT PEN","Blue BX 12","BOX","","1","1","4.15","","","","","11111","","","","","","","BIC-20127","","","","","","","","","","","","","","","","","","","","","BOX","","","","21/05/2018","","",""
"BIC","","44631","BIC GELOCITY ROLLERBALL PEN","Red","PACK","","1","1","22.55044776","","","","","9310025144636","","","","","","","BIC-829159","","","","","","","","","","","","","","","","","","","","","PACK","","","","21/05/2018","","",""
"BIC","","20219","BIC ROUND STIC BALLPOINT PEN","Black BX12","BOX","","1","1","4.15","","","","","11111","","","","","","","BIC-20128","","","","","","","","","","","","","","","","","","","","","BOX","","","","21/05/2018","","",""
"BIC","","20218","BIC ROUND STIC BALLPOINT PEN","Red BX12","BOX","","1","1","4.15","","","","","11111","","","","","","","BIC-20218","","","","","","","","","","","","","","","","","","","","","BOX","","","","21/05/2018","","",""
"BIC","","9202992","BIC KIDS PLASTIDECOR CRAYONS","Assorted Colours","PACK","","1","1","71.76","","","","","3270220000341","","","","","","","BIC-9202992","","","","","","","","","","","","","","","","","","","","","PACK","","","","21/05/2018","","",""
"BIC","","2043","BIC 4 COLOUR BALLPOINT PEN","BP 1","PACK","","12","1","24.12","","","","","9310025020435","","","","","","","BIC-2043","","","","","","","","","","","","","","","","","","","","","PACK","","","","21/05/2018","","",""
"BIC","","2061","BIC VELOCITY BALLPOINT PEN","Rubber Grip Assorted","EACH","","12","1","10.3","","","","","9310025120616","","","","","","","BIC-2061","","","","","","","","","","","","","","","","","","","","","EACH","","","","21/05/2018","","",""
"BIC","","20910","BIC REFILL","Blue 2 4 Colour Medium","EACH","","1","1","0.66","","","","","11111","","","","","","","BIC-20910","","","","","","","","","","","","","","","","","","","","","EACH","","","","21/05/2018","","",""
"BIC","","20920","BIC REFILL","Red 2 4 Colour Medium","EACH","","1","1","0.66","","","","","11111","","","","","","","BIC-20920","","","","","","","","","","","","","","","","","","","","","EACH","","","","21/05/2018","","",""
"BIC","","20930","BIC REFILL","Green 2 4 Colour Medium","EACH","","1","1","0.657014925","","","","","11111","","","","","","","BIC-20930","","","","","","","","","","","","","","","","","","","","","EACH","","","","21/05/2018","","",""
"BIC","","20940","BIC REFILL","Black 2 4 Colour Medium","EACH","","1","1","0.66","","","","","11111","","","","","","","BIC-20940","","","","","","","","","","","","","","","","","","","","","EACH","","","","21/05/2018","","",""
"BIC","","22521","BIC ATLANTIS STIC BALPOINT PEN","Blue","EACH","","12","1","11.6","","","","","9310025122528","","","","","","","BIC-2252","","","","","","","","","","","","","","","","","","","","","EACH","","","","21/05/2018","","",""
"BIC","","22531","BIC ATLANTIS STIC BALPOINT PEN","Black","EACH","","12","1","11.6","","","","","9310025122535","","","","","","","BIC-2253","","","","","","","","","","","","","","","","","","","","","EACH","","","","21/05/2018","","",""
"BIC","","8209233","BIC PERMANENT MARKER","Chisel Green","EACH","","12","1","13.08","","","","","3086129999767","","","","","","","BIC-230002","","","","","","","","","","","","","","","","","","","","","EACH","","","","21/05/2018","","",""
"BIC","","8209243","BIC MARKING 2300 MARKER","Permanent Red Chisel Tip","PACK","","1","1","13.08","","","","","3086129999750","","","","","","","BIC-8209243","","","","","","","","","","","","","","","","","","","","","PACK","","","","21/05/2018","","",""
"BIC","","8209253","BIC MARKING 2300 MARKER","Permanent Blue Chisel Tip","PACK","","1","1","13.08","","","","","3086129999743","","","","","","","BIC-8209253","","","","","","","","","","","","","","","","","","","","","PACK","","","","21/05/2018","","",""
"BIC","","8209263","BIC MARKING 2300 MARKER","Permanent Black Chisel Tip","PACK","","1","1","13.08","","","","","3086129999736","","","","","","","BIC-8209263","","","","","","","","","","","","","","","","","","","","","PACK","","","","21/05/2018","","",""
"BIC","","31940","BIC MARK-IT WHITEBOARD MARKER","Assorted Colours","PACK","","1","1","19.77","","","","","9310025319409","","","","","","","BIC-31940","","","","","","","","","","","","","","","","","","","","","PACK","","","","21/05/2018","","",""
"BIC","","245411","BIC 4 COLOUR BALLPOINT PEN","Medium Point","BOX","","1","1","20.77","","","","","9310025145411","","","","","","","BIC-24541","","","","","","","","","","","","","","","","","","","","","BOX","","","","21/05/2018","","",""
"BIC","","245421","BIC 4 COLOUR BALLPOINT PEN","Fine Point","PACK","","1","1","20.77","","","","","9310025145428","","","","","","","BIC-24542","","","","","","","","","","","","","","","","","","","","","PACK","","","","21/05/2018","","",""
"BIC","","24543","BIC 4 COLOUR BALLPOINT PEN","Retractable Fine","BOX","","1","1","22.55044776","","","","","70330101760","","","","","","","BIC-24543","","","","","","","","","","","","","","","","","","","","","BOX","","","","21/05/2018","","",""
"BIC","","245611","BIC 4 COLOUR GRIP PEN","Fashion Green Blue Pink Purple","BOX","","1","1","20.77014925","","","","","11111","","","","","","","BIC-24561","","","","","","","","","","","","","","","","","","","","","BOX","","","","21/05/2018","","",""
"BIC","","245611","BIC 4 COLOUR BALLPOINT PEN","Retractable Grip Fashion Med","BOX","","1","1","20.77014925","","","","","9310025145626","","","","","","","BIC-24562","","","","","","","","","","","","","","","","","","","","","BOX","","","","21/05/2018","","",""
"BIC","","904937","BIC WHITEBOARD 1701 ECO MARKER","Black, Bullet Tip","PACK","","1","1","13.26","","","","","3086129999613","","","","","","","BIC-904937","","","","","","","","","","","","","","","","","","","","","PACK","","","","21/05/2018","","",""
"BIC","","10216.04","BIC ECONOMY BALLPOINT PEN","Medium Blue","BOX","","1","1","10.6","","","","","9310025002714","","","","","","","BIC-0216040","","","","","","","","","","","","","","","","","","","","","BOX","","","","21/05/2018","","",""
"BIC","","10231","BIC CRISTAL BALLPOINT PEN","Medium Green","BOX","","1","12","4.07","","","","","9310025002318","","","","","","","BIC-0231","","","","","","","","","","","","","","","","","","","","","EACH","","","","21/05/2018","","",""
"BIC","","822979","BIC WHITEBOARD MARKER","Bullet Red BP 1","PACK","","6","1","11.62492537","","","","","3270220028826","","","","","","","BIC-277103","","","","","","","","","","","","","","","","","","","","","PACK","","","","21/05/2018","","",""
"BIC","","10246.04","BIC ECONOMY BALLPOINT PEN","Medium Black","BOX","","1","1","10.6","","","","","9310025002745","","","","","","","BIC-0246040","","","","","","","","","","","","","","","","","","","","","BOX","","","","21/05/2018","","",""
"BIC","","822980","BIC WHITEBOARD MARKER","Bullet Blue BP 1","PACK","","6","1","11.62492537","","","","","3270220028819","","","","","","","BIC-277106","","","","","","","","","","","","","","","","","","","","","PACK","","","","21/05/2018","","",""
"BIC","","10111","BIC FINEPOINT BALLPOINT PEN","Fine Blue","BOX","","1","12","4.07","","","","","9310025001113","","","","","","","BIC-10111","","","","","","","","","","","","","","","","","","","","","EACH","","","","21/05/2018","","",""
"BIC","","928532","BIC WHITEBOARD MARKER","Bullet Black BP 1","PACK","","6","1","11.62492537","","","","","3270220028802","","","","","","","BIC-277109","","","","","","","","","","","","","","","","","","","","","PACK","","","","21/05/2018","","",""
"BIC","","10114","BIC ECONOMY BALLPOINT PEN","Fine Blue","BOX","","1","12","2.84","","","","","9310025001144","","","","","","","BIC-10114","","","","","","","","","","","","","","","","","","","","","EACH","","","","21/05/2018","","",""
"BIC","","10121","BIC FINEPOINT BALLPOINT PEN","Fine Red","BOX","","1","12","4.07","","","","","9310025011211","","","","","","","BIC-10121","","","","","","","","","","","","","","","","","","","","","EACH","","","","21/05/2018","","",""
"BIC","","101241","BIC ECONOMY BALLPOINT PEN","Fine Red","BOX","","1","12","2.84","","","","","9310025001243","","","","","","","BIC-10124","","","","","","","","","","","","","","","","","","","","","EACH","","","","21/05/2018","","",""
"BIC","","10141","BIC FINEPOINT BALLPOINT PEN","Fine Black","BOX","","1","12","4.07","","","","","9310025001410","","","","","","","BIC-10141","","","","","","","","","","","","","","","","","","","","","EACH","","","","21/05/2018","","",""
"BIC","","31254","BIC BRITELINER GRIP HIGHLIGHTR","Pink","EACH","","12","1","10.16","","","","","9310025312547","","","","","","","BIC-31254","","","","","","","","","","","","","","","","","","","","","EACH","","","","21/05/2018","","",""
"BIC","","10144","BIC ECONOMY BALLPOINT PEN","Fine Black","BOX","","1","12","2.84","","","","","9310025001441","","","","","","","BIC-10144","","","","","","","","","","","","","","","","","","","","","EACH","","","","21/05/2018","","",""
"BIC","","31255","BIC BRITELINER GRIP HIGHLIGHTR","Yellow","EACH","","12","1","10.16","","","","","9310025312554","","","","","","","BIC-31255","","","","","","","","","","","","","","","","","","","","","EACH","","","","21/05/2018","","",""
"BIC","","10202","BIC CRISTAL BALLPOINT PEN","Blue","BOX","","1","1","12.24","","","","","9310025002028","","","","","","","BIC-10202","","","","","","","","","","","","","","","","","","","","","BOX","","","","21/05/2018","","",""
"BIC","","10204","BIC CRISTAL BALLPOINT PEN","Black","BOX","","1","1","12.24","","","","","9310025002042","","","","","","","BIC-10204","","","","","","","","","","","","","","","","","","","","","BOX","","","","21/05/2018","","",""
"BIC","","31931","BIC MARK IT PERMANENT MARKER","Ultra Fine Black","EACH","","12","1","9.23","","","","","9310025319317","","","","","","","BIC-31931","","","","","","","","","","","","","","","","","","","","","EACH","","","","21/05/2018","","",""
"BIC","","31932","BIC MARK IT PERMANENT MARKER","Ultra Fine Blue","EACH","","12","1","9.23","","","","","9310025319324","","","","","","","BIC-31932","","","","","","","","","","","","","","","","","","","","","EACH","","","","21/05/2018","","",""
"BIC","","10211","BIC CRISTAL BALLPOINT PEN","Medium Blue","BOX","","1","12","4.07","","","","","9310025002110","","","","","","","BIC-10211","","","","","","","","","","","","","","","","","","","","","EACH","","","","21/05/2018","","",""
"BIC","","10214","BIC ECONOMY BALLPOINT PEN","Medium Blue","BOX","","1","12","2.84","","","","","9310025002141","","","","","","","BIC-10214","","","","","","","","","","","","","","","","","","","","","EACH","","","","21/05/2018","","",""
"BIC","","31933","BIC MARK IT PERMANENT MARKER","Ultra Fine Red","EACH","","12","1","9.23","","","","","9310025319331","","","","","","","BIC-31933","","","","","","","","","","","","","","","","","","","","","EACH","","","","21/05/2018","","",""
"BIC","","10221","BIC CRISTAL BALLPOINT PEN","Medium Red","BOX","","1","12","4.07","","","","","9310025002219","","","","","","","BIC-10221","","","","","","","","","","","","","","","","","","","","","EACH","","","","21/05/2018","","",""
"BIC","","10224","BIC ECONOMY BALLPOINT PEN","Medium Red","BOX","","1","12","2.84","","","","","9310025002240","","","","","","","BIC-10224","","","","","","","","","","","","","","","","","","","","","EACH","","","","21/05/2018","","",""
"BIC","","10241","BIC CRISTAL BALLPOINT PEN","Medium Black","BOX","","1","12","4.07","","","","","9310025002417","","","","","","","BIC-10241","","","","","","","","","","","","","","","","","","","","","EACH","","","","21/05/2018","","",""
"BIC","","10244","BIC ECONOMY BALLPOINT PEN","Medium Black","BOX","","1","12","2.84","","","","","9310025002448","","","","","","","BIC-10244","","","","","","","","","","","","","","","","","","","","","EACH","","","","21/05/2018","","",""
"BIC","","10247","BIC CORDED CRISTAL BALLPOINT","Black","BOX","","1","12","11.47","","","","","9310025002479","","","","","","","BIC-10247","","","","","","","","","","","","","","","","","","","","","EACH","","","","21/05/2018","","",""
"BIC","","0226.040","BIC ECONOMY BALLPOINT PEN","Medium Red","BOX","","1","1","10.59701493","","","","","9310025002721","","","","","","","BIC-0226040","","","","","","","","","","","","","","","","","","","","","BOX","","","","21/05/2018","","",""
"BIC","","10230","BIC CRISTAL BALLPOINT PEN","Blue PK5","PACK","","12","1","22.08","","","","","9310025002301","","","","","","","BIC-0230","","","","","","","","","","","","","","","","","","","","","PACK","","","","21/05/2018","","",""
"BIC","","407902","BIC ATLANTIS PENCIL","0 7mm","EACH","","12","1","14.86","","","","","9310025409759","","","","","","","BIC-40790","","","","","","","","","","","","","","","","","","","","","EACH","","","","21/05/2018","","",""
"BIC","","7422294","BIC ATLANTIS PENCIL","0 7mm BP 2","PACK","","6","1","14.86","","","","","7.03304e+010","","","","","","","BIC-40811","","","","","","","","","","","","","","","","","","","","","PACK","","","","21/05/2018","","",""
"BIC","","10237","BIC CRISTAL BALLPOINT PEN","Black PK5","PACK","","12","1","22.08","","","","","9310025002370","","","","","","","BIC-0237","","","","","","","","","","","","","","","","","","","","","PACK","","","","21/05/2018","","",""
"BIC","","14347","BIC ATLANTIS BALLPOINT PEN","Retractable Black","BOX","","12","12","14.89","","","","","9310025143479","","","","","","","BIC-14347","","","","","","","","","","","","","","","","","","","","","EACH","","","","21/05/2018","","",""
"BIC","","10302","BIC CRISTAL BALLPOINT PEN","Medium Blue Pouch 2","EACH","","12","1","9.59","","","","","9310025003124","","","","","","","BIC-0302","","","","","","","","","","","","","","","","","","","","","EACH","","","","21/05/2018","","",""
"BIC","","14408","BIC ATLANTIS BALLPOINT PEN","Retractable Blue","BOX","","12","12","14.89","","","","","9310025144087","","","","","","","BIC-14408","","","","","","","","","","","","","","","","","","","","","EACH","","","","21/05/2018","","",""
"BIC","","946648","BIC CRISTAL BALLPOINT PEN","Medium Red Pouch 2","EACH","","12","1","9.590298507","","","","","9310025003148","","","","","","","BIC-0304","","","","","","","","","","","","","","","","","","","","","EACH","","","","21/05/2018","","",""
