"MAX","","GLU201-L","MAXISAFE DISPOSABLE GLOVES","Latex Unpowdered","PACK","","1","1","7.8100","","","","","0","","","","","","","MAX-GLU201L","","","","","","","","","","","","","","","","","","","","","PACK","","","","","","",""
"MAX","","GLU201-XL","MAXISAFE DISPOSABLE GLOVES","Latex Unpowdered","PACK","","1","1","7.8100","","","","","0","","","","","","","MAX-GLU201XL","","","","","","","","","","","","","","","","","","","","","PACK","","","","","","",""
"MAX","","GMF117","MAXISAFE MECHANICS GLOVES","G-Force Grip Mechanics Glove","PAIR","","1","1","12.5300","","","","","0","","","","","","","MAX-GMF117","","","","","","","","","","","","","","","","","","","","","PAIR","","","","","","",""
"MAX","","GMF117-08","MAXISAFE MECHANICS GLOVES","G-Force Grip Mechanics Glove","PAIR","","6","1","12.5300","","","","","0","","","","","","","MAX-GMF11708","","","","","","","","","","","","","","","","","","","","","PAIR","","","","","","",""
"MAX","","GMF117-09","MAXISAFE MECHANICS GLOVES","G-Force Grip Mechanics Glove","PAIR","","6","1","12.5300","","","","","0","","","","","","","MAX-GMF11709","","","","","","","","","","","","","","","","","","","","","PAIR","","","","","","",""
"MAX","","GMF117-10","MAXISAFE MECHANICS GLOVES","G-Force Grip Mechanics Glove","PAIR","","6","1","12.5300","","","","","0","","","","","","","MAX-GMF11710","","","","","","","","","","","","","","","","","","","","","PAIR","","","","","","",""
"MAX","","GMF117-11","MAXISAFE MECHANICS GLOVES","G-Force Grip Mechanics Glove","PAIR","","6","1","12.5300","","","","","0","","","","","","","MAX-GMF11711","","","","","","","","","","","","","","","","","","","","","PAIR","","","","","","",""
"MAX","","GMF117-12","MAXISAFE MECHANICS GLOVES","G-Force Grip Mechanics Glove","PAIR","","6","1","12.5300","","","","","0","","","","","","","MAX-GMF11712","","","","","","","","","","","","","","","","","","","","","PAIR","","","","","","",""
"MAX","","GML158","MAXISAFE MECHANICS GLOVES","G-Force Mechanics Glove","PAIR","","1","1","13.3000","","","","","0","","","","","","","MAX-GML158","","","","","","","","","","","","","","","","","","","","","PAIR","","","","","","",""
"MAX","","GML158-08","MAXISAFE MECHANICS GLOVES","G-Force Mechanics Glove","PAIR","","6","1","13.3000","","","","","0","","","","","","","MAX-GML15808","","","","","","","","","","","","","","","","","","","","","PAIR","","","","","","",""
"MAX","","GML158-09","MAXISAFE MECHANICS GLOVES","G-Force Mechanics Glove","PAIR","","6","1","13.3000","","","","","0","","","","","","","MAX-GML15809","","","","","","","","","","","","","","","","","","","","","PAIR","","","","","","",""
"MAX","","GML158-10","MAXISAFE MECHANICS GLOVES","G-Force Mechanics Glove","PAIR","","6","1","13.3000","","","","","0","","","","","","","MAX-GML15810","","","","","","","","","","","","","","","","","","","","","PAIR","","","","","","",""
"MAX","","GML158-11","MAXISAFE MECHANICS GLOVES","G-Force Mechanics Glove","PAIR","","6","1","13.3000","","","","","0","","","","","","","MAX-GML15811","","","","","","","","","","","","","","","","","","","","","PAIR","","","","","","",""
"MAX","","GML158-12","MAXISAFE MECHANICS GLOVES","G-Force Mechanics Glove","PAIR","","6","1","13.3000","","","","","0","","","","","","","MAX-GML15812","","","","","","","","","","","","","","","","","","","","","PAIR","","","","","","",""
"MAX","","GNB126","MAXISAFE SYNTHETIC COAT GLOVES","Blue Knight Nitrile Glove","PAIR","","12","1","2.4500","","","","","0","","","","","","","MAX-GNB126","","","","","","","","","","","","","","","","","","","","","PAIR","","","","","","",""
"MAX","","GNB126-08","MAXISAFE SYNTHETIC COAT GLOVES","Blue Knight Nitrile Glove","PAIR","","12","1","2.4500","","","","","0","","","","","","","MAX-GNB12608","","","","","","","","","","","","","","","","","","","","","PAIR","","","","","","",""
"MAX","","GNB126-09","MAXISAFE SYNTHETIC COAT GLOVES","Blue Knight Nitrile Glove","PAIR","","12","1","2.4500","","","","","0","","","","","","","MAX-GNB12609","","","","","","","","","","","","","","","","","","","","","PAIR","","","","","","",""
"MAX","","GNB126-10","MAXISAFE SYNTHETIC COAT GLOVES","Blue Knight Nitrile Glove","PAIR","","12","1","2.4500","","","","","0","","","","","","","MAX-GNB12610","","","","","","","","","","","","","","","","","","","","","PAIR","","","","","","",""
"MAX","","GNB218","MAXISAFE DISPOSABLE GLOVES","Extra Heavy Duty Unpowdered","PACK","","10","1","12.0000","","","","","0","","","","","","","MAX-GNB218","","","","","","","","","","","","","","","","","","","","","PACK","","","","","","",""
"MAX","","GNB218-L","MAXISAFE DISPOSABLE GLOVES","Extra Heavy Duty Unpowdered, L","PACK","","1","1","14.0000","","","","","0","","","","","","","MAX-GNB218L","","","","","","","","","","","","","","","","","","","","","PACK","","","","","","",""
"MAX","","GNB218-M","MAXISAFE DISPOSABLE GLOVES","Extra Heavy Duty Unpowdered, M","PACK","","1","1","14.0000","","","","","0","","","","","","","MAX-GNB218M","","","","","","","","","","","","","","","","","","","","","PACK","","","","","","",""
"MAX","","GNB218-S","MAXISAFE DISPOSABLE GLOVES","Extra Heavy Duty Unpowdered, S","PACK","","1","1","14.0000","","","","","0","","","","","","","MAX-GNB218S","","","","","","","","","","","","","","","","","","","","","PACK","","","","","","",""
"MAX","","GNB218-XL","MAXISAFE DISPOSABLE GLOVES","Extra Heavy Duty Unpowdered XL","PACK","","1","1","14.0000","","","","","0","","","","","","","MAX-GNB218XL","","","","","","","","","","","","","","","","","","","","","PACK","","","","","","",""
"MAX","","GNB218-XXL","MAXISAFE DISPOSABLE GLOVES","Extra Heavy Duty Unpowdered2XL","PACK","","1","1","14.0000","","","","","0","","","","","","","MAX-GNB218XXL","","","","","","","","","","","","","","","","","","","","","PACK","","","","","","",""
"MAX","","GNB268","MAXISAFE DISPOSABLE GLOVES","Heavy Duty Unpowdered","PACK","","10","1","8.8200","","","","","0","","","","","","","MAX-GNB268","","","","","","","","","","","","","","","","","","","","","PACK","","","","","","",""
"MAX","","GNB268-L","MAXISAFE DISPOSABLE GLOVES","Heavy Duty Unpowdered, L","PACK","","1","1","10.2900","","","","","0","","","","","","","MAX-GNB268L","","","","","","","","","","","","","","","","","","","","","PACK","","","","","","",""
"MAX","","GNB268-M","MAXISAFE DISPOSABLE GLOVES","Heavy Duty Unpowdered, M","PACK","","1","1","10.2900","","","","","0","","","","","","","MAX-GNB268M","","","","","","","","","","","","","","","","","","","","","PACK","","","","","","",""
"MAX","","GNB268-S","MAXISAFE DISPOSABLE GLOVES","Heavy Duty Unpowdered, S","PACK","","1","1","10.2900","","","","","0","","","","","","","MAX-GNB268S","","","","","","","","","","","","","","","","","","","","","PACK","","","","","","",""
"MAX","","GNB268-XL","MAXISAFE DISPOSABLE GLOVES","Heavy Duty Unpowdered, XL","PACK","","1","1","10.2900","","","","","0","","","","","","","MAX-GNB268XL","","","","","","","","","","","","","","","","","","","","","PACK","","","","","","",""
"MAX","","GNB268-XXL","MAXISAFE DISPOSABLE GLOVES","Heavy Duty Unpowdered, 2XL","PACK","","1","1","10.2900","","","","","0","","","","","","","MAX-GNB268XXL","","","","","","","","","","","","","","","","","","","","","PACK","","","","","","",""
"MAX","","GNF124","MAXISAFE SYNTHETIC COAT GLOVES","White Knight FoamNitrile Glove","PAIR","","12","1","2.4500","","","","","0","","","","","","","MAX-GNF124","","","","","","","","","","","","","","","","","","","","","PAIR","","","","","","",""
"MAX","","GNF124-06","MAXISAFE SYNTHETIC COAT GLOVES","White Knight FoamNitrile Glove","PAIR","","12","1","2.4500","","","","","0","","","","","","","MAX-GNF12406","","","","","","","","","","","","","","","","","","","","","PAIR","","","","","","",""
"MAX","","GNF124-07","MAXISAFE SYNTHETIC COAT GLOVES","White Knight FoamNitrile Glove","PAIR","","12","1","2.4500","","","","","0","","","","","","","MAX-GNF12407","","","","","","","","","","","","","","","","","","","","","PAIR","","","","","","",""
"MAX","","GNF124-08","MAXISAFE SYNTHETIC COAT GLOVES","White Knight FoamNitrile Glove","PAIR","","12","1","2.4500","","","","","0","","","","","","","MAX-GNF12408","","","","","","","","","","","","","","","","","","","","","PAIR","","","","","","",""
"MAX","","GNF124-09","MAXISAFE SYNTHETIC COAT GLOVES","White Knight FoamNitrile Glove","PAIR","","12","1","2.4500","","","","","0","","","","","","","MAX-GNF12409","","","","","","","","","","","","","","","","","","","","","PAIR","","","","","","",""
"MAX","","GNF124-10","MAXISAFE SYNTHETIC COAT GLOVES","White Knight FoamNitrile Glove","PAIR","","12","1","2.4500","","","","","0","","","","","","","MAX-GNF12410","","","","","","","","","","","","","","","","","","","","","PAIR","","","","","","",""
"MAX","","GNF124-11","MAXISAFE SYNTHETIC COAT GLOVES","White Knight FoamNitrile Glove","PAIR","","12","1","2.4500","","","","","0","","","","","","","MAX-GNF12411","","","","","","","","","","","","","","","","","","","","","PAIR","","","","","","",""
"MAX","","GNF127","MAXISAFE CHEM RESISTANT GLOVES","Green Nitrile Chemical Glove","PAIR","","12","1","1.8000","","","","","0","","","","","","","MAX-GNF127","","","","","","","","","","","","","","","","","","","","","PAIR","","","","","","",""
"MAX","","GNF127-07","MAXISAFE CHEM RESISTANT GLOVES","Green Nitrile Chemical Glove","PAIR","","12","1","1.8060","","","","","0","","","","","","","MAX-GNF12707","","","","","","","","","","","","","","","","","","","","","PAIR","","","","","","",""
"MAX","","GNF127-08","MAXISAFE CHEM RESISTANT GLOVES","Green Nitrile Chemical Glove","PAIR","","12","1","1.8060","","","","","0","","","","","","","MAX-GNF12708","","","","","","","","","","","","","","","","","","","","","PAIR","","","","","","",""
"MAX","","GNF127-09","MAXISAFE CHEM RESISTANT GLOVES","Green Nitrile Chemical Glove","PAIR","","12","1","1.8060","","","","","0","","","","","","","MAX-GNF12709","","","","","","","","","","","","","","","","","","","","","PAIR","","","","","","",""
"MAX","","GNF127-10","MAXISAFE CHEM RESISTANT GLOVES","Green Nitrile Chemical Glove","PAIR","","12","1","1.8060","","","","","0","","","","","","","MAX-GNF12710","","","","","","","","","","","","","","","","","","","","","PAIR","","","","","","",""
"MAX","","GNF127-11","MAXISAFE CHEM RESISTANT GLOVES","Green Nitrile Chemical Glove","PAIR","","12","1","1.8060","","","","","0","","","","","","","MAX-GNF12711","","","","","","","","","","","","","","","","","","","","","PAIR","","","","","","",""
"MAX","","GNH292-07","BLACK KNIGHT GRIPMASTER GLOVE","Hi-Vis Yellow Nylon Small","PAIR","","12","1","2.6600","","","","","0","","","","","","","MAX-GNH29207","","","","","","","","","","","","","","","","","","","","","PAIR","","","","","","",""
"MAX","","GNH292-08","BLACK KNIGHT GRIPMASTER GLOVE","H-Vis Yellow Nylon Medium","PAIR","","12","1","2.6600","","","","","0","","","","","","","MAX-GNH29208","","","","","","","","","","","","","","","","","","","","","PAIR","","","","","","",""
"MAX","","GNH292-09","BLACK KNIGHT GRIPMASTER GLOVE","Hi-Vis Yellow Nylon Large","PAIR","","12","1","2.6600","","","","","0","","","","","","","MAX-GNH29209","","","","","","","","","","","","","","","","","","","","","PAIR","","","","","","",""
"MAX","","GNH292-10","BLACK KNIGHT GRIPMASTER GLOVE","Hi-Vis Yellow Nylon Xlarge","PAIR","","12","1","2.6600","","","","","0","","","","","","","MAX-GNH29210","","","","","","","","","","","","","","","","","","","","","PAIR","","","","","","",""
"MAX","","GNH292-11","BLACK KNIGHT GRIPMASTER GLOVE","Hi-Vis Yellow Nylon XXLarge","PAIR","","12","1","2.6600","","","","","0","","","","","","","MAX-GNH29211","","","","","","","","","","","","","","","","","","","","","PAIR","","","","","","",""
"MAX","","GNL224","MAXISAFE SYNTHETIC COAT GLOVES","Black Knight Sub Zero Glove","PAIR","","12","1","5.0400","","","","","0","","","","","","","MAX-GNL224","","","","","","","","","","","","","","","","","","","","","PAIR","","","","","","",""
"MAX","","GNL224-08","MAXISAFE SYNTHETIC COAT GLOVES","Black Knight Sub Zero Glove","PAIR","","12","1","5.0400","","","","","0","","","","","","","MAX-GNL22408","","","","","","","","","","","","","","","","","","","","","PAIR","","","","","","",""
"MAX","","GNL224-09","MAXISAFE SYNTHETIC COAT GLOVES","Black Knight Sub Zero Glove","PAIR","","12","1","5.0400","","","","","0","","","","","","","MAX-GNL22409","","","","","","","","","","","","","","","","","","","","","PAIR","","","","","","",""
"MAX","","GNL224-10","MAXISAFE SYNTHETIC COAT GLOVES","Black Knight Sub Zero Glove","PAIR","","12","1","5.0400","","","","","0","","","","","","","MAX-GNL22410","","","","","","","","","","","","","","","","","","","","","PAIR","","","","","","",""
"MAX","","GNL224-11","MAXISAFE SYNTHETIC COAT GLOVES","Black Knight Sub Zero Glove","PAIR","","12","1","5.0400","","","","","0","","","","","","","MAX-GNL22411","","","","","","","","","","","","","","","","","","","","","PAIR","","","","","","",""
"MAX","","GNN192","MAXISAFE SYNTHETIC COAT GLOVES","Black Knight Gripmaster Glove","PAIR","","12","1","2.6600","","","","","0","","","","","","","MAX-GNN192","","","","","","","","","","","","","","","","","","","","","PAIR","","","","","","",""
"MAX","","GNN192-07","MAXISAFE SYNTHETIC COAT GLOVES","Black Knight Gripmaster Glove","PAIR","","12","1","2.6600","","","","","0","","","","","","","MAX-GNN19207","","","","","","","","","","","","","","","","","","","","","PAIR","","","","","","",""
"MAX","","GNN192-08","MAXISAFE SYNTHETIC COAT GLOVES","Black Knight Gripmaster Glove","PAIR","","12","1","2.6600","","","","","0","","","","","","","MAX-GNN19208","","","","","","","","","","","","","","","","","","","","","PAIR","","","","","","",""
"MAX","","GNN192-09","MAXISAFE SYNTHETIC COAT GLOVES","Black Knight Gripmaster Glove","PAIR","","12","1","2.6600","","","","","0","","","","","","","MAX-GNN19209","","","","","","","","","","","","","","","","","","","","","PAIR","","","","","","",""
"MAX","","GNN192-10","MAXISAFE SYNTHETIC COAT GLOVES","Black Knight Gripmaster Glove","PAIR","","12","1","2.6600","","","","","0","","","","","","","MAX-GNN19210","","","","","","","","","","","","","","","","","","","","","PAIR","","","","","","",""
"MAX","","GNN192-11","MAXISAFE SYNTHETIC COAT GLOVES","Black Knight Gripmaster Glove","PAIR","","12","1","2.6600","","","","","0","","","","","","","MAX-GNN19211","","","","","","","","","","","","","","","","","","","","","PAIR","","","","","","",""
"MAX","","GNN192-12","MAXISAFE SYNTHETIC COAT GLOVES","Black Knight Gripmaster Glove","PAIR","","12","1","2.6600","","","","","0","","","","","","","MAX-GNN19212","","","","","","","","","","","","","","","","","","","","","PAIR","","","","","","",""
"MAX","","GPD134/27","MAXISAFE CHEM RESISTANT GLOVES","Chemical Resistant Glove","PAIR","","12","1","1.8690","","","","","0","","","","","","","MAX-GPD13427","","","","","","","","","","","","","","","","","","","","","PAIR","","","","","","",""
"MAX","","GPD134/45","MAXISAFE CHEM RESISTANT GLOVES","Chemical Resistant Glove","PAIR","","12","1","2.8420","","","","","0","","","","","","","MAX-GPD13445","","","","","","","","","","","","","","","","","","","","","PAIR","","","","","","",""
"MAX","","GPH219","MAXISAFE HEAT RESISTANT GLOVES","Maxisafe Heat Resistant Glove","PAIR","","1","1","17.5000","","","","","0","","","","","","","MAX-GPH219","","","","","","","","","","","","","","","","","","","","","PAIR","","","","","","",""
"MAX","","GPR121","MAXISAFE CHEM RESISTANT GLOVES","Chemical Resistant Glove","PAIR","","12","1","1.3300","","","","","0","","","","","","","MAX-GPR121","","","","","","","","","","","","","","","","","","","","","PAIR","","","","","","",""
"MAX","","GPR122","MAXISAFE CHEM RESISTANT GLOVES","Chemical Resistant Glove","PAIR","","12","1","2.2750","","","","","0","","","","","","","MAX-GPR122","","","","","","","","","","","","","","","","","","","","","PAIR","","","","","","",""
"MAX","","GPR123","MAXISAFE PVC GLOVE","Red, Knitted Wrist","PAIR","","12","1","1.3020","","","","","0","","","","","","","MAX-GPR123","","","","","","","","","","","","","","","","","","","","","PAIR","","","","","","",""
"MAX","","GRB140","MAXISAFE LEATHER COTTON GLOVES","Maxisafe Rigger Glove","PAIR","","12","1","4.0800","","","","","0","","","","","","","MAX-GRB140","","","","","","","","","","","","","","","","","","","","","PAIR","","","","","","",""
"MAX","","GRB140-08","MAXISAFE LEATHER COTTON GLOVES","Maxisafe Rigger Glove","PAIR","","12","1","4.0880","","","","","0","","","","","","","MAX-GRB14008","","","","","","","","","","","","","","","","","","","","","PAIR","","","","","","",""
"MAX","","GRB140-09","MAXISAFE LEATHER COTTON GLOVES","Maxisafe Rigger Glove","PAIR","","12","1","4.0880","","","","","0","","","","","","","MAX-GRB14009","","","","","","","","","","","","","","","","","","","","","PAIR","","","","","","",""
"MAX","","GRB140-10","MAXISAFE LEATHER COTTON GLOVES","Maxisafe Rigger Glove","PAIR","","12","1","4.0880","","","","","0","","","","","","","MAX-GRB14010","","","","","","","","","","","","","","","","","","","","","PAIR","","","","","","",""
"MAX","","GRB140-11","MAXISAFE LEATHER COTTON GLOVES","Maxisafe Rigger Glove","PAIR","","12","1","4.2000","","","","","0","","","","","","","MAX-GRB14011","","","","","","","","","","","","","","","","","","","","","PAIR","","","","","","",""
"MAX","","GRB140-12","MAXISAFE LEATHER COTTON GLOVES","Maxisafe Rigger Glove","PAIR","","12","1","4.2000","","","","","0","","","","","","","MAX-GRB14012","","","","","","","","","","","","","","","","","","","","","PAIR","","","","","","",""
"MAX","","GRL144","MAXISAFE LEATHER COTTON GLOVES","Antarctic Extreme Glove","PAIR","","12","1","9.1000","","","","","0","","","","","","","MAX-GRL144","","","","","","","","","","","","","","","","","","","","","PAIR","","","","","","",""
"MAX","","GRL144-08","MAXISAFE LEATHER COTTON GLOVES","Antarctic Extreme Glove","PAIR","","12","1","9.1000","","","","","0","","","","","","","MAX-GRL14408","","","","","","","","","","","","","","","","","","","","","PAIR","","","","","","",""
"MAX","","GRL144-09","MAXISAFE LEATHER COTTON GLOVES","Antarctic Extreme Glove","PAIR","","12","1","9.1000","","","","","0","","","","","","","MAX-GRL14409","","","","","","","","","","","","","","","","","","","","","PAIR","","","","","","",""
"MAX","","GRL144-10","MAXISAFE LEATHER COTTON GLOVES","Antarctic Extreme Glove","PAIR","","12","1","9.1000","","","","","0","","","","","","","MAX-GRL14410","","","","","","","","","","","","","","","","","","","","","PAIR","","","","","","",""
"MAX","","GRL144-11","MAXISAFE LEATHER COTTON GLOVES","Antarctic Extreme Glove","PAIR","","12","1","9.1000","","","","","0","","","","","","","MAX-GRL14411","","","","","","","","","","","","","","","","","","","","","PAIR","","","","","","",""
"MAX","","GRS235","MAXISAFE MECHANICS GLOVES","G-Force Rigger Synthetic Glove","PAIR","","1","1","6.3000","","","","","0","","","","","","","MAX-GRS235","","","","","","","","","","","","","","","","","","","","","PAIR","","","","","","",""
"MAX","","GRS235-08","MAXISAFE MECHANICS GLOVES","G-Force Rigger Synthetic Glove","PAIR","","6","1","6.3000","","","","","0","","","","","","","MAX-GRS23508","","","","","","","","","","","","","","","","","","","","","PAIR","","","","","","",""
"MAX","","GRS235-09","MAXISAFE MECHANICS GLOVES","G-Force Rigger Synthetic Glove","PAIR","","6","1","6.3000","","","","","0","","","","","","","MAX-GRS23509","","","","","","","","","","","","","","","","","","","","","PAIR","","","","","","",""
"MAX","","GRS235-10","MAXISAFE MECHANICS GLOVES","G-Force Rigger Synthetic Glove","PAIR","","6","1","6.3000","","","","","0","","","","","","","MAX-GRS23510","","","","","","","","","","","","","","","","","","","","","PAIR","","","","","","",""
"MAX","","GRS235-11","MAXISAFE MECHANICS GLOVES","G-Force Rigger Synthetic Glove","PAIR","","6","1","6.3000","","","","","0","","","","","","","MAX-GRS23511","","","","","","","","","","","","","","","","","","","","","PAIR","","","","","","",""
"MAX","","GTH266","MAXISAFE HEAT RESISTANT GLOVES","G-Force HeatGuard Glove","PAIR","","12","1","8.3300","","","","","0","","","","","","","MAX-GTH266","","","","","","","","","","","","","","","","","","","","","PAIR","","","","","","",""
"MAX","","GTH266-08","MAXISAFE HEAT RESISTANT GLOVES","G-Force HeatGuard Glove","PAIR","","12","1","8.3300","","","","","0","","","","","","","MAX-GTH26608","","","","","","","","","","","","","","","","","","","","","PAIR","","","","","","",""
"MAX","","GTH266-09","MAXISAFE HEAT RESISTANT GLOVES","G-Force HeatGuard Glove","PAIR","","12","1","8.3300","","","","","0","","","","","","","MAX-GTH26609","","","","","","","","","","","","","","","","","","","","","PAIR","","","","","","",""
"MAX","","GTH266-10","MAXISAFE HEAT RESISTANT GLOVES","G-Force HeatGuard Glove","PAIR","","12","1","8.3300","","","","","0","","","","","","","MAX-GTH26610","","","","","","","","","","","","","","","","","","","","","PAIR","","","","","","",""
"MAX","","GYL108","MAXISAFE SYNTHETIC COAT GLOVES","Premium Glass Grippa Glove","PAIR","","12","1","2.4150","","","","","0","","","","","","","MAX-GYL108","","","","","","","","","","","","","","","","","","","","","PAIR","","","","","","",""
"MAX","","HBC564","MAXISAFE HARD HAT ACCESSORIES","Bump Cap","EACH","","1","1","13.2300","","","","","0","","","","","","","MAX-HBC564","","","","","","","","","","","","","","","","","","","","","EACH","","","","","","",""
"MAX","","HBE635","MAXISAFE MAXI MUFF EARMUFFS","Class 5 28dB","EACH","","1","1","8.8900","","","","","0","","","","","","","MAX-HBE635","","","","","","","","","","","","","","","","","","","","","EACH","","","","","","",""
"MAX","","HBS558-O","MAXISAFE HARD HAT ACCESSORIES","Hard Hat Brim With Neck Flap","EACH","","1","1","7.2300","","","","","0","","","","","","","MAX-HBS558","","","","","","","","","","","","","","","","","","","","","EACH","","","","","","",""
"MAX","","HCS561","MAXISAFE HARD HAT ACCESSORIES","Hard Hat Chin Strap","EACH","","1","1","1.7080","","","","","0","","","","","","","MAX-HCS561","","","","","","","","","","","","","","","","","","","","","EACH","","","","","","",""
"MAX","","HEC644","MAXISAFE DISPOSABLE EARPLUGS","Corded Class 5 27dB","PACK","","1","1","26.2500","","","","","0","","","","","","","MAX-HEC644","","","","","","","","","","","","","","","","","","","","","PACK","","","","","","",""
"MAX","","HEU669","MAXISAFE DISPOSABLE EARPLUGS","Uncorded Class 5 27dB","PACK","","1","1","2.9400","","","","","0","","","","","","","MAX-HEC669","","","","","","","","","","","","","","","","","","","","","PACK","","","","","","",""
"MAX","","HEC670","MAXISAFE DISPOSABLE EARPLUGS","Corded Class 5 27dB","PACK","","1","1","2.9400","","","","","0","","","","","","","MAX-HEC670","","","","","","","","","","","","","","","","","","","","","PACK","","","","","","",""
"MAX","","HEU645","MAXISAFE DISPOSABLE EARPLUGS","Uncorded Class 5 27dB","PACK","","1","1","26.2500","","","","","0","","","","","","","MAX-HEU645","","","","","","","","","","","","","","","","","","","","","PACK","","","","","","",""
"MAX","","HEU649","MAXISAFE DISPOSABLE EARPLUGS","Uncorded Class 5 27dB","PACK","","1","1","31.5000","","","","","0","","","","","","","MAX-HEU649","","","","","","","","","","","","","","","","","","","","","PACK","","","","","","",""
"MAX","","HFK425","MAXISAFE HARD HAT ACCESSORIES","Helmet W/ Clear Visor & Muff","EACH","","1","1","53.9000","","","","","0","","","","","","","MAX-HFK425","","","","","","","","","","","","","","","","","","","","","EACH","","","","","","",""
"MAX","","HFK429","MAXISAFE HARD HAT ACCESSORIES","Rockman Forestry Kit","EACH","","1","1","55.3000","","","","","0","","","","","","","MAX-HFK429","","","","","","","","","","","","","","","","","","","","","EACH","","","","","","",""
"MAX","","HFK563","MAXISAFE HARD HAT ACCESSORIES","Maxisafe Forestry Kit","EACH","","1","1","41.3000","","","","","0","","","","","","","MAX-HFK563","","","","","","","","","","","","","","","","","","","","","EACH","","","","","","",""
"MAX","","HVS590-B","MAXISAFE VENTED HARD HAT","Sliplock Harness Blue","EACH","","1","1","7.7000","","","","","0","","","","","","","MAX-HHV550SB","","","","","","","","","","","","","","","","","","","","","EACH","","","","","","",""
"MAX","","HHV550-SFO","MAXISAFE VENTED HARD HAT","Sliplock Harness Fluoro Orange","EACH","","1","1","8.3700","","","","","0","","","","","","","MAX-HHV550SFO","","","","","","","","","","","","","","","","","","","","","EACH","","","","","","",""
"MAX","","HVS590-FY","MAXISAFE VENTED HARD HAT","Sliplock Harness Fluoro Yellow","EACH","","1","1","7.7000","","","","","0","","","","","","","MAX-HHV550SFY","","","","","","","","","","","","","","","","","","","","","EACH","","","","","","",""
"MAX","","HVS590-G","MAXISAFE VENTED HARD HAT","Sliplock Harness Green","EACH","","1","1","7.7000","","","","","0","","","","","","","MAX-HHV550SG","","","","","","","","","","","","","","","","","","","","","EACH","","","","","","",""
"MAX","","HVS590-O","MAXISAFE VENTED HARD HAT","Sliplock Harness Orange","EACH","","1","1","7.7000","","","","","0","","","","","","","MAX-HHV550SO","","","","","","","","","","","","","","","","","","","","","EACH","","","","","","",""
"MAX","","HVS590-P","MAXISAFE VENTED HARD HAT","Sliplock Harness Pink","EACH","","1","1","7.7000","","","","","0","","","","","","","MAX-HHV550SPK","","","","","","","","","","","","","","","","","","","","","EACH","","","","","","",""
"MAX","","HVS590-R","MAXISAFE VENTED HARD HAT","Sliplock Harness Red","EACH","","1","1","7.7000","","","","","0","","","","","","","MAX-HHV550SR","","","","","","","","","","","","","","","","","","","","","EACH","","","","","","",""
"MAX","","HVS590-W","MAXISAFE VENTED HARD HAT","Sliplock Harness White","EACH","","1","1","7.7000","","","","","0","","","","","","","MAX-HHV550SW","","","","","","","","","","","","","","","","","","","","","EACH","","","","","","",""
"MAX","","HVS590-Y","MAXISAFE VENTED HARD HAT","Sliplock Harness Yellow","EACH","","1","1","7.7000","","","","","0","","","","","","","MAX-HHV550SY","","","","","","","","","","","","","","","","","","","","","EACH","","","","","","",""
"MAX","","HHV551","MAXISAFE HARD HAT ACCESSORIES","Replacement Hard Hat Harness","EACH","","1","1","7.0800","","","","","0","","","","","","","MAX-HHV551","","","","","","","","","","","","","","","","","","","","","EACH","","","","","","",""
"MAX","","HQB634","MAXISAFE REUSABLE EARPLUG BAND","Class 2 21dB QB2 Supa-Aural","EACH","","10","1","9.3310","","","","","0","","","","","","","MAX-HQB634","","","","","","","","","","","","","","","","","","","","","EACH","","","","","","",""
"MAX","","HRE646","MAXISAFE HARD HAT ACCESSORIES","Rockman Helmet Muff","EACH","","1","1","23.0440","","","","","0","","","","","","","MAX-HRE646","","","","","","","","","","","","","","","","","","","","","EACH","","","","","","",""
"MAX","","HRE658","MAXISAFE EARMUFF HYGIENE KIT","Suits All Maxisafe Earmuffs","EACH","","1","1","10.9900","","","","","0","","","","","","","MAX-HRE658","","","","","","","","","","","","","","","","","","","","","EACH","","","","","","",""
"MAX","","HRE661","MAXISAFE RED 3004 EARMUFFS","Class 5 32dB","EACH","","1","1","26.8380","","","","","0","","","","","","","MAX-HRE661","","","","","","","","","","","","","","","","","","","","","EACH","","","","","","",""
"MAX","","HRE662","MAXISAFE BLUE 3003 EARMUFFS","Class 5 26dB","EACH","","1","1","22.7500","","","","","0","","","","","","","MAX-HRE662","","","","","","","","","","","","","","","","","","","","","EACH","","","","","","",""
"MAX","","HRS557","MAXISAFE HARD HAT ACCESSORIES","Replacement Sweat Band","PACK","","1","1","6.3000","","","","","0","","","","","","","MAX-HRS557","","","","","","","","","","","","","","","","","","","","","PACK","","","","","","",""
"MAX","","KPE680","MAXISAFE PREMIUM GEL KNEEPAD","Heavy Duty","PAIR","","1","1","20.3420","","","","","0","","","","","","","MAX-KPE680","","","","","","","","","","","","","","","","","","","","","PAIR","","","","","","",""
"MAX","","KPI684","MAXISAFE KNEE PADS","Heavy Duty","PAIR","","1","1","33.0400","","","","","0","","","","","","","MAX-KPI684","","","","","","","","","","","","","","","","","","","","","PAIR","","","","","","",""
"MAX","","KPS683","MAXISAFE COMFI KNEE PAD","Super Strong","PAIR","","1","1","33.6000","","","","","0","","","","","","","MAX-KPS683","","","","","","","","","","","","","","","","","","","","","PAIR","","","","","","",""
"MAX","","RCA-A1","MAXISAFE RESPIRATOR FILTERS","A1 Gas Filter EN14387:2000 A1","EACH","","1","1","6.4120","","","","","0","","","","","","","MAX-RCAA1","","","","","","","","","","","","","","","","","","","","","EACH","","","","","","",""
"MAX","","RCA-A2","MAXISAFE RESPIRATOR FILTERS","A2 Gas Filter EN14387:2000 A2","EACH","","1","1","7.5950","","","","","0","","","","","","","MAX-RCAA2","","","","","","","","","","","","","","","","","","","","","EACH","","","","","","",""
"MAX","","RCA-ABEK1","MAXISAFE RESPIRATOR FILTERS","ABEK Gas Filter","EACH","","1","1","9.6600","","","","","0","","","","","","","MAX-RCAABEK1","","","","","","","","","","","","","","","","","","","","","EACH","","","","","","",""
"MAX","","RCA-K1","MAXISAFE RESPIRATOR FILTERS","K1 Gas Filter EN14387:2000 K1","EACH","","1","1","9.3100","","","","","0","","","","","","","MAX-RCAK1","","","","","","","","","","","","","","","","","","","","","EACH","","","","","","",""
"MAX","","RCF01-CG","MAXISAFE RESPIRATOR MASK","Polycarbonate Visor Cover","PACK","","1","1","45.5000","","","","","0","","","","","","","MAX-RCF01CG","","","","","","","","","","","","","","","","","","","","","PACK","","","","","","",""
"MAX","","RCF01-L","MAXISAFE RESPIRATOR MASK","Large Full Face Mask","EACH","","1","1","213.5000","","","","","0","","","","","","","MAX-RCF01L","","","","","","","","","","","","","","","","","","","","","EACH","","","","","","",""
"MAX","","RCF01-M","MAXISAFE RESPIRATOR MASK","Medium Full Face Mask","EACH","","1","1","213.5000","","","","","0","","","","","","","MAX-RCF01M","","","","","","","","","","","","","","","","","","","","","EACH","","","","","","",""
"MAX","","RES500","MAXISAFE DISPOSABLE RESPIRATOR","Disposable Nuisance Dust Mask","PACK","","1","1","6.8250","","","","","0","","","","","","","MAX-RES500","","","","","","","","","","","","","","","","","","","","","PACK","","","","","","",""
"MAX","","RES501","MAXISAFE DISPOSABLE RESPIRATOR","Disposable P1 Respirator","PACK","","1","1","18.2000","","","","","0","","","","","","","MAX-RES501","","","","","","","","","","","","","","","","","","","","","PACK","","","","","","",""
"MAX","","RES502","MAXISAFE DISPOSABLE RESPIRATOR","Disposable P1 Respirator","PACK","","1","1","13.3000","","","","","0","","","","","","","MAX-RES502","","","","","","","","","","","","","","","","","","","","","PACK","","","","","","",""
"MAX","","RES503","MAXISAFE DISPOSABLE RESPIRATOR","Disposable P2 Respirator","PACK","","1","1","21.0000","","","","","0","","","","","","","MAX-RES503","","","","","","","","","","","","","","","","","","","","","PACK","","","","","","",""
"MAX","","RES504","MAXISAFE DISPOSABLE RESPIRATOR","Disposable P2 Respirator valve","PACK","","1","1","15.4000","","","","","0","","","","","","","MAX-RES504","","","","","","","","","","","","","","","","","","","","","PACK","","","","","","",""
"MAX","","RES505","MAXISAFE DISPOSABLE RESPIRATOR","P2 Carbon Filter Valve","PACK","","1","1","22.0500","","","","","0","","","","","","","MAX-RES505","","","","","","","","","","","","","","","","","","","","","PACK","","","","","","",""
"MAX","","RES507","MAXISAFE DISPOSABLE RESPIRATOR","P2 Fold Flat","PACK","","1","1","21.7000","","","","","0","","","","","","","MAX-RES507","","","","","","","","","","","","","","","","","","","","","PACK","","","","","","",""
"MAX","","RES508","MAXISAFE DISPOSABLE RESPIRATOR","P2 Fold Flat W/ Valve","PACK","","1","1","18.4800","","","","","0","","","","","","","MAX-RES508","","","","","","","","","","","","","","","","","","","","","PACK","","","","","","",""
"MAX","","RP2R","MAXISAFE RESPIRATOR FILTERS","RP2R Gas Filter","EACH","","1","1","6.0900","","","","","0","","","","","","","MAX-RP2R","","","","","","","","","","","","","","","","","","","","","EACH","","","","","","",""
"MAX","","RP2RC","MAXISAFE RESPIRATOR FILTERS","RP2RC Gas Filter","EACH","","1","1","6.0900","","","","","0","","","","","","","MAX-RP2RC","","","","","","","","","","","","","","","","","","","","","EACH","","","","","","",""
"MAX","","RP3R","MAXISAFE RESPIRATOR FILTERS","RP3R Gas Filter","EACH","","1","1","7.1680","","","","","0","","","","","","","MAX-RP3R","","","","","","","","","","","","","","","","","","","","","EACH","","","","","","",""
"MAX","","RP3RC","MAXISAFE RESPIRATOR FILTERS","RP3RC Gas Filter","EACH","","1","1","7.1680","","","","","0","","","","","","","MAX-RP3RC","","","","","","","","","","","","","","","","","","","","","EACH","","","","","","",""
"MAX","","RRS01CK-L","MAXISAFE HALF MASK RESPIRATOR","Chemical Kit Large","EACH","","1","1","71.4000","","","","","0","","","","","","","MAX-RRS01CKL","","","","","","","","","","","","","","","","","","","","","EACH","","","","","","",""
"MAX","","RRS01CK-M","MAXISAFE HALF MASK RESPIRATOR","Chemical Kit Medium","EACH","","1","1","71.4000","","","","","0","","","","","","","MAX-RRS01CKM","","","","","","","","","","","","","","","","","","","","","EACH","","","","","","",""
"MAX","","RRS01PK-L","MAXISAFE HALF MASK RESPIRATOR","Painter's Kit Large","EACH","","1","1","62.9300","","","","","0","","","","","","","MAX-RRS01PKL","","","","","","","","","","","","","","","","","","","","","EACH","","","","","","",""
"MAX","","RRS01PK-M","MAXISAFE HALF MASK RESPIRATOR","Painter's Kit Medium","EACH","","1","1","62.9300","","","","","0","","","","","","","MAX-RRS01PKM","","","","","","","","","","","","","","","","","","","","","EACH","","","","","","",""
"MAX","","RRS01WK-L","MAXISAFE HALF MASK RESPIRATOR","Welder's Kit Large","EACH","","1","1","53.9000","","","","","0","","","","","","","MAX-RRS01WKL","","","","","","","","","","","","","","","","","","","","","EACH","","","","","","",""
"MAX","","RRS01WK-M","MAXISAFE HALF MASK RESPIRATOR","Welder's Kit Medium","EACH","","1","1","53.9000","","","","","0","","","","","","","MAX-RRS01WKM","","","","","","","","","","","","","","","","","","","","","EACH","","","","","","",""
"MAX","","R7500P-L","MAXISAFE BANDIT HALF MASK","Large Mask","EACH","","1","1","25.2000","","","","","0","","","","","","","MAX-RSB520","","","","","","","","","","","","","","","","","","","","","EACH","","","","","","",""
"MAX","","BBF717","MAXISAFE PVC BUNTING FLAGLINE","30m Fluoro Green","EACH","","1","1","20.6500","","","","","0","","","","","","","MAX-BBF717","","","","","","","","","","","","","","","","","","","","","EACH","","","","","","",""
"MAX","","R7500P-M","MAXISAFE BANDIT HALF MASK","Medium Mask","EACH","","1","1","25.2000","","","","","0","","","","","","","MAX-RSB521","","","","","","","","","","","","","","","","","","","","","EACH","","","","","","",""
"MAX","","BBF722","MAXISAFE PVC BUNTING FLAGLINE","30m Fluoro Orange","EACH","","1","1","11.9000","","","","","0","","","","","","","MAX-BBF722","","","","","","","","","","","","","","","","","","","","","EACH","","","","","","",""
"MAX","","R7N11-P2","MAXISAFE BANDIT HALF MASK","Prefilters","PACK","","1","1","5.0400","","","","","0","","","","","","","MAX-RSB522","","","","","","","","","","","","","","","","","","","","","PACK","","","","","","",""
"MAX","","BPM720-6","MAXISAFE EXTRUDED BARRICADE","Mesh 6kg 1m x 50m","EACH","","1","1","38.5000","","","","","0","","","","","","","MAX-BPM720","","","","","","","","","","","","","","","","","","","","","EACH","","","","","","",""
"MAX","","SVF603-2XL","MAXISAFE HI-VIS SAFETY VEST","Day Night Yellow - 2X Large","EACH","","1","1","6.3000","","","","","0","","","","","","","MAX-SVF6032XL","","","","","","","","","","","","","","","","","","","","","EACH","","","","","","",""
"MAX","","BRD714","MAXISAFE BARRICADE TAPE","DANGER DO NOT ENTER","EACH","","1","1","5.9500","","","","","0","","","","","","","MAX-BRD714","","","","","","","","","","","","","","","","","","","","","EACH","","","","","","",""
"MAX","","SVF603-3XL","MAXISAFE HI-VIS SAFETY VEST","Day Night Yellow - 3X Large","EACH","","1","1","6.3000","","","","","0","","","","","","","MAX-SVF6033XL","","","","","","","","","","","","","","","","","","","","","EACH","","","","","","",""
"MAX","","BRY712","MAXISAFE BARRICADE TAPE","Yellow & Black 75mm x 100m","EACH","","1","1","5.9500","","","","","0","","","","","","","MAX-BRY712","","","","","","","","","","","","","","","","","","","","","EACH","","","","","","",""
"MAX","","SVF603-L","MAXISAFE HI-VIS SAFETY VEST","Day Night Yellow - Large","EACH","","1","1","6.3000","","","","","0","","","","","","","MAX-SVF603L","","","","","","","","","","","","","","","","","","","","","EACH","","","","","","",""
"MAX","","BSC759/40","MAXISAFE SAFETY CHAIN","Heavy Duty 6mm x 40m","EACH","","1","1","51.8000","","","","","0","","","","","","","MAX-BSC75940","","","","","","","","","","","","","","","","","","","","","EACH","","","","","","",""
"MAX","","SVF603-M","MAXISAFE HI-VIS SAFETY VEST","Day Night Yellow - Medium","EACH","","1","1","6.3000","","","","","0","","","","","","","MAX-SVF603M","","","","","","","","","","","","","","","","","","","","","EACH","","","","","","",""
"MAX","","BTB708","MAXISAFE BARRICADE TAPE","Blue & White 75mm x 100m","EACH","","1","1","5.9500","","","","","0","","","","","","","MAX-BTB708","","","","","","","","","","","","","","","","","","","","","EACH","","","","","","",""
"MAX","","SVF603-XL","MAXISAFE HI-VIS SAFETY VEST","Day Night Yellow - X Large","EACH","","1","1","6.3000","","","","","0","","","","","","","MAX-SVF603XL","","","","","","","","","","","","","","","","","","","","","EACH","","","","","","",""
"MAX","","BTB758-6","MAXISAFE T-TOP BOLLARDS","6kg With Base","EACH","","1","1","27.3000","","","","","0","","","","","","","MAX-BTB7586","","","","","","","","","","","","","","","","","","","","","EACH","","","","","","",""
"MAX","","SVF604-2XL","MAXISAFE HI-VIS SAFETY VEST","Day Night Orange - 2X Large","EACH","","1","1","6.3000","","","","","0","","","","","","","MAX-SVF6042XL","","","","","","","","","","","","","","","","","","","","","EACH","","","","","","",""
"MAX","","BTB758-8","MAXISAFE T-TOP BOLLARDS","8kg With Base","EACH","","1","1","29.4000","","","","","0","","","","","","","MAX-BTB7588","","","","","","","","","","","","","","","","","","","","","EACH","","","","","","",""
"MAX","","SVF604-3XL","MAXISAFE HI-VIS SAFETY VEST","Day Night Orange - 3X Large","EACH","","1","1","6.3000","","","","","0","","","","","","","MAX-SVF6043XL","","","","","","","","","","","","","","","","","","","","","EACH","","","","","","",""
"MAX","","BTC710","MAXISAFE BARRICADE TAPE","CAUTION Black On Yellow","EACH","","1","1","5.9500","","","","","0","","","","","","","MAX-BTC710","","","","","","","","","","","","","","","","","","","","","EACH","","","","","","",""
"MAX","","SVF604-L","MAXISAFE HI-VIS SAFETY VEST","Day Night Orange - Large","EACH","","1","1","6.3000","","","","","0","","","","","","","MAX-SVF604L","","","","","","","","","","","","","","","","","","","","","EACH","","","","","","",""
"MAX","","BTC760","MAXISAFE TRAFFIC CONES","450mm","EACH","","1","1","8.2880","","","","","0","","","","","","","MAX-BTC760","","","","","","","","","","","","","","","","","","","","","EACH","","","","","","",""
"MAX","","SVF604-M","MAXISAFE HI-VIS SAFETY VEST","Day Night Orange - Medium","EACH","","1","1","6.3000","","","","","0","","","","","","","MAX-SVF604M","","","","","","","","","","","","","","","","","","","","","EACH","","","","","","",""
"MAX","","BTC760R","MAXISAFE TRAFFIC CONES","450mm Reflective","EACH","","1","1","10.3250","","","","","0","","","","","","","MAX-BTC760R","","","","","","","","","","","","","","","","","","","","","EACH","","","","","","",""
"MAX","","SVF604-XL","MAXISAFE HI-VIS SAFETY VEST","Day Night Orange - X Large","EACH","","1","1","6.3000","","","","","0","","","","","","","MAX-SVF604XL","","","","","","","","","","","","","","","","","","","","","EACH","","","","","","",""
"MAX","","BTC761","MAXISAFE TRAFFIC CONES","700mm","EACH","","1","1","16.5620","","","","","0","","","","","","","MAX-BTC761","","","","","","","","","","","","","","","","","","","","","EACH","","","","","","",""
"MAX","","SVV601-2XL","MAXISAFE HI-VIS SAFETY VEST","Day Use Yellow - 2X Large","EACH","","1","1","3.1500","","","","","0","","","","","","","MAX-SVV6012XL","","","","","","","","","","","","","","","","","","","","","EACH","","","","","","",""
"MAX","","BTC761R","MAXISAFE TRAFFIC CONES","700mm Reflective","EACH","","1","1","26.6000","","","","","0","","","","","","","MAX-BTC761R","","","","","","","","","","","","","","","","","","","","","EACH","","","","","","",""
"MAX","","SVV601-3XL","MAXISAFE HI-VIS SAFETY VEST","Day Use Yellow - 3X Large","EACH","","1","1","3.1500","","","","","0","","","","","","","MAX-SVV6013XL","","","","","","","","","","","","","","","","","","","","","EACH","","","","","","",""
"MAX","","BTD711","MAXISAFE BARRICADE TAPE","DANGER Black On Red/White","EACH","","1","1","5.9500","","","","","0","","","","","","","MAX-BTD711","","","","","","","","","","","","","","","","","","","","","EACH","","","","","","",""
"MAX","","SVV601-L","MAXISAFE HI-VIS SAFETY VEST","Day Use Class D Yellow - Large","EACH","","1","1","3.1500","","","","","0","","","","","","","MAX-SVV601L","","","","","","","","","","","","","","","","","","","","","EACH","","","","","","",""
"MAX","","BTG709","MAXISAFE BARRICADE TAPE","Green & White 75mm x 100m","EACH","","1","1","5.9500","","","","","0","","","","","","","MAX-BTG709","","","","","","","","","","","","","","","","","","","","","EACH","","","","","","",""
"MAX","","SVV601-M","MAXISAFE HI-VIS SAFETY VEST","Day Use Yellow - Medium","EACH","","1","1","3.1500","","","","","0","","","","","","","MAX-SVV601M","","","","","","","","","","","","","","","","","","","","","EACH","","","","","","",""
"MAX","","BTR713","MAXISAFE BARRICADE TAPE","Red & White 75mm x 100m","EACH","","1","1","5.9500","","","","","0","","","","","","","MAX-BTR713","","","","","","","","","","","","","","","","","","","","","EACH","","","","","","",""
"MAX","","SVV601-XL","MAXISAFE HI-VIS SAFETY VEST","Day Use Yellow - X Large","EACH","","1","1","3.1500","","","","","0","","","","","","","MAX-SVV601XL","","","","","","","","","","","","","","","","","","","","","EACH","","","","","","",""
"MAX","","COT619-2XL","MAXISAFE DISPOSABLE COVERALLS","Koolguard Laminated White","EACH","","1","1","5.2500","","","","","0","","","","","","","MAX-COT6192XL","","","","","","","","","","","","","","","","","","","","","EACH","","","","","","",""
"MAX","","SVV602-2XL","MAXISAFE HI-VIS SAFETY VEST","Day Use Orange - 2X Large","EACH","","1","1","3.1500","","","","","0","","","","","","","MAX-SVV6022XL","","","","","","","","","","","","","","","","","","","","","EACH","","","","","","",""
"MAX","","COT619-3XL","MAXISAFE DISPOSABLE COVERALLS","Koolguard Laminated White","EACH","","1","1","5.2500","","","","","0","","","","","","","MAX-COT6193XL","","","","","","","","","","","","","","","","","","","","","EACH","","","","","","",""
"MAX","","SVV602-3XL","MAXISAFE HI-VIS SAFETY VEST","Day Use Orange - 3X Large","EACH","","1","1","3.1500","","","","","0","","","","","","","MAX-SVV6023XL","","","","","","","","","","","","","","","","","","","","","EACH","","","","","","",""
"MAX","","COT619-L","MAXISAFE DISPOSABLE COVERALLS","Koolguard Laminated White","EACH","","1","1","5.2500","","","","","0","","","","","","","MAX-COT619L","","","","","","","","","","","","","","","","","","","","","EACH","","","","","","",""
"MAX","","SVV602-L","MAXISAFE HI-VIS SAFETY VEST","Day Use Class D Orange - Large","EACH","","1","1","3.1500","","","","","0","","","","","","","MAX-SVV602L","","","","","","","","","","","","","","","","","","","","","EACH","","","","","","",""
"MAX","","COT619-M","MAXISAFE DISPOSABLE COVERALLS","Koolguard Laminated White","EACH","","1","1","5.2500","","","","","0","","","","","","","MAX-COT619M","","","","","","","","","","","","","","","","","","","","","EACH","","","","","","",""
"MAX","","SVV602-M","MAXISAFE HI-VIS SAFETY VEST","Day Use Orange - Medium","EACH","","1","1","3.1500","","","","","0","","","","","","","MAX-SVV602M","","","","","","","","","","","","","","","","","","","","","EACH","","","","","","",""
"MAX","","COT619-XL","MAXISAFE DISPOSABLE COVERALLS","Koolguard Laminated White","EACH","","1","1","5.2500","","","","","0","","","","","","","MAX-COT619XL","","","","","","","","","","","","","","","","","","","","","EACH","","","","","","",""
"MAX","","SVV602-XL","MAXISAFE HI-VIS SAFETY VEST","Day Use Orange - X Large","EACH","","1","1","3.1500","","","","","0","","","","","","","MAX-SVV602XL","","","","","","","","","","","","","","","","","","","","","EACH","","","","","","",""
"MAX","","COC620-2XL","MAXISAFE DISPOSABLE COVERALLS","Chemiguard SMS Blue - 2X Large","EACH","","1","1","3.5000","","","","","0","","","","","","","MAX-COC6202XL","","","","","","","","","","","","","","","","","","","","","EACH","","","","","","",""
"MAX","","ZBH901","MAXISAFE ROOFERS HARNESS","Full Body Harness","EACH","","1","1","76.6500","","","","","0","","","","","","","MAX-ZBH901","","","","","","","","","","","","","","","","","","","","","EACH","","","","","","",""
"MAX","","COC620-3XL","MAXISAFE DISPOSABLE COVERALLS","Chemiguard SMS Blue - 3X Large","EACH","","1","1","3.5000","","","","","0","","","","","","","MAX-COC6203XL","","","","","","","","","","","","","","","","","","","","","EACH","","","","","","",""
"MAX","","ZBH902","MAXISAFE HARNESS & LANYARD SET","Full Body Harness, Lanyard Set","EACH","","1","1","141.1200","","","","","0","","","","","","","MAX-ZBH902","","","","","","","","","","","","","","","","","","","","","EACH","","","","","","",""
"MAX","","COC620-L","MAXISAFE DISPOSABLE COVERALLS","Chemiguard SMS Blue - Large","EACH","","1","1","3.5000","","","","","0","","","","","","","MAX-COC620L","","","","","","","","","","","","","","","","","","","","","EACH","","","","","","",""
"MAX","","ZRK903","MAXISAFE FULLBODY ROOFERS KIT","Full Body Harness Kit","EACH","","1","1","226.3450","","","","","0","","","","","","","MAX-ZRK903","","","","","","","","","","","","","","","","","","","","","EACH","","","","","","",""
"MAX","","COC620-M","MAXISAFE DISPOSABLE COVERALLS","Chemiguard SMS Blue - Medium","EACH","","1","1","3.5000","","","","","0","","","","","","","MAX-COC620M","","","","","","","","","","","","","","","","","","","","","EACH","","","","","","",""
"MAX","","COC620-XL","MAXISAFE DISPOSABLE COVERALLS","Chemiguard SMS Blue - X Large","EACH","","1","1","3.5000","","","","","0","","","","","","","MAX-COC620XL","","","","","","","","","","","","","","","","","","","","","EACH","","","","","","",""
"MAX","","COC621-2XL","MAXISAFE DISPOSABLE COVERALLS","Chemiguard SMS White","EACH","","1","1","3.5000","","","","","0","","","","","","","MAX-COC6212XL","","","","","","","","","","","","","","","","","","","","","EACH","","","","","","",""
"MAX","","COC621-3XL","MAXISAFE DISPOSABLE COVERALLS","Chemiguard SMS White","EACH","","1","1","3.5000","","","","","0","","","","","","","MAX-COC6213XL","","","","","","","","","","","","","","","","","","","","","EACH","","","","","","",""
"MAX","","COC621-L","MAXISAFE DISPOSABLE COVERALLS","Chemiguard SMS White - Large","EACH","","1","1","3.5000","","","","","0","","","","","","","MAX-COC621L","","","","","","","","","","","","","","","","","","","","","EACH","","","","","","",""
"MAX","","COC621-M","MAXISAFE DISPOSABLE COVERALLS","Chemiguard SMS White - Medium","EACH","","1","1","3.5000","","","","","0","","","","","","","MAX-COC621M","","","","","","","","","","","","","","","","","","","","","EACH","","","","","","",""
"MAX","","COC621-XL","MAXISAFE DISPOSABLE COVERALLS","Chemiguard SMS White - X Large","EACH","","1","1","3.5000","","","","","0","","","","","","","MAX-COC621XL","","","","","","","","","","","","","","","","","","","","","EACH","","","","","","",""
"MAX","","CPA629","MAXISAFE PVC APRON","Blue - 1000x1370mm","EACH","","1","1","16.5200","","","","","0","","","","","","","MAX-CPA629","","","","","","","","","","","","","","","","","","","","","EACH","","","","","","",""
"MAX","","CPA630","MAXISAFE PVC APRON","White - 980x1200mm","EACH","","1","1","16.5200","","","","","0","","","","","","","MAX-CPA630","","","","","","","","","","","","","","","","","","","","","EACH","","","","","","",""
"MAX","","CPB615-2XL","MAXISAFE DISPOSABLE COVERALLS","Polypropylene Washable Blue","EACH","","1","1","2.2120","","","","","0","","","","","","","MAX-CPB6152XL","","","","","","","","","","","","","","","","","","","","","EACH","","","","","","",""
"MAX","","CPB615-3XL","MAXISAFE DISPOSABLE COVERALLS","Polypropylene Washable Blue","EACH","","1","1","2.2120","","","","","0","","","","","","","MAX-CPB6153XL","","","","","","","","","","","","","","","","","","","","","EACH","","","","","","",""
"MAX","","CPB615-L","MAXISAFE DISPOSABLE COVERALLS","Polypropylene Washable Blue","EACH","","1","1","2.2120","","","","","0","","","","","","","MAX-CPB615L","","","","","","","","","","","","","","","","","","","","","EACH","","","","","","",""
"MAX","","CPB615-M","MAXISAFE DISPOSABLE COVERALLS","Polypropylene Washable Blue","EACH","","1","1","2.2120","","","","","0","","","","","","","MAX-CPB615M","","","","","","","","","","","","","","","","","","","","","EACH","","","","","","",""
"MAX","","CPB615-XL","MAXISAFE DISPOSABLE COVERALLS","Polypropylene Washable Blue","EACH","","1","1","2.2120","","","","","0","","","","","","","MAX-CPB615XL","","","","","","","","","","","","","","","","","","","","","EACH","","","","","","",""
"MAX","","CPW615-2XL","MAXISAFE DISPOSABLE COVERALLS","Polypropylene Washable White","EACH","","1","1","2.2120","","","","","0","","","","","","","MAX-CPW6152XL","","","","","","","","","","","","","","","","","","","","","EACH","","","","","","",""
"MAX","","CPW615-3XL","MAXISAFE DISPOSABLE COVERALLS","Polypropylene Washable White","EACH","","1","1","2.2120","","","","","0","","","","","","","MAX-CPW6153XL","","","","","","","","","","","","","","","","","","","","","EACH","","","","","","",""
"MAX","","CPW615-L","MAXISAFE DISPOSABLE COVERALLS","Polypropylene Washable White","EACH","","1","1","2.2120","","","","","0","","","","","","","MAX-CPW615L","","","","","","","","","","","","","","","","","","","","","EACH","","","","","","",""
"MAX","","CPW615-M","MAXISAFE DISPOSABLE COVERALLS","Polypropylene Washable White","EACH","","1","1","2.2120","","","","","0","","","","","","","MAX-CPW615M","","","","","","","","","","","","","","","","","","","","","EACH","","","","","","",""
"MAX","","CPW615-S","MAXISAFE DISPOSABLE COVERALLS","Polypropylene Washable White","EACH","","1","1","2.2120","","","","","0","","","","","","","MAX-CPW615S","","","","","","","","","","","","","","","","","","","","","EACH","","","","","","",""
"MAX","","CPW615-XL","MAXISAFE DISPOSABLE COVERALLS","Polypropylene Washable White","EACH","","1","1","2.2120","","","","","0","","","","","","","MAX-CPW615XL","","","","","","","","","","","","","","","","","","","","","EACH","","","","","","",""
"MAX","","EBR330","MAXISAFE TEXAS SAFETY GLASSES","Clear","EACH","","12","1","2.8560","","","","","0","","","","","","","MAX-EBR330","","","","","","","","","","","","","","","","","","","","","EACH","","","","","","",""
"MAX","","EBR330E","MAXISAFE TEXAS SAFETY GLASSES","Clear","PACK","","12","1","1.7500","","","","","0","","","","","","","MAX-EBR330E","","","","","","","","","","","","","","","","","","","","","PACK","","","","","","",""
"MAX","","EBR331","MAXISAFE TEXAS SAFETY GLASSES","Smoke","EACH","","12","1","2.8560","","","","","0","","","","","","","MAX-EBR331","","","","","","","","","","","","","","","","","","","","","EACH","","","","","","",""
"MAX","","EBR331E","MAXISAFE TEXAS SAFETY GLASSES","Smoke","PACK","","12","1","1.7500","","","","","0","","","","","","","MAX-EBR331E","","","","","","","","","","","","","","","","","","","","","PACK","","","","","","",""
"MAX","","EBR332","MAXISAFE TEXAS SAFETY GLASSES","Amber","EACH","","12","1","2.8560","","","","","0","","","","","","","MAX-EBR332","","","","","","","","","","","","","","","","","","","","","EACH","","","","","","",""
"MAX","","EBR333","MAXISAFE TEXAS SAFETY GLASSES","Blue Mirror","EACH","","12","1","4.3400","","","","","0","","","","","","","MAX-EBR333","","","","","","","","","","","","","","","","","","","","","EACH","","","","","","",""
"MAX","","EBR334","MAXISAFE SANTA SAFETY GLASSES","FE Bronze Mirror","EACH","","12","1","4.8300","","","","","0","","","","","","","MAX-EBR334","","","","","","","","","","","","","","","","","","","","","EACH","","","","","","",""
"MAX","","EBR335","MAXISAFE SANTA SAFETY GLASSES","FE Clear","EACH","","12","1","4.6900","","","","","0","","","","","","","MAX-EBR335","","","","","","","","","","","","","","","","","","","","","EACH","","","","","","",""
"MAX","","EBR336","MAXISAFE SANTA SAFETY GLASSES","FE Smoke","EACH","","12","1","4.6900","","","","","0","","","","","","","MAX-EBR336","","","","","","","","","","","","","","","","","","","","","EACH","","","","","","",""
"MAX","","EDE307","MAXISAFE DENVER SAFETY GLASSES","Smoke Lens with Black Frame","EACH","","12","1","7.7000","","","","","0","","","","","","","MAX-EDE307","","","","","","","","","","","","","","","","","","","","","EACH","","","","","","",""
"MAX","","EDE309","MAXISAFE DENVER SAFETY GLASSES","Smoke Lens with Blue Frame","EACH","","12","1","7.7000","","","","","0","","","","","","","MAX-EDE309","","","","","","","","","","","","","","","","","","","","","EACH","","","","","","",""
"MAX","","EDE310","MAXISAFE DENVER SAFETY GLASSES","Blue Mirror Lens Black Frame","EACH","","12","1","8.7500","","","","","0","","","","","","","MAX-EDE310","","","","","","","","","","","","","","","","","","","","","EACH","","","","","","",""
"MAX","","EDE311","MAXISAFE DENVER SAFETY GLASSES","Smoke Lens Pearl Silver Frame","EACH","","12","1","7.7000","","","","","0","","","","","","","MAX-EDE311","","","","","","","","","","","","","","","","","","","","","EACH","","","","","","",""
"MAX","","EDE314","MAXISAFE DENVER SAFETY GLASSES","Smoke Lens with Red Frame","EACH","","12","1","7.7000","","","","","0","","","","","","","MAX-EDE314","","","","","","","","","","","","","","","","","","","","","EACH","","","","","","",""
"MAX","","EDE316","MAXISAFE DENVER SAFETY GLASSES","Smoke Lens Pearl White Frame","EACH","","12","1","7.7000","","","","","0","","","","","","","MAX-EDE316","","","","","","","","","","","","","","","","","","","","","EACH","","","","","","",""
"MAX","","EKA303","MAXISAFE KANSAS SAFETY GLASSES","Amber","EACH","","12","1","3.8920","","","","","0","","","","","","","MAX-EKA303","","","","","","","","","","","","","","","","","","","","","EACH","","","","","","",""
"MAX","","EKA304","MAXISAFE KANSAS SAFETY GLASSES","Clear","EACH","","12","1","3.8920","","","","","0","","","","","","","MAX-EKA304","","","","","","","","","","","","","","","","","","","","","EACH","","","","","","",""
"MAX","","EKA305","MAXISAFE KANSAS SAFETY GLASSES","Smoke","EACH","","12","1","3.8920","","","","","0","","","","","","","MAX-EKA305","","","","","","","","","","","","","","","","","","","","","EACH","","","","","","",""
"MAX","","HVS590-B","MAXISAFE VENTED HARD HAT","Sliplock Harness Blue","EACH","","1","1","7.7000","","","","","","","","","","","","MAX-HHV550SB","","","","","","","","","","","","","","","","","","","","","EACH","","","","","","",""
"MAX","","EKA306","MAXISAFE KANSAS SAFETY GLASSES","Blue Mirror","EACH","","12","1","4.7250","","","","","0","","","","","","","MAX-EKA306","","","","","","","","","","","","","","","","","","","","","EACH","","","","","","",""
"MAX","","ELI465","MAXISAFE INSPECTOR LED GLASSES","Clear","EACH","","1","1","19.8380","","","","","0","","","","","","","MAX-ELI465","","","","","","","","","","","","","","","","","","","","","EACH","","","","","","",""
"MAX","","HVS590-FY","MAXISAFE VENTED HARD HAT","Sliplock Harness Fluoro Yellow","EACH","","1","1","7.7000","","","","","","","","","","","","MAX-HHV550SFY","","","","","","","","","","","","","","","","","","","","","EACH","","","","","","",""
"MAX","","EMV451","MAXISAFE HARD HAT ACCESSORIES","Replacement Mesh Visor","EACH","","1","1","12.7400","","","","","0","","","","","","","MAX-EMV451","","","","","","","","","","","","","","","","","","","","","EACH","","","","","","",""
"MAX","","ERC430","MAXISAFE HARD HAT ACCESSORIES","Replacement Clear Lens","EACH","","1","1","6.0200","","","","","0","","","","","","","MAX-ERC430","","","","","","","","","","","","","","","","","","","","","EACH","","","","","","",""
"MAX","","HVS590-G","MAXISAFE VENTED HARD HAT","Sliplock Harness Green","EACH","","1","1","7.7000","","","","","","","","","","","","MAX-HHV550SG","","","","","","","","","","","","","","","","","","","","","EACH","","","","","","",""
"MAX","","ERS499","MAXISAFE HARD HAT ACCESSORIES","Replacement Shade Lens #5","EACH","","1","1","10.5000","","","","","0","","","","","","","MAX-ERS499","","","","","","","","","","","","","","","","","","","","","EACH","","","","","","",""
"MAX","","ESG426","MAXISAFE CHEMICAL GOGGLES","Clear","EACH","","1","1","18.2000","","","","","0","","","","","","","MAX-ESG426","","","","","","","","","","","","","","","","","","","","","EACH","","","","","","",""
"MAX","","HVS590-O","MAXISAFE VENTED HARD HAT","Sliplock Harness Orange","EACH","","1","1","7.7000","","","","","","","","","","","","MAX-HHV550SO","","","","","","","","","","","","","","","","","","","","","EACH","","","","","","",""
"MAX","","ESG431","MAXISAFE MAXI-GOGGLES","Smoke","EACH","","12","1","9.1000","","","","","0","","","","","","","MAX-ESG431","","","","","","","","","","","","","","","","","","","","","EACH","","","","","","",""
"MAX","","ESG455","MAXISAFE SAFETY GOGGLES","Clear","EACH","","12","1","3.5000","","","","","0","","","","","","","MAX-ESG455","","","","","","","","","","","","","","","","","","","","","EACH","","","","","","",""
"MAX","","HVS590-P","MAXISAFE VENTED HARD HAT","Sliplock Harness Pink","EACH","","1","1","7.7000","","","","","","","","","","","","MAX-HHV550SPK","","","","","","","","","","","","","","","","","","","","","EACH","","","","","","",""
"MAX","","ESG456","MAXISAFE MAXI-GOGGLES","Clear","EACH","","10","1","9.1000","","","","","0","","","","","","","MAX-ESG456","","","","","","","","","","","","","","","","","","","","","EACH","","","","","","",""
"MAX","","ESG467","MAXISAFE MAXI-GOGGLES","Replacement Smoke Lens","EACH","","1","1","6.0900","","","","","0","","","","","","","MAX-ESG467","","","","","","","","","","","","","","","","","","","","","EACH","","","","","","",""
"MAX","","HVS590-R","MAXISAFE VENTED HARD HAT","Sliplock Harness Red","EACH","","1","1","7.7000","","","","","","","","","","","","MAX-HHV550SR","","","","","","","","","","","","","","","","","","","","","EACH","","","","","","",""
"MAX","","ESG468","MAXISAFE MAXI-GOGGLES","Replacement Clear Lens","EACH","","1","1","6.0900","","","","","0","","","","","","","MAX-ESG468","","","","","","","","","","","","","","","","","","","","","EACH","","","","","","",""
"MAX","","ESG485","MAXISAFE MAXI-GOGGLES","Shade #5","EACH","","12","1","11.9000","","","","","0","","","","","","","MAX-ESG485","","","","","","","","","","","","","","","","","","","","","EACH","","","","","","",""
"MAX","","HVS590-W","MAXISAFE VENTED HARD HAT","Sliplock Harness White","EACH","","1","1","7.7000","","","","","","","","","","","","MAX-HHV550SW","","","","","","","","","","","","","","","","","","","","","EACH","","","","","","",""
"MAX","","EUV347","MAXISAFE 5X6 SAFETY GLASSES","Clear, Black/Orange frame","EACH","","10","1","10.4440","","","","","0","","","","","","","MAX-EUV347","","","","","","","","","","","","","","","","","","","","","EACH","","","","","","",""
"MAX","","EUV348","MAXISAFE 5X6 SAFETY GLASSES","Smoke, Gun Metal/Green Frame","EACH","","10","1","10.4440","","","","","0","","","","","","","MAX-EUV348","","","","","","","","","","","","","","","","","","","","","EACH","","","","","","",""
"MAX","","HVS590-Y","MAXISAFE VENTED HARD HAT","Sliplock Harness Yellow","EACH","","1","1","7.7000","","","","","","","","","","","","MAX-HHV550SY","","","","","","","","","","","","","","","","","","","","","EACH","","","","","","",""
"MAX","","EVH432","MAXISAFE HARD HAT ACCESSORIES","Visor Holder","EACH","","1","1","7.8400","","","","","0","","","","","","","MAX-EVH432","","","","","","","","","","","","","","","","","","","","","EACH","","","","","","",""
"MAX","","EVS300","MAXISAFE SAFETY GLASSES","Visispec Clear","EACH","","12","1","2.2750","","","","","0","","","","","","","MAX-EVS300","","","","","","","","","","","","","","","","","","","","","EACH","","","","","","",""
"MAX","","EVS301","MAXISAFE SAFETY GLASSES","Visispec Smoke","EACH","","12","1","2.2750","","","","","0","","","","","","","MAX-EVS301","","","","","","","","","","","","","","","","","","","","","EACH","","","","","","",""
"MAX","","GBL107","MAXISAFE SYNTHETIC COAT GLOVES","Blue Grippa Glove","PAIR","","12","1","2.0200","","","","","0","","","","","","","MAX-GBL107","","","","","","","","","","","","","","","","","","","","","PAIR","","","","","","",""
"MAX","","GBL107-07","MAXISAFE SYNTHETIC COAT GLOVES","Blue Grippa Glove Small","PAIR","","12","1","2.0230","","","","","0","","","","","","","MAX-GBL10707","","","","","","","","","","","","","","","","","","","","","PAIR","","","","","","",""
"MAX","","GBL107-08","MAXISAFE SYNTHETIC COAT GLOVES","Blue Grippa Glove - Medium","PAIR","","12","1","2.0230","","","","","0","","","","","","","MAX-GBL10708","","","","","","","","","","","","","","","","","","","","","PAIR","","","","","","",""
"MAX","","GBL107-09","MAXISAFE SYNTHETIC COAT GLOVES","Blue Grippa Glove - Large","PAIR","","12","1","2.0230","","","","","0","","","","","","","MAX-GBL10709","","","","","","","","","","","","","","","","","","","","","PAIR","","","","","","",""
"MAX","","GBL107-10","MAXISAFE SYNTHETIC COAT GLOVES","Blue Grippa Glove  Extra Large","PAIR","","12","1","2.0230","","","","","0","","","","","","","MAX-GBL10710","","","","","","","","","","","","","","","","","","","","","PAIR","","","","","","",""
"MAX","","GBL107-11","MAXISAFE SYNTHETIC COAT GLOVES","Blue Grippa Glove - 2XL","PAIR","","12","1","2.0230","","","","","0","","","","","","","MAX-GBL10711","","","","","","","","","","","","","","","","","","","","","PAIR","","","","","","",""
"MAX","","GFN288","MAXISAFE SYNTHETIC COAT GLOVES","Supaflex 3/4 Coated Glove","PAIR","","12","1","2.9400","","","","","0","","","","","","","MAX-GFN288","","","","","","","","","","","","","","","","","","","","","PAIR","","","","","","",""
"MAX","","GFN288-07","MAXISAFE SYNTHETIC COAT GLOVES","Supaflex 3/4 Coated Glove","PAIR","","12","1","2.9400","","","","","0","","","","","","","MAX-GFN28807","","","","","","","","","","","","","","","","","","","","","PAIR","","","","","","",""
"MAX","","GFN288-08","MAXISAFE SYNTHETIC COAT GLOVES","Supaflex 3/4 Coated Glove","PAIR","","12","1","2.9400","","","","","0","","","","","","","MAX-GFN28808","","","","","","","","","","","","","","","","","","","","","PAIR","","","","","","",""
"MAX","","GFN288-09","MAXISAFE SYNTHETIC COAT GLOVES","Supaflex 3/4 Coated Glove","PAIR","","12","1","2.9400","","","","","0","","","","","","","MAX-GFN28809","","","","","","","","","","","","","","","","","","","","","PAIR","","","","","","",""
"MAX","","GFN288-10","MAXISAFE SYNTHETIC COAT GLOVES","Supaflex 3/4 Coated Glove","PAIR","","12","1","2.9400","","","","","0","","","","","","","MAX-GFN28810","","","","","","","","","","","","","","","","","","","","","PAIR","","","","","","",""
"MAX","","GGL106-07","MAXISAFE GRIPPA GLOVE","Knitted poly cotton, Small","PAIR","","12","1","2.0230","","","","","0","","","","","","","MAX-GGL10607","","","","","","","","","","","","","","","","","","","","","PAIR","","","","","","",""
"MAX","","GGL106-08","MAXISAFE GRIPPA GLOVE","Knitted poly cotton, Medium","PAIR","","12","1","2.0230","","","","","0","","","","","","","MAX-GGL10608","","","","","","","","","","","","","","","","","","","","","PAIR","","","","","","",""
"MAX","","GGL106-09","MAXISAFE GRIPPA GLOVE","Knitted poly cotton, Large","PAIR","","12","1","2.0230","","","","","0","","","","","","","MAX-GGL10609","","","","","","","","","","","","","","","","","","","","","PAIR","","","","","","",""
"MAX","","GGL106-10","MAXISAFE GRIPPA GLOVE","Knitted poly cotton, Xlarge","PAIR","","12","1","2.0230","","","","","0","","","","","","","MAX-GGL10610","","","","","","","","","","","","","","","","","","","","","PAIR","","","","","","",""
"MAX","","GGL106-11","MAXISAFE GRIPPA GLOVE","Knitted poly cotton, XXLarge","PAIR","","12","1","2.0230","","","","","0","","","","","","","MAX-GGL10611","","","","","","","","","","","","","","","","","","","","","PAIR","","","","","","",""
"MAX","","GKH196","MAXISAFE CUT RESISTANT GLOVES","G-Force HiCut Safety Glove","PAIR","","10","1","11.5500","","","","","0","","","","","","","MAX-GKH196","","","","","","","","","","","","","","","","","","","","","PAIR","","","","","","",""
"MAX","","GKH196-07","MAXISAFE CUT RESISTANT GLOVES","G-Force HiCut Safety Glove","PAIR","","10","1","11.5500","","","","","0","","","","","","","MAX-GKH19607","","","","","","","","","","","","","","","","","","","","","PAIR","","","","","","",""
"MAX","","R7500P-L","MAXISAFE BANDIT HALF MASK","Large Mask","EACH","","1","1","25.2000","","","","","","","","","","","","MAX-RSB520","","","","","","","","","","","","","","","","","","","","","EACH","","","","","","",""
"MAX","","GKH196-08","MAXISAFE CUT RESISTANT GLOVES","G-Force HiCut Safety Glove","PAIR","","10","1","11.5500","","","","","0","","","","","","","MAX-GKH19608","","","","","","","","","","","","","","","","","","","","","PAIR","","","","","","",""
"MAX","","GKH196-09","MAXISAFE CUT RESISTANT GLOVES","G-Force HiCut Safety Glove","PAIR","","10","1","11.5500","","","","","0","","","","","","","MAX-GKH19609","","","","","","","","","","","","","","","","","","","","","PAIR","","","","","","",""
"MAX","","R7500P-M","MAXISAFE BANDIT HALF MASK","Medium Mask","EACH","","1","1","25.2000","","","","","","","","","","","","MAX-RSB521","","","","","","","","","","","","","","","","","","","","","EACH","","","","","","",""
"MAX","","GKH196-10","MAXISAFE CUT RESISTANT GLOVES","G-Force HiCut Safety Glove","PAIR","","10","1","11.5500","","","","","0","","","","","","","MAX-GKH19610","","","","","","","","","","","","","","","","","","","","","PAIR","","","","","","",""
"MAX","","GKH196-11","MAXISAFE CUT RESISTANT GLOVES","G-Force HiCut Safety Glove","PAIR","","10","1","11.5500","","","","","0","","","","","","","MAX-GKH19611","","","","","","","","","","","","","","","","","","","","","PAIR","","","","","","",""
"MAX","","R7N11-P2","MAXISAFE BANDIT HALF MASK","Prefilters","PACK","","1","1","5.0400","","","","","","","","","","","","MAX-RSB522","","","","","","","","","","","","","","","","","","","","","PACK","","","","","","",""
"MAX","","GLC145","MAXISAFE CANDY STRIPE GLOVES","Leather & Striped Cotton Glove","PAIR","","12","1","1.5750","","","","","0","","","","","","","MAX-GLC145","","","","","","","","","","","","","","","","","","","","","PAIR","","","","","","",""
"MAX","","GLP200","MAXISAFE DISPOSABLE GLOVES","Latex Powdered","PACK","","10","1","5.5000","","","","","0","","","","","","","MAX-GLP200","","","","","","","","","","","","","","","","","","","","","PACK","","","","","","",""
"MAX","","GLP200/L","MAXISAFE DISPOSABLE GLOVES","Latex Powdered","PACK","","1","1","6.4200","","","","","0","","","","","","","MAX-GLP200L","","","","","","","","","","","","","","","","","","","","","PACK","","","","","","",""
"MAX","","GLP200/M","MAXISAFE DISPOSABLE GLOVES","Latex Powdered","PACK","","1","1","6.4200","","","","","0","","","","","","","MAX-GLP200M","","","","","","","","","","","","","","","","","","","","","PACK","","","","","","",""
"MAX","","GLP200/S","MAXISAFE DISPOSABLE GLOVES","Latex Powdered","PACK","","1","1","6.4200","","","","","0","","","","","","","MAX-GLP200S","","","","","","","","","","","","","","","","","","","","","PACK","","","","","","",""
"MAX","","GLP200/XL","MAXISAFE DISPOSABLE GLOVES","Latex Powdered","PACK","","1","1","6.4200","","","","","0","","","","","","","MAX-GLP200XL","","","","","","","","","","","","","","","","","","","","","PACK","","","","","","",""
"MAX","","GLP200/XS","MAXISAFE DISPOSABLE GLOVES","Latex Powdered","PAIR","","1","1","6.4200","","","","","0","","","","","","","MAX-GLP200XS","","","","","","","","","","","","","","","","","","","","","PAIR","","","","","","",""
"MAX","","GLU201","MAXISAFE DISPOSABLE GLOVES","Latex Unpowdered","PACK","","10","1","6.4200","","","","","0","","","","","","","MAX-GLU201","","","","","","","","","","","","","","","","","","","","","PACK","","","","","","",""
"MAX","","GLU201-S","MAXISAFE DISPOSABLE GLOVES","Latex Unpowdered","PACK","","1","1","7.8100","","","","","0","","","","","","","MAX-GLU201S","","","","","","","","","","","","","","","","","","","","","PACK","","","","","","",""
"MAX","","GLU201-M","MAXISAFE DISPOSABLE GLOVES","Latex Unpowdered","PACK","","1","1","7.8100","","","","","0","","","","","","","MAX-GLU201M","","","","","","","","","","","","","","","","","","","","","PACK","","","","","","",""
