"WEF","","LGJ340","LUPO GLIDE AUDITORIUM CHAIR","Junior 340mm","EACH","","1","1","96.0000","","","","","0","","","","","","","WEF-LGJ340","","","","","","","","","","","","","","","","","","","","","EACH","","","","","","",""
"WEF","","LGJ340MID","LUPO GLIDE AUDITORIUM CHAIR","Junior 340mm Midnight","EACH","","1","1","96.0000","","","","","0","","","","","","","WEF-LGJ340MID","","","","","","","","","","","","","","","","","","","","","EACH","","","","","","",""
"WEF","","LGJ340MIST","LUPO GLIDE AUDITORIUM CHAIR","Junior 340mm Mist","EACH","","1","1","96.0000","","","","","0","","","","","","","WEF-LGJ340MIST","","","","","","","","","","","","","","","","","","","","","EACH","","","","","","",""
"WEF","","LGJ380","LUPO GLIDE AUDITORIUM CHAIR","Junior 380mm","EACH","","1","1","96.0000","","","","","0","","","","","","","WEF-LGJ380","","","","","","","","","","","","","","","","","","","","","EACH","","","","","","",""
"WEF","","LGJ380MID","LUPO GLIDE AUDITORIUM CHAIR","Junior 380mm Midnight","EACH","","1","1","96.0000","","","","","0","","","","","","","WEF-LGJ380MID","","","","","","","","","","","","","","","","","","","","","EACH","","","","","","",""
"WEF","","LGJ380MIST","LUPO GLIDE AUDITORIUM CHAIR","Junior 380mm Mist","EACH","","1","1","96.0000","","","","","0","","","","","","","WEF-LGJ380MIST","","","","","","","","","","","","","","","","","","","","","EACH","","","","","","",""
"WEF","","LGJ420","LUPO GLIDE AUDITORIUM CHAIR","Junior 420mm","EACH","","1","1","96.0000","","","","","0","","","","","","","WEF-LGJ420","","","","","","","","","","","","","","","","","","","","","EACH","","","","","","",""
"WEF","","LGJ420MID","LUPO GLIDE AUDITORIUM CHAIR","Junior 420mm Midnight","EACH","","1","1","96.0000","","","","","0","","","","","","","WEF-LGJ420MID","","","","","","","","","","","","","","","","","","","","","EACH","","","","","","",""
"WEF","","LGJ420MIST","LUPO GLIDE AUDITORIUM CHAIR","Junior 420mm Mist","EACH","","1","1","96.0000","","","","","0","","","","","","","WEF-LGJ420MIST","","","","","","","","","","","","","","","","","","","","","EACH","","","","","","",""
"WEF","","LGS460","LUPO GLIDE AUDITORIUM CHAIR","Senior 460mm","EACH","","1","1","100.0000","","","","","0","","","","","","","WEF-LGS460","","","","","","","","","","","","","","","","","","","","","EACH","","","","","","",""
"WEF","","LGS460MID","LUPO GLIDE AUDITORIUM CHAIR","Senior 460mm Midnight","EACH","","1","1","100.0000","","","","","0","","","","","","","WEF-LGS460MID","","","","","","","","","","","","","","","","","","","","","EACH","","","","","","",""
"WEF","","LGS460MIST","LUPO GLIDE AUDITORIUM CHAIR","Senior 460mm Mist","EACH","","1","1","100.0000","","","","","0","","","","","","","WEF-LGS460MIST","","","","","","","","","","","","","","","","","","","","","EACH","","","","","","",""
"WEF","","LGS500","LUPO GLIDE AUDITORIUM CHAIR","Senior 500mm","EACH","","1","1","100.0000","","","","","0","","","","","","","WEF-LGS500","","","","","","","","","","","","","","","","","","","","","EACH","","","","","","",""
"WEF","","LGS500MID","LUPO GLIDE AUDITORIUM CHAIR","Senior 500mm Midnight","EACH","","1","1","100.0000","","","","","0","","","","","","","WEF-LGS500MID","","","","","","","","","","","","","","","","","","","","","EACH","","","","","","",""
"WEF","","LGS500MIST","LUPO GLIDE AUDITORIUM CHAIR","Senior 500mm Mist","EACH","","1","1","100.0000","","","","","0","","","","","","","WEF-LGS500MIST","","","","","","","","","","","","","","","","","","","","","EACH","","","","","","",""
"WEF","","MSPA12","MOBILE STORAGE PORTER","Tubs Type A 1200w x1175h x500d","EACH","","1","1","734.0000","","","","","0","","","","","","","WEF-MSPA12","","","","","","","","","","","","","","","","","","","","","EACH","","","","","","",""
"WEF","","MSPA12OBL","MOBILE STORAGE PORTER","Tubs Type A 1200w x1175h x500d","EACH","","1","1","734.0000","","","","","0","","","","","","","WEF-MSPA12OBL","","","","","","","","","","","","","","","","","","","","","EACH","","","","","","",""
"WEF","","MSPA12OGR","MOBILE STORAGE PORTER","Tubs Type A 1200w x1175h x500d","EACH","","1","1","734.0000","","","","","0","","","","","","","WEF-MSPA12OGR","","","","","","","","","","","","","","","","","","","","","EACH","","","","","","",""
"WEF","","MSPA16","MOBILE STORAGE PORTER","Tubs Type A 1595w x1175h x500d","EACH","","1","1","908.0000","","","","","0","","","","","","","WEF-MSPA16","","","","","","","","","","","","","","","","","","","","","EACH","","","","","","",""
"WEF","","MSPA16OBL","MOBILE STORAGE PORTER","Tubs Type A 1595w x1175h x500d","EACH","","1","1","908.0000","","","","","0","","","","","","","WEF-MSPA16OBL","","","","","","","","","","","","","","","","","","","","","EACH","","","","","","",""
"WEF","","MSPA16OGR","MOBILE STORAGE PORTER","Tubs Type A 1595w x1175h x500d","EACH","","1","1","908.0000","","","","","0","","","","","","","WEF-MSPA16OGR","","","","","","","","","","","","","","","","","","","","","EACH","","","","","","",""
"WEF","","MSPA8","MOBILE STORAGE PORTER","Tubs Type A 805w x1175h x500d","EACH","","1","1","627.0000","","","","","0","","","","","","","WEF-MSPA8","","","","","","","","","","","","","","","","","","","","","EACH","","","","","","",""
"WEF","","MSPA8OBL","MOBILE STORAGE PORTER","Tubs Type A 805w x1175h x500d","EACH","","1","1","627.0000","","","","","0","","","","","","","WEF-MSPA8OBL","","","","","","","","","","","","","","","","","","","","","EACH","","","","","","",""
"WEF","","MSPA8OGR","MOBILE STORAGE PORTER","Tubs Type A 805w x1175h x500d","EACH","","1","1","627.0000","","","","","0","","","","","","","WEF-MSPA8OGR","","","","","","","","","","","","","","","","","","","","","EACH","","","","","","",""
"WEF","","MSPB12","MOBILE STORAGE PORTER","Bags Type B 1595w x1175h x500d","EACH","","1","1","801.0000","","","","","0","","","","","","","WEF-MSPB12","","","","","","","","","","","","","","","","","","","","","EACH","","","","","","",""
"WEF","","MSPB12OBL","MOBILE STORAGE PORTER","Bags Type B 1595w x1175h x500d","EACH","","1","1","801.0000","","","","","0","","","","","","","WEF-MSPB12OBL","","","","","","","","","","","","","","","","","","","","","EACH","","","","","","",""
"WEF","","MSPB12OGR","MOBILE STORAGE PORTER","Bags Type B 1595w x1175h x500d","EACH","","1","1","801.0000","","","","","0","","","","","","","WEF-MSPB12OGR","","","","","","","","","","","","","","","","","","","","","EACH","","","","","","",""
"WEF","","MSPB6","MOBILE STORAGE PORTER","Bags Type B 805w x1175h x500d","EACH","","1","1","597.0000","","","","","0","","","","","","","WEF-MSPB6","","","","","","","","","","","","","","","","","","","","","EACH","","","","","","",""
"WEF","","MSPB6OBL","MOBILE STORAGE PORTER","Bags Type B 805w x1175h x500d","EACH","","1","1","597.0000","","","","","0","","","","","","","WEF-MSPB6OBL","","","","","","","","","","","","","","","","","","","","","EACH","","","","","","",""
"WEF","","MSPB6OGR","MOBILE STORAGE PORTER","Bags Type B 805w x1175h x500d","EACH","","1","1","597.0000","","","","","0","","","","","","","WEF-MSPB6OGR","","","","","","","","","","","","","","","","","","","","","EACH","","","","","","",""
"WEF","","MSPB9","MOBILE STORAGE PORTER","Bags Type B 1200w x1175h x500d","EACH","","1","1","668.0000","","","","","0","","","","","","","WEF-MSPB9","","","","","","","","","","","","","","","","","","","","","EACH","","","","","","",""
"WEF","","MSPB9OBL","MOBILE STORAGE PORTER","Bags Type B 1200w x1175h x500d","EACH","","1","1","668.0000","","","","","0","","","","","","","WEF-MSPB9OBL","","","","","","","","","","","","","","","","","","","","","EACH","","","","","","",""
"WEF","","MSPB9OGR","MOBILE STORAGE PORTER","Bags Type B 1200w x1175h x500d","EACH","","1","1","668.0000","","","","","0","","","","","","","WEF-MSPB9OGR","","","","","","","","","","","","","","","","","","","","","EACH","","","","","","",""
"WEF","","MSPC12","MOBILE STORAGE PORTER","Tubs Bags C 1200w x1175h x500d","EACH","","1","1","734.0000","","","","","0","","","","","","","WEF-MSPC12","","","","","","","","","","","","","","","","","","","","","EACH","","","","","","",""
"WEF","","MSPC12OBL","MOBILE STORAGE PORTER","Tubs Bags C 1200w x1175h x500d","EACH","","1","1","734.0000","","","","","0","","","","","","","WEF-MSPC12OBL","","","","","","","","","","","","","","","","","","","","","EACH","","","","","","",""
"WEF","","MSPC12OGR","MOBILE STORAGE PORTER","Tubs Bags C 1200w x1175h x500d","EACH","","1","1","734.0000","","","","","0","","","","","","","WEF-MSPC12OGR","","","","","","","","","","","","","","","","","","","","","EACH","","","","","","",""
"WEF","","MSPC16","MOBILE STORAGE PORTER","Tubs Bags C 1595w x1175h x500d","EACH","","1","1","908.0000","","","","","0","","","","","","","WEF-MSPC16","","","","","","","","","","","","","","","","","","","","","EACH","","","","","","",""
"WEF","","MSPC16OBL","MOBILE STORAGE PORTER","Tubs Bags C 1595w x1175h x500d","EACH","","1","1","908.0000","","","","","0","","","","","","","WEF-MSPC16OBL","","","","","","","","","","","","","","","","","","","","","EACH","","","","","","",""
"WEF","","MSPC16OGR","MOBILE STORAGE PORTER","Tubs Bags C 1595w x1175h x500d","EACH","","1","1","908.0000","","","","","0","","","","","","","WEF-MSPC16OGR","","","","","","","","","","","","","","","","","","","","","EACH","","","","","","",""
"WEF","","MSPC8","MOBILE STORAGE PORTER","Tubs Bags C 805w x1175h x500d","EACH","","1","1","632.0000","","","","","0","","","","","","","WEF-MSPC8","","","","","","","","","","","","","","","","","","","","","EACH","","","","","","",""
"WEF","","MSPC8OBL","MOBILE STORAGE PORTER","Tubs Bags C 805w x1175h x500d","EACH","","1","1","632.0000","","","","","0","","","","","","","WEF-MSPC8OBL","","","","","","","","","","","","","","","","","","","","","EACH","","","","","","",""
"WEF","","MSPC8OGR","MOBILE STORAGE PORTER","Tubs Bags C 805w x1175h x500d","EACH","","1","1","632.0000","","","","","0","","","","","","","WEF-MSPC8OGR","","","","","","","","","","","","","","","","","","","","","EACH","","","","","","",""
"WEF","","MST10","MOBILE STORAGE TROLLEY","10 Bin 755w x900h x485d","EACH","","1","1","301.0000","","","","","0","","","","","","","WEF-MST10","","","","","","","","","","","","","","","","","","","","","EACH","","","","","","",""
"WEF","","MST15","MOBILE STORAGE TROLLEY","15 Bin 1125w x900h x485d","EACH","","1","1","403.0000","","","","","0","","","","","","","WEF-MST15","","","","","","","","","","","","","","","","","","","","","EACH","","","","","","",""
"WEF","","MST5","MOBILE STORAGE TROLLEY","5 Bin 420w x900h x485d","EACH","","1","1","230.0000","","","","","0","","","","","","","WEF-MST5","","","","","","","","","","","","","","","","","","","","","EACH","","","","","","",""
"WEF","","NAUTJ360","NAUTILUS STUDENT CHAIR","360mm","EACH","","1","1","42.0000","","","","","0","","","","","","","WEF-NAUTJ360","","","","","","","","","","","","","","","","","","","","","EACH","","","","","","",""
"WEF","","NAUTJ360PBL","NAUTILUS STUDENT CHAIR","360mm Primary Blue","EACH","","1","1","42.0000","","","","","0","","","","","","","WEF-NAUTJ360PBL","","","","","","","","","","","","","","","","","","","","","EACH","","","","","","",""
"WEF","","NAUTJ360SL","NAUTILUS STUDENT CHAIR","360mm Slate","EACH","","1","1","42.0000","","","","","0","","","","","","","WEF-NAUTJ360SL","","","","","","","","","","","","","","","","","","","","","EACH","","","","","","",""
"WEF","","NAUTJ360TAN","NAUTILUS STUDENT CHAIR","360mm Tango","EACH","","1","1","42.0000","","","","","0","","","","","","","WEF-NAUTJ360TAN","","","","","","","","","","","","","","","","","","","","","EACH","","","","","","",""
"WEF","","NAUTJ400","NAUTILUS STUDENT CHAIR","400mm","EACH","","1","1","42.0000","","","","","0","","","","","","","WEF-NAUTJ400","","","","","","","","","","","","","","","","","","","","","EACH","","","","","","",""
"WEF","","NAUTJ400PBL","NAUTILUS STUDENT CHAIR","400mm Primary Blue","EACH","","1","1","42.0000","","","","","0","","","","","","","WEF-NAUTJ400PBL","","","","","","","","","","","","","","","","","","","","","EACH","","","","","","",""
"WEF","","NAUTJ400SL","NAUTILUS STUDENT CHAIR","400mm Slate","EACH","","1","1","42.0000","","","","","0","","","","","","","WEF-NAUTJ400SL","","","","","","","","","","","","","","","","","","","","","EACH","","","","","","",""
"WEF","","NAUTJ400TAN","NAUTILUS STUDENT CHAIR","400mm Tango","EACH","","1","1","42.0000","","","","","0","","","","","","","WEF-NAUTJ400TAN","","","","","","","","","","","","","","","","","","","","","EACH","","","","","","",""
"WEF","","NAUTS460","NAUTILUS STUDENT CHAIR","460mm","EACH","","1","1","42.0000","","","","","0","","","","","","","WEF-NAUTS460","","","","","","","","","","","","","","","","","","","","","EACH","","","","","","",""
"WEF","","NAUTS460PBL","NAUTILUS STUDENT CHAIR","460mm Primary Blue","EACH","","1","1","42.0000","","","","","0","","","","","","","WEF-NAUTS460PBL","","","","","","","","","","","","","","","","","","","","","EACH","","","","","","",""
"WEF","","NAUTS460SL","NAUTILUS STUDENT CHAIR","460mm Slate","EACH","","1","1","42.0000","","","","","0","","","","","","","WEF-NAUTS460SL","","","","","","","","","","","","","","","","","","","","","EACH","","","","","","",""
"WEF","","NAUTS460TAN","NAUTILUS STUDENT CHAIR","460mm Tango","EACH","","1","1","42.0000","","","","","0","","","","","","","WEF-NAUTS460TAN","","","","","","","","","","","","","","","","","","","","","EACH","","","","","","",""
"WEF","","PFJ300","PANTOFLEX STUDENT CHAIR","Junior 300mm","EACH","","1","1","94.0000","","","","","0","","","","","","","WEF-PFJ300","","","","","","","","","","","","","","","","","","","","","EACH","","","","","","",""
"WEF","","PFJ300COB","PANTOFLEX STUDENT CHAIR","Junior 300mm Cobalt","EACH","","1","1","94.0000","","","","","0","","","","","","","WEF-PFJ300COB","","","","","","","","","","","","","","","","","","","","","EACH","","","","","","",""
"WEF","","PFJ300MID","PANTOFLEX STUDENT CHAIR","Junior 300mm Midnight","EACH","","1","1","94.0000","","","","","0","","","","","","","WEF-PFJ300MID","","","","","","","","","","","","","","","","","","","","","EACH","","","","","","",""
"WEF","","PFJ300RAS","PANTOFLEX STUDENT CHAIR","Junior 300mm Raspberry","EACH","","1","1","94.0000","","","","","0","","","","","","","WEF-PFJ300RAS","","","","","","","","","","","","","","","","","","","","","EACH","","","","","","",""
"WEF","","PFJ340","PANTOFLEX STUDENT CHAIR","Junior 340mm","EACH","","1","1","94.0000","","","","","0","","","","","","","WEF-PFJ340","","","","","","","","","","","","","","","","","","","","","EACH","","","","","","",""
"WEF","","PFJ340COB","PANTOFLEX STUDENT CHAIR","Junior 340mm Cobalt","EACH","","1","1","94.0000","","","","","0","","","","","","","WEF-PFJ340COB","","","","","","","","","","","","","","","","","","","","","EACH","","","","","","",""
"WEF","","PFJ340MID","PANTOFLEX STUDENT CHAIR","Junior 340mm Midnight","EACH","","1","1","94.0000","","","","","0","","","","","","","WEF-PFJ340MID","","","","","","","","","","","","","","","","","","","","","EACH","","","","","","",""
"WEF","","PFJ340RAS","PANTOFLEX STUDENT CHAIR","Junior 340mm Raspberry","EACH","","1","1","94.0000","","","","","0","","","","","","","WEF-PFJ340RAS","","","","","","","","","","","","","","","","","","","","","EACH","","","","","","",""
"WEF","","PFJ380","PANTOFLEX STUDENT CHAIR","Junior 380mm","EACH","","1","1","94.0000","","","","","0","","","","","","","WEF-PFJ380","","","","","","","","","","","","","","","","","","","","","EACH","","","","","","",""
"WEF","","PFJ380COB","PANTOFLEX STUDENT CHAIR","Junior 380mm Cobalt","EACH","","1","1","94.0000","","","","","0","","","","","","","WEF-PFJ380COB","","","","","","","","","","","","","","","","","","","","","EACH","","","","","","",""
"WEF","","PFJ380MID","PANTOFLEX STUDENT CHAIR","Junior 380mm Midnight","EACH","","1","1","94.0000","","","","","0","","","","","","","WEF-PFJ380MID","","","","","","","","","","","","","","","","","","","","","EACH","","","","","","",""
"WEF","","PFJ380RAS","PANTOFLEX STUDENT CHAIR","Junior 380mm Raspberry","EACH","","1","1","94.0000","","","","","0","","","","","","","WEF-PFJ380RAS","","","","","","","","","","","","","","","","","","","","","EACH","","","","","","",""
"WEF","","PFJ420","PANTOFLEX STUDENT CHAIR","Junior 420mm","EACH","","1","1","94.0000","","","","","0","","","","","","","WEF-PFJ420","","","","","","","","","","","","","","","","","","","","","EACH","","","","","","",""
"WEF","","PFJ420COB","PANTOFLEX STUDENT CHAIR","Junior 420mm Cobalt","EACH","","1","1","94.0000","","","","","0","","","","","","","WEF-PFJ420COB","","","","","","","","","","","","","","","","","","","","","EACH","","","","","","",""
"WEF","","PFJ420MID","PANTOFLEX STUDENT CHAIR","Junior 420mm Midnight","EACH","","1","1","94.0000","","","","","0","","","","","","","WEF-PFJ420MID","","","","","","","","","","","","","","","","","","","","","EACH","","","","","","",""
"WEF","","PFJ420RAS","PANTOFLEX STUDENT CHAIR","Junior 420mm Raspberry","EACH","","1","1","94.0000","","","","","0","","","","","","","WEF-PFJ420RAS","","","","","","","","","","","","","","","","","","","","","EACH","","","","","","",""
"WEF","","PFS460","PANTOFLEX STUDENT CHAIR","Senior 460mm","EACH","","1","1","99.0000","","","","","0","","","","","","","WEF-PFS460","","","","","","","","","","","","","","","","","","","","","EACH","","","","","","",""
"WEF","","PFS460COB","PANTOFLEX STUDENT CHAIR","Senior 460mm Cobalt","EACH","","1","1","99.0000","","","","","0","","","","","","","WEF-PFS460COB","","","","","","","","","","","","","","","","","","","","","EACH","","","","","","",""
"WEF","","PFS460MID","PANTOFLEX STUDENT CHAIR","Senior 460mm Midnight","EACH","","1","1","99.0000","","","","","0","","","","","","","WEF-PFS460MID","","","","","","","","","","","","","","","","","","","","","EACH","","","","","","",""
"WEF","","PFS460RAS","PANTOFLEX STUDENT CHAIR","Senior 460mm Raspberry","EACH","","1","1","99.0000","","","","","0","","","","","","","WEF-PFS460RAS","","","","","","","","","","","","","","","","","","","","","EACH","","","","","","",""
"WEF","","PFS500","PANTOFLEX STUDENT CHAIR","Senior 500mm","EACH","","1","1","99.0000","","","","","0","","","","","","","WEF-PFS500","","","","","","","","","","","","","","","","","","","","","EACH","","","","","","",""
"WEF","","PFS500COB","PANTOFLEX STUDENT CHAIR","Senior 500mm Cobalt","EACH","","1","1","99.0000","","","","","0","","","","","","","WEF-PFS500COB","","","","","","","","","","","","","","","","","","","","","EACH","","","","","","",""
"WEF","","PFS500MID","PANTOFLEX STUDENT CHAIR","Senior 500mm Midnight","EACH","","1","1","99.0000","","","","","0","","","","","","","WEF-PFS500MID","","","","","","","","","","","","","","","","","","","","","EACH","","","","","","",""
"WEF","","PFS500RAS","PANTOFLEX STUDENT CHAIR","Senior 500mm Raspberry","EACH","","1","1","99.0000","","","","","0","","","","","","","WEF-PFS500RAS","","","","","","","","","","","","","","","","","","","","","EACH","","","","","","",""
"WEF","","PMJ","PANTOMOVE 3D STUDENT CHAIR","Junior Gaslift","EACH","","1","1","196.0000","","","","","0","","","","","","","WEF-PMJ","","","","","","","","","","","","","","","","","","","","","EACH","","","","","","",""
"WEF","","PMJCOB","PANTOMOVE 3D STUDENT CHAIR","Junior Gaslift Cobalt","EACH","","1","1","196.0000","","","","","0","","","","","","","WEF-PMJCOB","","","","","","","","","","","","","","","","","","","","","EACH","","","","","","",""
"WEF","","PMJMID","PANTOMOVE 3D STUDENT CHAIR","Junior Gaslift Midnight","EACH","","1","1","196.0000","","","","","0","","","","","","","WEF-PMJMID","","","","","","","","","","","","","","","","","","","","","EACH","","","","","","",""
"WEF","","PMJRAS","PANTOMOVE 3D STUDENT CHAIR","Junior Gaslift Raspberry","EACH","","1","1","196.0000","","","","","0","","","","","","","WEF-PMJRAS","","","","","","","","","","","","","","","","","","","","","EACH","","","","","","",""
"WEF","","PMS","PANTOMOVE 3D STUDENT CHAIR","Senior Gaslift","EACH","","1","1","203.0000","","","","","0","","","","","","","WEF-PMS","","","","","","","","","","","","","","","","","","","","","EACH","","","","","","",""
"WEF","","PMSCOB","PANTOMOVE 3D STUDENT CHAIR","Senior Gaslift Cobalt","EACH","","1","1","203.0000","","","","","0","","","","","","","WEF-PMSCOB","","","","","","","","","","","","","","","","","","","","","EACH","","","","","","",""
"WEF","","PMSMID","PANTOMOVE 3D STUDENT CHAIR","Senior Gaslift Midnight","EACH","","1","1","203.0000","","","","","0","","","","","","","WEF-PMSMID","","","","","","","","","","","","","","","","","","","","","EACH","","","","","","",""
"WEF","","PMSRAS","PANTOMOVE 3D STUDENT CHAIR","Senior Gaslift Raspberry","EACH","","1","1","203.0000","","","","","0","","","","","","","WEF-PMSRAS","","","","","","","","","","","","","","","","","","","","","EACH","","","","","","",""
"WEF","","PT1200","MEETING TABLE","1200mm diam","EACH","","1","1","265.0000","","","","","0","","","","","","","WEF-PT1200","","","","","","","","","","","","","","","","","","","","","EACH","","","","","","",""
"WEF","","PT1200OBL","MEETING TABLE","1200mm diam Olympia Blue","EACH","","1","1","265.0000","","","","","0","","","","","","","WEF-PT1200OBL","","","","","","","","","","","","","","","","","","","","","EACH","","","","","","",""
"WEF","","PT1200OGR","MEETING TABLE","1200mm diam Oyster Grey","EACH","","1","1","265.0000","","","","","0","","","","","","","WEF-PT1200OGR","","","","","","","","","","","","","","","","","","","","","EACH","","","","","","",""
"WEF","","PT900","MEETING TABLE","900mm diam","EACH","","1","1","235.0000","","","","","0","","","","","","","WEF-PT900","","","","","","","","","","","","","","","","","","","","","EACH","","","","","","",""
"WEF","","PT900OBL","MEETING TABLE","900mm diam Olympia Blue","EACH","","1","1","235.0000","","","","","0","","","","","","","WEF-PT900OBL","","","","","","","","","","","","","","","","","","","","","EACH","","","","","","",""
"WEF","","PT900OGR","MEETING TABLE","900mm diam Oyster Grey","EACH","","1","1","235.0000","","","","","0","","","","","","","WEF-PT900OGR","","","","","","","","","","","","","","","","","","","","","EACH","","","","","","",""
"WEF","","PTU","EDUMAX PRIMARY TEACHING UNIT","Whiteboard Storage Unit","EACH","","1","1","627.0000","","","","","0","","","","","","","WEF-PTU","","","","","","","","","","","","","","","","","","","","","EACH","","","","","","",""
"WEF","","PTUOBL","EDUMAX PRIMARY TEACHING UNIT","Whiteboard Storage Unit","EACH","","1","1","627.0000","","","","","0","","","","","","","WEF-PTUOBL","","","","","","","","","","","","","","","","","","","","","EACH","","","","","","",""
"WEF","","PUTOGR","EDUMAX PRIMARY TEACHING UNIT","Whiteboard Storage Unit","EACH","","1","1","627.0000","","","","","0","","","","","","","WEF-PUTOGR","","","","","","","","","","","","","","","","","","","","","EACH","","","","","","",""
"WEF","","RDTB","JS MOBILE STORAGE TROLLEY TUBS","Red 75 mm Brackets","EACH","","1","1","12.0000","","","","","0","","","","","","","WEF-RDTB","","","","","","","","","","","","","","","","","","","","","EACH","","","","","","",""
"WEF","","SBYTJ","BYTE OTTOMAN","Junior 1000 Dia 380mm","EACH","","1","1","610.0000","","","","","0","","","","","","","WEF-SBYTJ","","","","","","","","","","","","","","","","","","","","","EACH","","","","","","",""
"WEF","","SBYTJGRAPH","BYTE OTTOMAN","Junior 1000 Dia 380 Graphite","EACH","","1","1","610.0000","","","","","0","","","","","","","WEF-SBYTJGRAPH","","","","","","","","","","","","","","","","","","","","","EACH","","","","","","",""
"WEF","","SBYTJRUBY","BYTE OTTOMAN","Junior 1000 Dia 380 Ruby","EACH","","1","1","610.0000","","","","","0","","","","","","","WEF-SBYTJRUBY","","","","","","","","","","","","","","","","","","","","","EACH","","","","","","",""
"WEF","","SBYTSGRAPH","BYTE OTTOMAN","Senior 1000 Dia 430 Graphite","EACH","","1","1","610.0000","","","","","0","","","","","","","WEF-SBYTSGRAPH","","","","","","","","","","","","","","","","","","","","","EACH","","","","","","",""
"WEF","","SBYTSRUBY","BYTE OTTOMAN","Senior 1000 Dia 430 Ruby","EACH","","1","1","610.0000","","","","","0","","","","","","","WEF-SBYTSRUBY","","","","","","","","","","","","","","","","","","","","","EACH","","","","","","",""
"WEF","","SCLRJ","CLOVER OTTOMAN","Junior 670x670x380mm","EACH","","1","1","396.0000","","","","","0","","","","","","","WEF-SCLRJ","","","","","","","","","","","","","","","","","","","","","EACH","","","","","","",""
"WEF","","SCLRJGRAPH","CLOVER OTTOMAN","Junior 670x670x380 Graphite","EACH","","1","1","396.0000","","","","","0","","","","","","","WEF-SCLRJGRAPH","","","","","","","","","","","","","","","","","","","","","EACH","","","","","","",""
"WEF","","SCLRJRUBY","CLOVER OTTOMAN","Junior 670x670x380 Ruby","EACH","","1","1","396.0000","","","","","0","","","","","","","WEF-SCLRJRUBY","","","","","","","","","","","","","","","","","","","","","EACH","","","","","","",""
"WEF","","SCLRS","CLOVER OTTOMAN","Senior 670x670x430mm","EACH","","1","1","396.0000","","","","","0","","","","","","","WEF-SCLRS","","","","","","","","","","","","","","","","","","","","","EACH","","","","","","",""
"WEF","","SCLRSGRAPH","CLOVER OTTOMAN","Senior 670x670x430 Graphite","EACH","","1","1","396.0000","","","","","0","","","","","","","WEF-SCLRSGRAPH","","","","","","","","","","","","","","","","","","","","","EACH","","","","","","",""
"WEF","","SCLRSRUBY","CLOVER OTTOMAN","Senior 670x670x430 Ruby","EACH","","1","1","396.0000","","","","","0","","","","","","","WEF-SCLRSRUBY","","","","","","","","","","","","","","","","","","","","","EACH","","","","","","",""
"WEF","","SCONJ","CONUNDRUM OTTOMAN","Junior 1740x1170x380mm","EACH","","1","1","964.0000","","","","","0","","","","","","","WEF-SCONJ","","","","","","","","","","","","","","","","","","","","","EACH","","","","","","",""
"WEF","","SCONJGRAPH","CONUNDRUM OTTOMAN","Junior 1740x1170x380 Graphite","EACH","","1","1","964.0000","","","","","0","","","","","","","WEF-SCONJGRAPH","","","","","","","","","","","","","","","","","","","","","EACH","","","","","","",""
"WEF","","SCONJRUBY","CONUNDRUM OTTOMAN","Junior 1740x1170x380 Ruby","EACH","","1","1","964.0000","","","","","0","","","","","","","WEF-SCONJRUBY","","","","","","","","","","","","","","","","","","","","","EACH","","","","","","",""
"WEF","","SCONS","CONUNDRUM OTTOMAN","Senior 1740x1170x430mm","EACH","","1","1","964.0000","","","","","0","","","","","","","WEF-SCONS","","","","","","","","","","","","","","","","","","","","","EACH","","","","","","",""
"WEF","","SCONSGRAPH","CONUNDRUM OTTOMAN","Senior 1740x1170x430 Graphite","EACH","","1","1","964.0000","","","","","0","","","","","","","WEF-SCONSGRAPH","","","","","","","","","","","","","","","","","","","","","EACH","","","","","","",""
"WEF","","SCONSRUBY","CONUNDRUM OTTOMAN","Senior 1740x1170x430 Ruby","EACH","","1","1","964.0000","","","","","0","","","","","","","WEF-SCONSRUBY","","","","","","","","","","","","","","","","","","","","","EACH","","","","","","",""
"WEF","","SCUBJ","CUBE OTTOMAN","Junior 450x450x380mm","EACH","","1","1","171.0000","","","","","0","","","","","","","WEF-SCUBJ","","","","","","","","","","","","","","","","","","","","","EACH","","","","","","",""
"WEF","","SCUBJGRAPH","CUBE OTTOMAN","Junior 450x450x380 Graphite","EACH","","1","1","171.0000","","","","","0","","","","","","","WEF-SCUBJGRAPH","","","","","","","","","","","","","","","","","","","","","EACH","","","","","","",""
"WEF","","SCUBJRUBY","CUBE OTTOMAN","Junior 450x450x380 Ruby","EACH","","1","1","171.0000","","","","","0","","","","","","","WEF-SCUBJRUBY","","","","","","","","","","","","","","","","","","","","","EACH","","","","","","",""
"WEF","","SCUBS","CUBE OTTOMAN","Senior 450x450x430mm","EACH","","1","1","171.0000","","","","","0","","","","","","","WEF-SCUBS","","","","","","","","","","","","","","","","","","","","","EACH","","","","","","",""
"WEF","","SCUBSGRAPH","CUBE OTTOMAN","Senior 450x450x430 Graphite","EACH","","1","1","171.0000","","","","","0","","","","","","","WEF-SCUBSGRAPH","","","","","","","","","","","","","","","","","","","","","EACH","","","","","","",""
"WEF","","SCUBSRUBY","CUBE OTTOMAN","Senior 450x450x430 Ruby","EACH","","1","1","171.0000","","","","","0","","","","","","","WEF-SCUBSRUBY","","","","","","","","","","","","","","","","","","","","","EACH","","","","","","",""
"WEF","","SCYLJ","CYLINDER OTTOMAN","Junior 430mm Dia 380mm","EACH","","1","1","186.0000","","","","","0","","","","","","","WEF-SCYLJ","","","","","","","","","","","","","","","","","","","","","EACH","","","","","","",""
"WEF","","SCYLJGRAPH","CYLINDER OTTOMAN","Junior 430mm Dia 380 Graphite","EACH","","1","1","186.0000","","","","","0","","","","","","","WEF-SCYLJGRAPH","","","","","","","","","","","","","","","","","","","","","EACH","","","","","","",""
"WEF","","SCYLJRUBY","CYLINDER OTTOMAN","Junior 430mm Dia 380 Ruby","EACH","","1","1","186.0000","","","","","0","","","","","","","WEF-SCYLJRUBY","","","","","","","","","","","","","","","","","","","","","EACH","","","","","","",""
"WEF","","SCYLS","CYLINDER OTTOMAN","Senior 430mm Dia 430mm","EACH","","1","1","186.0000","","","","","0","","","","","","","WEF-SCYLS","","","","","","","","","","","","","","","","","","","","","EACH","","","","","","",""
"WEF","","SCYLSGRAPH","CYLINDER OTTOMAN","Senior 430mm Dia 430 Graphite","EACH","","1","1","186.0000","","","","","0","","","","","","","WEF-SCYLSGRAPH","","","","","","","","","","","","","","","","","","","","","EACH","","","","","","",""
"WEF","","SCYLSRUBY","CYLINDER OTTOMAN","Senior 430mm Dia 430 Ruby","EACH","","1","1","186.0000","","","","","0","","","","","","","WEF-SCYLSRUBY","","","","","","","","","","","","","","","","","","","","","EACH","","","","","","",""
"WEF","","SISL","THE ISLAND","1800w x900d x400h","EACH","","1","1","896.0000","","","","","0","","","","","","","WEF-SISL","","","","","","","","","","","","","","","","","","","","","EACH","","","","","","",""
"WEF","","SISLOBL","THE ISLAND","1800w x900d x400h Olympia Blue","EACH","","1","1","896.0000","","","","","0","","","","","","","WEF-SISLOBL","","","","","","","","","","","","","","","","","","","","","EACH","","","","","","",""
"WEF","","SISLOGR","THE ISLAND","1800w x900d x400h Oyster Grey","EACH","","1","1","896.0000","","","","","0","","","","","","","WEF-SISLOGR","","","","","","","","","","","","","","","","","","","","","EACH","","","","","","",""
"WEF","","SJIGJ","JIGSAW OTTOMAN","Junior 720x750x380mm","EACH","","1","1","444.0000","","","","","0","","","","","","","WEF-SJIGJ","","","","","","","","","","","","","","","","","","","","","EACH","","","","","","",""
"WEF","","SJIGJGRAPH","JIGSAW OTTOMAN","Junior 720x750x380 Graphite","EACH","","1","1","444.0000","","","","","0","","","","","","","WEF-SJIGJGRAPH","","","","","","","","","","","","","","","","","","","","","EACH","","","","","","",""
"WEF","","SJIGJRUBY","JIGSAW OTTOMAN","Junior 720x750x380 Ruby","EACH","","1","1","444.0000","","","","","0","","","","","","","WEF-SJIGJRUBY","","","","","","","","","","","","","","","","","","","","","EACH","","","","","","",""
"WEF","","SJIGS","JIGSAW OTTOMAN","Senior 720x750x430mm","EACH","","1","1","444.0000","","","","","0","","","","","","","WEF-SJIGS","","","","","","","","","","","","","","","","","","","","","EACH","","","","","","",""
"WEF","","SJIGSGRAPH","JIGSAW OTTOMAN","Senior 720x750x430 Graphite","EACH","","1","1","444.0000","","","","","0","","","","","","","WEF-SJIGSGRAPH","","","","","","","","","","","","","","","","","","","","","EACH","","","","","","",""
"WEF","","SJIGSRUBY","JIGSAW OTTOMAN","Senior 720x750x430 Ruby","EACH","","1","1","444.0000","","","","","0","","","","","","","WEF-SJIGSRUBY","","","","","","","","","","","","","","","","","","","","","EACH","","","","","","",""
"WEF","","STRIJ","TRIQUETRA OTTOMAN","Junior 1300x1000x380mm","EACH","","1","1","678.0000","","","","","0","","","","","","","WEF-STRIJ","","","","","","","","","","","","","","","","","","","","","EACH","","","","","","",""
"WEF","","STRIJGRAPH","TRIQUETRA OTTOMAN","Junior 1300x1000x380 Graphite","EACH","","1","1","678.0000","","","","","0","","","","","","","WEF-STRIJGRAPH","","","","","","","","","","","","","","","","","","","","","EACH","","","","","","",""
"WEF","","STRIJRUBY","TRIQUETRA OTTOMAN","Junior 1300x1000x380 Ruby","EACH","","1","1","678.0000","","","","","0","","","","","","","WEF-STRIJRUBY","","","","","","","","","","","","","","","","","","","","","EACH","","","","","","",""
"WEF","","STRIS","TRIQUETRA OTTOMAN","Senior 1300x1000x430mm","EACH","","1","1","678.0000","","","","","0","","","","","","","WEF-STRIS","","","","","","","","","","","","","","","","","","","","","EACH","","","","","","",""
"WEF","","STRISGRAPH","TRIQUETRA OTTOMAN","Senior 1300x1000x430 Graphite","EACH","","1","1","678.0000","","","","","0","","","","","","","WEF-STRISGRAPH","","","","","","","","","","","","","","","","","","","","","EACH","","","","","","",""
"WEF","","STRISRUBY","TRIQUETRA OTTOMAN","Senior 1300x1000x430 Ruby","EACH","","1","1","678.0000","","","","","0","","","","","","","WEF-STRISRUBY","","","","","","","","","","","","","","","","","","","","","EACH","","","","","","",""
"WEF","","TRQT","TRIQUETRA POD TABLE","Fixed Height","EACH","","1","1","173.0000","","","","","0","","","","","","","WEF-TRQT","","","","","","","","","","","","","","","","","","","","","EACH","","","","","","",""
"WEF","","TRQTAD","TRIQUETRA POD TABLE","Adjustable Height","EACH","","1","1","245.0000","","","","","0","","","","","","","WEF-TRQTAD","","","","","","","","","","","","","","","","","","","","","EACH","","","","","","",""
"WEF","","TRQTADOBL","TRIQUETRA POD TABLE","Adjustable Height Olympia Blue","EACH","","1","1","245.0000","","","","","0","","","","","","","WEF-TRQTADOBL","","","","","","","","","","","","","","","","","","","","","EACH","","","","","","",""
"WEF","","TRQTADOGR","TRIQUETRA POD TABLE","Adjustable Height Oyster Grey","EACH","","1","1","245.0000","","","","","0","","","","","","","WEF-TRQTADOGR","","","","","","","","","","","","","","","","","","","","","EACH","","","","","","",""
"WEF","","TRQTOBL","TRIQUETRA POD TABLE","Fixed Height Olympia Blue","EACH","","1","1","173.0000","","","","","0","","","","","","","WEF-TRQTOBL","","","","","","","","","","","","","","","","","","","","","EACH","","","","","","",""
"WEF","","TRQTOGR","TRIQUETRA POD TABLE","Fixed Height Oyster Grey","EACH","","1","1","173.0000","","","","","0","","","","","","","WEF-TRQTOGR","","","","","","","","","","","","","","","","","","","","","EACH","","","","","","",""
"WEF","","TTDA1260","T LEG TUB DESK","1200x600 Adjustable Height","EACH","","1","1","199.0000","","","","","0","","","","","","","WEF-TTDA1260","","","","","","","","","","","","","","","","","","","","","EACH","","","","","","",""
"WEF","","TTDA1260OBL","T LEG TUB DESK","1200x600mm Adj Olympia Blue","EACH","","1","1","199.0000","","","","","0","","","","","","","WEF-TTDA1260OBL","","","","","","","","","","","","","","","","","","","","","EACH","","","","","","",""
"WEF","","TTDA1260OGR","T LEG TUB DESK","1200x600mm Adj Oyster Grey","EACH","","1","1","199.0000","","","","","0","","","","","","","WEF-TTDA1260OGR","","","","","","","","","","","","","","","","","","","","","EACH","","","","","","",""
"WEF","","TTDA1360","T LEG TUB DESK","1300x600 Adjustable Height","EACH","","1","1","219.0000","","","","","0","","","","","","","WEF-TTDA1360","","","","","","","","","","","","","","","","","","","","","EACH","","","","","","",""
"WEF","","TTDA1360OBL","T LEG TUB DESK","1300x600mm Adj Olympia Blue","EACH","","1","1","219.0000","","","","","0","","","","","","","WEF-TTDA1360OBL","","","","","","","","","","","","","","","","","","","","","EACH","","","","","","",""
"WEF","","TTDA1360OGR","T LEG TUB DESK","1300x600mm Adj Oyster Grey","EACH","","1","1","219.0000","","","","","0","","","","","","","WEF-TTDA1360OGR","","","","","","","","","","","","","","","","","","","","","EACH","","","","","","",""
"WEF","","TTDA6060","T LEG TUB DESK","600x600 Adjustable Height","EACH","","1","1","158.0000","","","","","0","","","","","","","WEF-TTDA6060","","","","","","","","","","","","","","","","","","","","","EACH","","","","","","",""
"WEF","","TTDA6060OBL","T LEG TUB DESK","600x600mm Adj Olympia Blue","EACH","","1","1","158.0000","","","","","0","","","","","","","WEF-TTDA6060OBL","","","","","","","","","","","","","","","","","","","","","EACH","","","","","","",""
"WEF","","TTDA6060OGR","T LEG TUB DESK","600x600mm Adj Oyster Grey","EACH","","1","1","158.0000","","","","","0","","","","","","","WEF-TTDA6060OGR","","","","","","","","","","","","","","","","","","","","","EACH","","","","","","",""
"WEF","","TTDA7060","T LEG TUB DESK","700x600 Adjustable Height","EACH","","1","1","162.0000","","","","","0","","","","","","","WEF-TTDA7060","","","","","","","","","","","","","","","","","","","","","EACH","","","","","","",""
"WEF","","TTDA7060OBL","T LEG TUB DESK","700x600mm Adj Olympia Blue","EACH","","1","1","162.0000","","","","","0","","","","","","","WEF-TTDA7060OBL","","","","","","","","","","","","","","","","","","","","","EACH","","","","","","",""
"WEF","","BKTB","JS MOBILE STORAGE TROLLEY TUBS","Black 150 mm Brackets","EACH","","1","1","14.0000","","","","","0","","","","","","","WEF-BKTB","","","","","","","","","","","","","","","","","","","","","EACH","","","","","","",""
"WEF","","TTDA7060OGR","T LEG TUB DESK","700x600mm Adj Oyster Grey","EACH","","1","1","162.0000","","","","","0","","","","","","","WEF-TTDA7060OGR","","","","","","","","","","","","","","","","","","","","","EACH","","","","","","",""
"WEF","","BKTO","MOBILE STORAGE PORTER TUB","Black 150mm","EACH","","1","1","10.0000","","","","","0","","","","","","","WEF-BKTO","","","","","","","","","","","","","","","","","","","","","EACH","","","","","","",""
"WEF","","TTDF1260","T LEG TUB DESK","1200x600mm Fixed Height","EACH","","1","1","152.0000","","","","","0","","","","","","","WEF-TTDF1260","","","","","","","","","","","","","","","","","","","","","EACH","","","","","","",""
"WEF","","BLTB","JS MOBILE STORAGE TROLLEY TUBS","Blue 300 mm Brackets","EACH","","1","1","18.0000","","","","","0","","","","","","","WEF-BLTB","","","","","","","","","","","","","","","","","","","","","EACH","","","","","","",""
"WEF","","TTDF1260OBL","T LEG TUB DESK","1200x600mm Fixed Olympia Blue","EACH","","1","1","152.0000","","","","","0","","","","","","","WEF-TTDF1260OBL","","","","","","","","","","","","","","","","","","","","","EACH","","","","","","",""
"WEF","","BLTO","MOBILE STORAGE PORTER TUB","Blue 300mm","EACH","","1","1","14.0000","","","","","0","","","","","","","WEF-BLTO","","","","","","","","","","","","","","","","","","","","","EACH","","","","","","",""
"WEF","","TTDF1260OGR","T LEG TUB DESK","1200x600mm Fixed Oyster Grey","EACH","","1","1","152.0000","","","","","0","","","","","","","WEF-TTDF1260OGR","","","","","","","","","","","","","","","","","","","","","EACH","","","","","","",""
"WEF","","BT10","BYTE TABLE","1000mm Diam Fixed Height","EACH","","1","1","161.0000","","","","","0","","","","","","","WEF-BT10","","","","","","","","","","","","","","","","","","","","","EACH","","","","","","",""
"WEF","","TTDF1360","T LEG TUB DESK","1300x600mm Fixed Height","EACH","","1","1","163.0000","","","","","0","","","","","","","WEF-TTDF1360","","","","","","","","","","","","","","","","","","","","","EACH","","","","","","",""
"WEF","","BT10AD","BYTE TABLE","1000mm Diam Adjustable Height","EACH","","1","1","233.0000","","","","","0","","","","","","","WEF-BT10AD","","","","","","","","","","","","","","","","","","","","","EACH","","","","","","",""
"WEF","","TTDF1360OBL","T LEG TUB DESK","1300x600mm Fixed Olympia Blue","EACH","","1","1","163.0000","","","","","0","","","","","","","WEF-TTDF1360OBL","","","","","","","","","","","","","","","","","","","","","EACH","","","","","","",""
"WEF","","BT10ADOBL","BYTE TABLE","1000mm Diam Adj Olympia Blue","EACH","","1","1","233.0000","","","","","0","","","","","","","WEF-BT10ADOBL","","","","","","","","","","","","","","","","","","","","","EACH","","","","","","",""
"WEF","","TTDF1360OGR","T LEG TUB DESK","1300x600mm Fixed Oyster Grey","EACH","","1","1","163.0000","","","","","0","","","","","","","WEF-TTDF1360OGR","","","","","","","","","","","","","","","","","","","","","EACH","","","","","","",""
"WEF","","BT10ADOGR","BYTE TABLE","1000mm Diam Adj Oyster Grey","EACH","","1","1","233.0000","","","","","0","","","","","","","WEF-BT10ADOGR","","","","","","","","","","","","","","","","","","","","","EACH","","","","","","",""
"WEF","","TTDF6060","T LEG TUB DESK","600x600mm Fixed Height","EACH","","1","1","107.0000","","","","","0","","","","","","","WEF-TTDF6060","","","","","","","","","","","","","","","","","","","","","EACH","","","","","","",""
"WEF","","BT10OBL","BYTE TABLE","1000mm Diam Fixed Olympia Blue","EACH","","1","1","161.0000","","","","","0","","","","","","","WEF-BT10OBL","","","","","","","","","","","","","","","","","","","","","EACH","","","","","","",""
"WEF","","TTDF6060OBL","T LEG TUB DESK","600x600mm Fixed Olympia Blue","EACH","","1","1","107.0000","","","","","0","","","","","","","WEF-TTDF6060OBL","","","","","","","","","","","","","","","","","","","","","EACH","","","","","","",""
"WEF","","BT10OGR","BYTE TABLE","1000mm Diam Fixed Oyster Grey","EACH","","1","1","161.0000","","","","","0","","","","","","","WEF-BT10OGR","","","","","","","","","","","","","","","","","","","","","EACH","","","","","","",""
"WEF","","TTDF6060OGR","T LEG TUB DESK","600x600mm Fixed Oyster Grey","EACH","","1","1","107.0000","","","","","0","","","","","","","WEF-TTDF6060OGR","","","","","","","","","","","","","","","","","","","","","EACH","","","","","","",""
"WEF","","BT90","BYTE TABLE","900mm Diam Fixed Height","EACH","","1","1","142.0000","","","","","0","","","","","","","WEF-BT90","","","","","","","","","","","","","","","","","","","","","EACH","","","","","","",""
"WEF","","TTDF7060","T LEG TUB DESK","700x600mm Fixed Height","EACH","","1","1","111.0000","","","","","0","","","","","","","WEF-TTDF7060","","","","","","","","","","","","","","","","","","","","","EACH","","","","","","",""
"WEF","","BT90AD","BYTE TABLE","900mm Diam Adjustable Height","EACH","","1","1","213.0000","","","","","0","","","","","","","WEF-BT90AD","","","","","","","","","","","","","","","","","","","","","EACH","","","","","","",""
"WEF","","TTDF7060OBL","T LEG TUB DESK","700x600mm Fixed Olympia Blue","EACH","","1","1","111.0000","","","","","0","","","","","","","WEF-TTDF7060OBL","","","","","","","","","","","","","","","","","","","","","EACH","","","","","","",""
"WEF","","BT90ADOBL","BYTE TABLE","900mm Diam Adj Olympia Blue","EACH","","1","1","213.0000","","","","","0","","","","","","","WEF-BT90ADOBL","","","","","","","","","","","","","","","","","","","","","EACH","","","","","","",""
"WEF","","TTDF7062OGR","T LEG TUB DESK","700x600mm Fixed Oyster Grey","EACH","","1","1","111.0000","","","","","0","","","","","","","WEF-TTDF7062OGR","","","","","","","","","","","","","","","","","","","","","EACH","","","","","","",""
"WEF","","BT90ADOGR","BYTE TABLE","900mm Diam Adj Oyster Grey","EACH","","1","1","213.0000","","","","","0","","","","","","","WEF-BT90ADOGR","","","","","","","","","","","","","","","","","","","","","EACH","","","","","","",""
"WEF","","WBIN","MOBILE STORAGE TROLLEY TUB","White 320w x128h x430d","EACH","","1","1","10.0000","","","","","0","","","","","","","WEF-WBIN","","","","","","","","","","","","","","","","","","","","","EACH","","","","","","",""
"WEF","","BT90OBL","BYTE TABLE","900mm Diam Fixed Olympia Blue","EACH","","1","1","142.0000","","","","","0","","","","","","","WEF-BT90OBL","","","","","","","","","","","","","","","","","","","","","EACH","","","","","","",""
"WEF","","WT21260","WAVE TABLE","1200x600mm Fixed Height","EACH","","1","1","121.0000","","","","","0","","","","","","","WEF-WT21260","","","","","","","","","","","","","","","","","","","","","EACH","","","","","","",""
"WEF","","BT90OGR","BYTE TABLE","900mm Diam Fixed Oyster Grey","EACH","","1","1","142.0000","","","","","0","","","","","","","WEF-BT90OGR","","","","","","","","","","","","","","","","","","","","","EACH","","","","","","",""
"WEF","","WT21260AD","WAVE TABLE","1200x600mm Adjustable Height","EACH","","1","1","193.0000","","","","","0","","","","","","","WEF-WT21260AD","","","","","","","","","","","","","","","","","","","","","EACH","","","","","","",""
"WEF","","SBYTS","BYTE OTTOMAN","Senior 1000 Dia 430mm","EACH","","1","1","610.0000","","","","","0","","","","","","","WEF-BYTS","","","","","","","","","","","","","","","","","","","","","EACH","","","","","","",""
"WEF","","WT21260ADOBL","WAVE TABLE","1200x600mm Adj Olympia Blue","EACH","","1","1","193.0000","","","","","0","","","","","","","WEF-WT21260ADOBL","","","","","","","","","","","","","","","","","","","","","EACH","","","","","","",""
"WEF","","CONT","CONUNDRUM TABLE","1740x1140mm Fixed Height","EACH","","1","1","383.0000","","","","","0","","","","","","","WEF-CONT","","","","","","","","","","","","","","","","","","","","","EACH","","","","","","",""
"WEF","","WT21260ADOGR","WAVE TABLE","1200x600mm Adj Oyster Grey","EACH","","1","1","193.0000","","","","","0","","","","","","","WEF-WT21260ADOGR","","","","","","","","","","","","","","","","","","","","","EACH","","","","","","",""
"WEF","","CONTAD","CONUNDRUM TABLE","1740x1140mm Adjustable Height","EACH","","1","1","454.0000","","","","","0","","","","","","","WEF-CONTAD","","","","","","","","","","","","","","","","","","","","","EACH","","","","","","",""
"WEF","","WT21260OBL","WAVE TABLE","1200x600mm Fixed Olympia Blue","EACH","","1","1","121.0000","","","","","0","","","","","","","WEF-WT21260OBL","","","","","","","","","","","","","","","","","","","","","EACH","","","","","","",""
"WEF","","CONTADOBL","CONUNDRUM TABLE","1740x1140mm Adjust Olympia Blu","EACH","","1","1","454.0000","","","","","0","","","","","","","WEF-CONTADOBL","","","","","","","","","","","","","","","","","","","","","EACH","","","","","","",""
"WEF","","WT21260OGR","WAVE TABLE","1200x600mm Fixed Oyster Grey","EACH","","1","1","121.0000","","","","","0","","","","","","","WEF-WT21260OGR","","","","","","","","","","","","","","","","","","","","","EACH","","","","","","",""
"WEF","","CONTADOGR","CONUNDRUM TABLE","1740x1140mm Adjust Oyster Grey","EACH","","1","1","454.0000","","","","","0","","","","","","","WEF-CONTADOGR","","","","","","","","","","","","","","","","","","","","","EACH","","","","","","",""
"WEF","","WT21367","WAVE TABLE","1350x675mm Fixed Height","EACH","","1","1","179.0000","","","","","0","","","","","","","WEF-WT21367","","","","","","","","","","","","","","","","","","","","","EACH","","","","","","",""
"WEF","","CONTOBL","CONUNDRUM TABLE","1740x1140mm Fixed Olympia Blue","EACH","","1","1","383.0000","","","","","0","","","","","","","WEF-CONTOBL","","","","","","","","","","","","","","","","","","","","","EACH","","","","","","",""
"WEF","","WT21367AD","WAVE TABLE","1350x675mm Adjustable Height","EACH","","1","1","250.0000","","","","","0","","","","","","","WEF-WT21367AD","","","","","","","","","","","","","","","","","","","","","EACH","","","","","","",""
"WEF","","CONTOGR","CONUNDRUM TABLE","1740x1140mm Fixed Oyster Grey","EACH","","1","1","383.0000","","","","","0","","","","","","","WEF-CONTOGR","","","","","","","","","","","","","","","","","","","","","EACH","","","","","","",""
"WEF","","WT21367ADOBL","WAVE TABLE","1350x675mm Adj Olympia Blue","EACH","","1","1","250.0000","","","","","0","","","","","","","WEF-WT21367ADOBL","","","","","","","","","","","","","","","","","","","","","EACH","","","","","","",""
"WEF","","D4PJP300","DURAPOS STUDENT CHAIR","Junior 300mm","EACH","","1","1","53.0000","","","","","0","","","","","","","WEF-D4PJP300","","","","","","","","","","","","","","","","","","","","","EACH","","","","","","",""
"WEF","","WT21367ADOGR","WAVE TABLE","1350x675mm Adj Oyster Grey","EACH","","1","1","250.0000","","","","","0","","","","","","","WEF-WT21367ADOGR","","","","","","","","","","","","","","","","","","","","","EACH","","","","","","",""
"WEF","","D4PJP300COB","DURAPOS STUDENT CHAIR","Junior 300mm Cobalt","EACH","","1","1","53.0000","","","","","0","","","","","","","WEF-D4PJP300COB","","","","","","","","","","","","","","","","","","","","","EACH","","","","","","",""
"WEF","","WT21367OBL","WAVE TABLE","1350x675mm Fixed Olympia Blue","EACH","","1","1","179.0000","","","","","0","","","","","","","WEF-WT21367OBL","","","","","","","","","","","","","","","","","","","","","EACH","","","","","","",""
"WEF","","D4PJP300MID","DURAPOS STUDENT CHAIR","Junior 300mm Midnight","EACH","","1","1","53.0000","","","","","0","","","","","","","WEF-D4PJP300MID","","","","","","","","","","","","","","","","","","","","","EACH","","","","","","",""
"WEF","","WT21367OGR","WAVE TABLE","1350x675mm Fixed Oyster Grey","EACH","","1","1","179.0000","","","","","0","","","","","","","WEF-WT21367OGR","","","","","","","","","","","","","","","","","","","","","EACH","","","","","","",""
"WEF","","D4PJP300RAS","DURAPOS STUDENT CHAIR","Junior 300mm Raspberry","EACH","","1","1","53.0000","","","","","0","","","","","","","WEF-D4PJP300RAS","","","","","","","","","","","","","","","","","","","","","EACH","","","","","","",""
"WEF","","WT6767","WAVE TABLE","675x675mm Fixed Height","EACH","","1","1","114.0000","","","","","0","","","","","","","WEF-WT6767","","","","","","","","","","","","","","","","","","","","","EACH","","","","","","",""
"WEF","","D4PJP340","DURAPOS STUDENT CHAIR","Junior 340mm","EACH","","1","1","53.0000","","","","","0","","","","","","","WEF-D4PJP340","","","","","","","","","","","","","","","","","","","","","EACH","","","","","","",""
"WEF","","WT6767AD","WAVE TABLE","675x675mm Adjustable Height","EACH","","1","1","186.0000","","","","","0","","","","","","","WEF-WT6767AD","","","","","","","","","","","","","","","","","","","","","EACH","","","","","","",""
"WEF","","D4PJP340COB","DURAPOS STUDENT CHAIR","Junior 340mm Cobalt","EACH","","1","1","53.0000","","","","","0","","","","","","","WEF-D4PJP340COB","","","","","","","","","","","","","","","","","","","","","EACH","","","","","","",""
"WEF","","WT6767ADOBL","WAVE TABLE","675x675mm Adj Olympia Blue","EACH","","1","1","186.0000","","","","","0","","","","","","","WEF-WT6767ADOBL","","","","","","","","","","","","","","","","","","","","","EACH","","","","","","",""
"WEF","","D4PJP340MID","DURAPOS STUDENT CHAIR","Junior 340mm Midnight","EACH","","1","1","53.0000","","","","","0","","","","","","","WEF-D4PJP340MID","","","","","","","","","","","","","","","","","","","","","EACH","","","","","","",""
"WEF","","WT6767ADOGR","WAVE TABLE","675x675mm Adj Oyster Grey","EACH","","1","1","186.0000","","","","","0","","","","","","","WEF-WT6767ADOGR","","","","","","","","","","","","","","","","","","","","","EACH","","","","","","",""
"WEF","","D4PJP340RAS","DURAPOS STUDENT CHAIR","Junior 340mm Raspberry","EACH","","1","1","53.0000","","","","","0","","","","","","","WEF-D4PJP340RAS","","","","","","","","","","","","","","","","","","","","","EACH","","","","","","",""
"WEF","","WT6767OBL","WAVE TABLE","675x675mm Fixed Olympia Blue","EACH","","1","1","114.0000","","","","","0","","","","","","","WEF-WT6767OBL","","","","","","","","","","","","","","","","","","","","","EACH","","","","","","",""
"WEF","","D4PJP380","DURAPOS STUDENT CHAIR","Junior 380mm","EACH","","1","1","53.0000","","","","","0","","","","","","","WEF-D4PJP380","","","","","","","","","","","","","","","","","","","","","EACH","","","","","","",""
"WEF","","WT6767OGR","WAVE TABLE","675x675mm Fixed Oyster Grey","EACH","","1","1","114.0000","","","","","0","","","","","","","WEF-WT6767OGR","","","","","","","","","","","","","","","","","","","","","EACH","","","","","","",""
"WEF","","D4PJP380COB","DURAPOS STUDENT CHAIR","Junior 380mm Cobalt","EACH","","1","1","53.0000","","","","","0","","","","","","","WEF-D4PJP380COB","","","","","","","","","","","","","","","","","","","","","EACH","","","","","","",""
"WEF","","D4PJP380MID","DURAPOS STUDENT CHAIR","Junior 380mm Midnight","EACH","","1","1","53.0000","","","","","0","","","","","","","WEF-D4PJP380MID","","","","","","","","","","","","","","","","","","","","","EACH","","","","","","",""
"WEF","","D4PJP380RAS","DURAPOS STUDENT CHAIR","Junior 380mm Raspberry","EACH","","1","1","53.0000","","","","","0","","","","","","","WEF-D4PJP380RAS","","","","","","","","","","","","","","","","","","","","","EACH","","","","","","",""
"WEF","","D4PJP420","DURAPOS STUDENT CHAIR","Junior 420mm","EACH","","1","1","53.0000","","","","","0","","","","","","","WEF-D4PJP420","","","","","","","","","","","","","","","","","","","","","EACH","","","","","","",""
"WEF","","D4PJP420COB","DURAPOS STUDENT CHAIR","Junior 420mm Cobalt","EACH","","1","1","53.0000","","","","","0","","","","","","","WEF-D4PJP420COB","","","","","","","","","","","","","","","","","","","","","EACH","","","","","","",""
"WEF","","D4PJP420MID","DURAPOS STUDENT CHAIR","Junior 420mm Midnight","EACH","","1","1","53.0000","","","","","0","","","","","","","WEF-D4PJP420MID","","","","","","","","","","","","","","","","","","","","","EACH","","","","","","",""
"WEF","","D4PJP420RAS","DURAPOS STUDENT CHAIR","Junior 420mm Raspberry","EACH","","1","1","53.0000","","","","","0","","","","","","","WEF-D4PJP420RAS","","","","","","","","","","","","","","","","","","","","","EACH","","","","","","",""
"WEF","","D4PSP460","DURAPOS STUDENT CHAIR","Senior 460mm","EACH","","1","1","57.0000","","","","","0","","","","","","","WEF-D4PSP460","","","","","","","","","","","","","","","","","","","","","EACH","","","","","","",""
"WEF","","D4PSP460COB","DURAPOS STUDENT CHAIR","Senior 460mm Cobalt","EACH","","1","1","57.0000","","","","","0","","","","","","","WEF-D4PSP460COB","","","","","","","","","","","","","","","","","","","","","EACH","","","","","","",""
"WEF","","D4PSP460MID","DURAPOS STUDENT CHAIR","Senior 460mm Midnight","EACH","","1","1","57.0000","","","","","0","","","","","","","WEF-D4PSP460MID","","","","","","","","","","","","","","","","","","","","","EACH","","","","","","",""
"WEF","","D4PSP460RAS","DURAPOS STUDENT CHAIR","Senior 460mm Raspberry","EACH","","1","1","57.0000","","","","","0","","","","","","","WEF-D4PSP460RAS","","","","","","","","","","","","","","","","","","","","","EACH","","","","","","",""
"WEF","","D4PSP500","DURAPOS STUDENT CHAIR","Senior 500mm","EACH","","1","1","57.0000","","","","","0","","","","","","","WEF-D4PSP500","","","","","","","","","","","","","","","","","","","","","EACH","","","","","","",""
"WEF","","D4PSP500COB","DURAPOS STUDENT CHAIR","Senior 500mm Cobalt","EACH","","1","1","57.0000","","","","","0","","","","","","","WEF-D4PSP500COB","","","","","","","","","","","","","","","","","","","","","EACH","","","","","","",""
"WEF","","D4PSP500MID","DURAPOS STUDENT CHAIR","Senior 500mm Midnight","EACH","","1","1","57.0000","","","","","0","","","","","","","WEF-D4PSP500MID","","","","","","","","","","","","","","","","","","","","","EACH","","","","","","",""
"WEF","","D4PSP500RAS","DURAPOS STUDENT CHAIR","Senior 500mm Raspberry","EACH","","1","1","57.0000","","","","","0","","","","","","","WEF-D4PSP500RAS","","","","","","","","","","","","","","","","","","","","","EACH","","","","","","",""
"WEF","","DJGP","DURAPOS STUDENT CHAIR","Junior Gaslift","EACH","","1","1","100.0000","","","","","0","","","","","","","WEF-DJGP","","","","","","","","","","","","","","","","","","","","","EACH","","","","","","",""
"WEF","","DJGPCOB","DURAPOS STUDENT CHAIR","Junior Gaslift Cobalt","EACH","","1","1","100.0000","","","","","0","","","","","","","WEF-DJGPCOB","","","","","","","","","","","","","","","","","","","","","EACH","","","","","","",""
"WEF","","DJGPMID","DURAPOS STUDENT CHAIR","Junior Gaslift Midnight","EACH","","1","1","100.0000","","","","","0","","","","","","","WEF-DJGPMID","","","","","","","","","","","","","","","","","","","","","EACH","","","","","","",""
"WEF","","DJGPRAS","DURAPOS STUDENT CHAIR","Junior Gaslift Raspberry","EACH","","1","1","100.0000","","","","","0","","","","","","","WEF-DJGPRAS","","","","","","","","","","","","","","","","","","","","","EACH","","","","","","",""
"WEF","","DSGP","DURAPOS STUDENT CHAIR","Senior Gaslift","EACH","","1","1","104.0000","","","","","0","","","","","","","WEF-DSGP","","","","","","","","","","","","","","","","","","","","","EACH","","","","","","",""
"WEF","","DSGPCOB","DURAPOS STUDENT CHAIR","Senior Gaslift Cobalt","EACH","","1","1","104.0000","","","","","0","","","","","","","WEF-DSGPCOB","","","","","","","","","","","","","","","","","","","","","EACH","","","","","","",""
"WEF","","DSGPMID","DURAPOS STUDENT CHAIR","Senior Gaslift Midnight","EACH","","1","1","104.0000","","","","","0","","","","","","","WEF-DSGPMID","","","","","","","","","","","","","","","","","","","","","EACH","","","","","","",""
"WEF","","DSGPRAS","DURAPOS STUDENT CHAIR","Senior Gaslift Raspberry","EACH","","1","1","104.0000","","","","","0","","","","","","","WEF-DSGPRAS","","","","","","","","","","","","","","","","","","","","","EACH","","","","","","",""
"WEF","","ET1260","EUREKA CLASSROOM TABLE","1200x600mm","EACH","","1","1","112.0000","","","","","0","","","","","","","WEF-ET1260","","","","","","","","","","","","","","","","","","","","","EACH","","","","","","",""
"WEF","","ET1260OBL","EUREKA CLASSROOM TABLE","1200x600mm Olympia Blue","EACH","","1","1","112.0000","","","","","0","","","","","","","WEF-ET1260OBL","","","","","","","","","","","","","","","","","","","","","EACH","","","","","","",""
"WEF","","ET1260OGR","EUREKA CLASSROOM TABLE","1200x600mm Oyster Grey","EACH","","1","1","112.0000","","","","","0","","","","","","","WEF-ET1260OGR","","","","","","","","","","","","","","","","","","","","","EACH","","","","","","",""
"WEF","","ET1367","EUREKA CLASSROOM TABLE","1350x675mm","EACH","","1","1","188.0000","","","","","0","","","","","","","WEF-ET1367","","","","","","","","","","","","","","","","","","","","","EACH","","","","","","",""
"WEF","","ET1367OBL","EUREKA CLASSROOM TABLE","1350x675mm Olympia Blue","EACH","","1","1","188.0000","","","","","0","","","","","","","WEF-ET1367OBL","","","","","","","","","","","","","","","","","","","","","EACH","","","","","","",""
"WEF","","ET1367OGR","EUREKA CLASSROOM TABLE","1350x675mm Oyster Grey","EACH","","1","1","188.0000","","","","","0","","","","","","","WEF-ET1367OGR","","","","","","","","","","","","","","","","","","","","","EACH","","","","","","",""
"WEF","","ET1575","EUREKA CLASSROOM TABLE","1500x750mm","EACH","","1","1","189.0000","","","","","0","","","","","","","WEF-ET1575","","","","","","","","","","","","","","","","","","","","","EACH","","","","","","",""
"WEF","","ET1575OBL","EUREKA CLASSROOM TABLE","1500x750mm Olympia Blue","EACH","","1","1","189.0000","","","","","0","","","","","","","WEF-ET1575OBL","","","","","","","","","","","","","","","","","","","","","EACH","","","","","","",""
"WEF","","ET1575OGR","EUREKA CLASSROOM TABLE","1500x750mm Oyster Grey","EACH","","1","1","189.0000","","","","","0","","","","","","","WEF-ET1575OGR","","","","","","","","","","","","","","","","","","","","","EACH","","","","","","",""
"WEF","","ET1890","EUREKA CLASSROOM TABLE","1800x900mm","EACH","","1","1","214.0000","","","","","0","","","","","","","WEF-ET1890","","","","","","","","","","","","","","","","","","","","","EACH","","","","","","",""
"WEF","","ET1890OBL","EUREKA CLASSROOM TABLE","1800x900mm Olympia Blue","EACH","","1","1","214.0000","","","","","0","","","","","","","WEF-ET1890OBL","","","","","","","","","","","","","","","","","","","","","EACH","","","","","","",""
"WEF","","ET1890OGR","EUREKA CLASSROOM TABLE","1800x900mm Oyster Grey","EACH","","1","1","214.0000","","","","","0","","","","","","","WEF-ET1890OGR","","","","","","","","","","","","","","","","","","","","","EACH","","","","","","",""
"WEF","","ET6060","EUREKA CLASSROOM TABLE","600x600mm","EACH","","1","1","94.0000","","","","","0","","","","","","","WEF-ET6060","","","","","","","","","","","","","","","","","","","","","EACH","","","","","","",""
"WEF","","ET6060OBL","EUREKA CLASSROOM TABLE","600x600mm Olympia Blue","EACH","","1","1","94.0000","","","","","0","","","","","","","WEF-ET6060OBL","","","","","","","","","","","","","","","","","","","","","EACH","","","","","","",""
"WEF","","ET6060OGR","EUREKA CLASSROOM TABLE","600x600mm Oyster Grey","EACH","","1","1","94.0000","","","","","0","","","","","","","WEF-ET6060OGR","","","","","","","","","","","","","","","","","","","","","EACH","","","","","","",""
"WEF","","ET7053","EUREKA CLASSROOM TABLE","700x530mm","EACH","","1","1","100.0000","","","","","0","","","","","","","WEF-ET7053","","","","","","","","","","","","","","","","","","","","","EACH","","","","","","",""
"WEF","","ET7053OBL","EUREKA CLASSROOM TABLE","700x530mm Olympia Blue","EACH","","1","1","100.0000","","","","","0","","","","","","","WEF-ET7053OBL","","","","","","","","","","","","","","","","","","","","","EACH","","","","","","",""
"WEF","","ET7053OGR","EUREKA CLASSROOM TABLE","700x530mm Oyster Grey","EACH","","1","1","100.0000","","","","","0","","","","","","","WEF-ET7053OGR","","","","","","","","","","","","","","","","","","","","","EACH","","","","","","",""
"WEF","","ET9060","EUREKA CLASSROOM TABLE","900x600mm","EACH","","1","1","107.0000","","","","","0","","","","","","","WEF-ET9060","","","","","","","","","","","","","","","","","","","","","EACH","","","","","","",""
"WEF","","ET9060OBL","EUREKA CLASSROOM TABLE","900x600mm Olympia Blue","EACH","","1","1","107.0000","","","","","0","","","","","","","WEF-ET9060OBL","","","","","","","","","","","","","","","","","","","","","EACH","","","","","","",""
"WEF","","ET9060OGR","EUREKA CLASSROOM TABLE","900x600mm Oyster Grey","EACH","","1","1","107.0000","","","","","0","","","","","","","WEF-ET9060OGR","","","","","","","","","","","","","","","","","","","","","EACH","","","","","","",""
"WEF","","HOK380","HOKKI STOOL","380mm","EACH","","1","1","84.0000","","","","","0","","","","","","","WEF-HOK380","","","","","","","","","","","","","","","","","","","","","EACH","","","","","","",""
"WEF","","HOK380C","HOKKI STOOL","380mm Cobalt","EACH","","1","1","84.0000","","","","","0","","","","","","","WEF-HOK380C","","","","","","","","","","","","","","","","","","","","","EACH","","","","","","",""
"WEF","","HOK380P","HOKKI STOOL","380mm Pumpkin","EACH","","1","1","84.0000","","","","","0","","","","","","","WEF-HOK380P","","","","","","","","","","","","","","","","","","","","","EACH","","","","","","",""
"WEF","","HOK380R","HOKKI STOOL","380mm Raspberry","EACH","","1","1","84.0000","","","","","0","","","","","","","WEF-HOK380R","","","","","","","","","","","","","","","","","","","","","EACH","","","","","","",""
"WEF","","HOK460","HOKKI STOOL","460mm","EACH","","1","1","84.0000","","","","","0","","","","","","","WEF-HOK460","","","","","","","","","","","","","","","","","","","","","EACH","","","","","","",""
"WEF","","HOK460C","HOKKI STOOL","460mm Cobalt","EACH","","1","1","84.0000","","","","","0","","","","","","","WEF-HOK460C","","","","","","","","","","","","","","","","","","","","","EACH","","","","","","",""
"WEF","","HOK460P","HOKKI STOOL","460mm Pumpkin","EACH","","1","1","84.0000","","","","","0","","","","","","","WEF-HOK460P","","","","","","","","","","","","","","","","","","","","","EACH","","","","","","",""
"WEF","","HOK460R","HOKKI STOOL","460mm Raspberry","EACH","","1","1","84.0000","","","","","0","","","","","","","WEF-HOK460R","","","","","","","","","","","","","","","","","","","","","EACH","","","","","","",""
"WEF","","JS2","JS2 MOBILE STORAGE TROLLEY","760w x850h x450d","EACH","","1","1","212.0000","","","","","0","","","","","","","WEF-JS2","","","","","","","","","","","","","","","","","","","","","EACH","","","","","","",""
"WEF","","JS3","JS3 MOBILE STORAGE TROLLEY","1100w x850h x450d","EACH","","1","1","254.0000","","","","","0","","","","","","","WEF-JS3","","","","","","","","","","","","","","","","","","","","","EACH","","","","","","",""
"WEF","","JS4","JS4 MOBILE STORAGE TROLLEY","1450w x850h x450d","EACH","","1","1","295.0000","","","","","0","","","","","","","WEF-JS4","","","","","","","","","","","","","","","","","","","","","EACH","","","","","","",""
"WEF","","LCA","LIBRARY CARREL","Type A 900x600mm 695 750mm","EACH","","1","1","284.0000","","","","","0","","","","","","","WEF-LCA","","","","","","","","","","","","","","","","","","","","","EACH","","","","","","",""
"WEF","","LCAOBL","LIBRARY CARREL","Type A 900x600mm Olympia Blue","EACH","","1","1","284.0000","","","","","0","","","","","","","WEF-LCAOBL","","","","","","","","","","","","","","","","","","","","","EACH","","","","","","",""
"WEF","","LCAOGR","LIBRARY CARREL","Type A 900x600mm Oyster Grey","EACH","","1","1","284.0000","","","","","0","","","","","","","WEF-LCAOGR","","","","","","","","","","","","","","","","","","","","","EACH","","","","","","",""
"WEF","","LCB","LIBRARY CARREL","Type B 900x600mm 695 750mm","EACH","","1","1","284.0000","","","","","0","","","","","","","WEF-LCB","","","","","","","","","","","","","","","","","","","","","EACH","","","","","","",""
"WEF","","LCBOBL","LIBRARY CARREL","Type B 900x600mm Olympia Blue","EACH","","1","1","284.0000","","","","","0","","","","","","","WEF-LCBOBL","","","","","","","","","","","","","","","","","","","","","EACH","","","","","","",""
"WEF","","LCBOGR","LIBRARY CARREL","Type B 900x600mm Oyster Grey","EACH","","1","1","284.0000","","","","","0","","","","","","","WEF-LCBOGR","","","","","","","","","","","","","","","","","","","","","EACH","","","","","","",""
"WEF","","LGJ300","LUPO GLIDE AUDITORIUM CHAIR","Junior 300mm","EACH","","1","1","96.0000","","","","","0","","","","","","","WEF-LGJ300","","","","","","","","","","","","","","","","","","","","","EACH","","","","","","",""
"WEF","","LGJ300MID","LUPO GLIDE AUDITORIUM CHAIR","Junior 300mm Midnight","EACH","","1","1","96.0000","","","","","0","","","","","","","WEF-LGJ300MID","","","","","","","","","","","","","","","","","","","","","EACH","","","","","","",""
"WEF","","LGJ300MIST","LUPO GLIDE AUDITORIUM CHAIR","Junior 300mm Mist","EACH","","1","1","96.0000","","","","","0","","","","","","","WEF-LGJ300MIST","","","","","","","","","","","","","","","","","","","","","EACH","","","","","","",""
