"CRA","","54 2048","CRAYOLA POSTER PAINT","Turquoise Blue 2Litre","EACH","","1","1","8.2600","","","","","0071662020484","","","","","","","CRA-542048","","","","","","","","","","","","","","","","","","","","","EACH","","","","","","",""
"CRA","","54 2051","CRAYOLA POSTER PAINT","Black 2Litre","EACH","","1","1","8.2600","","","","","0071662020514","","","","","","","CRA-542051","","","","","","","","","","","","","","","","","","","","","EACH","","","","","","",""
"CRA","","54 2053","CRAYOLA POSTER PAINT","White 2Litre","EACH","","1","1","8.2600","","","","","0071662020538","","","","","","","CRA-542053","","","","","","","","","","","","","","","","","","","","","EACH","","","","","","",""
"CRA","","54 2069","CRAYOLA POSTER PAINT","Magenta 2Litre","EACH","","1","1","8.2600","","","","","0071662020699","","","","","","","CRA-542069","","","","","","","","","","","","","","","","","","","","","EACH","","","","","","",""
"CRA","","54 2070","CRAYOLA PAINTING ACCESSORIES","Paint Pump","EACH","","12","1","1.6800","","","","","0071662120702","","","","","","","CRA-542070","","","","","","","","","","","","","","","","","","","","","EACH","","","","","","",""
"CRA","","54 2504","CRAYOLA POSTER PAINT","Paint A Pack Classic Colors","PACK","","1","1","10.0100","","","","","0071662025045","","","","","","","CRA-542504","","","","","","","","","","","","","","","","","","","","","PACK","","","","","","",""
"CRA","","54 6201","CRAYOLA PAINT BRUSH PENS","5 Asst Classic","PACK","","6","1","4.9500","","","","","0071662062019","","","","","","","CRA-546201","","","","","","","","","","","","","","","","","","","","","PACK","","","","","","",""
"CRA","","55 2005","CRAYOLA FINGERPAINTS","4 Asst Bold Colors","PACK","","1","1","7.2600","","","","","0071662520052","","","","","","","CRA-552005","","","","","","","","","","","","","","","","","","","","","PACK","","","","","","",""
"CRA","","56 1104","CRAYOLA GLUE","118ml School","EACH","","12","1","1.1700","","","","","0071662111045","","","","","","","CRA-561104","","","","","","","","","","","","","","","","","","","","","EACH","","","","","","",""
"CRA","","57 4400","CRAYOLA MODEL MAGIC","Bucket White 907g","EACH","","1","1","19.6000","","","","","0071662000769","","","","","","","CRA-574400","","","","","","","","","","","","","","","","","","","","","EACH","","","","","","",""
"CRA","","57 4415","CRAYOLA MODEL MAGIC","Bucket Assorted Colours 907g","EACH","","1","1","19.6000","","","","","0071662544157","","","","","","","CRA-574415","","","","","","","","","","","","","","","","","","","","","EACH","","","","","","",""
"CRA","","57 5050","Crayola Air Dry Clay","White 1.13kg","EACH","","4","1","6.7500","","","","","071662550509","","","","","","","CRA-575050","","","","","","","","","","","","","","","","","","","","","EACH","","","","","","",""
"CRA","","57 5064","Crayola Air Dry Clay","Tan 1.13kg","EACH","","4","1","6.7500","","","","","071662550646","","","","","","","CRA-575064","","","","","","","","","","","","","","","","","","","","","EACH","","","","","","",""
"CRA","","58 5010","CRAYOLA THINLINE MARKERS","10 Asst SuperTips","PACK","","12","1","2.7200","","","","","0071662050108","","","","","","","CRA-588610","","","","","","","","","","","","","","","","","","","","","PACK","","","","","","",""
"CRA","","58 7722","CRAYOLA BROADLINE MARKERS","8 Asst Classic Colors","PACK","","1","1","3.1900","","","","","71662077228","","","","","","","CRA-587722","","","","","","","","","","","","","","","","","","","","","PACK","","","","","","",""
"CRA","","58 7851","CRAYOLA WASHABLE BROAD MARKER","10 Asst Classic Colors","PACK","","1","1","3.7100","","","","","71662078515","","","","","","","CRA-587851","","","","","","","","","","","","","","","","","","","","","PACK","","","","","","",""
"CRA","","58 7800 007","Crayola Ultra Clean Markers","Brown","PACK","","6","1","5.9500","","","","","071662781071","","","","","","","CRA-587800007","","","","","","","","","","","","","","","","","","","","","PACK","","","","","","",""
"CRA","","58 7800 034","Crayola Ultra Clean Markers","Yellow","PACK","","6","1","5.9500","","","","","071662781347","","","","","","","CRA-587800034","","","","","","","","","","","","","","","","","","","","","PACK","","","","","","",""
"CRA","","58 7853","CRAYOLA WASHABLE BROAD MARKER","10 Asst Bold Colors","PACK","","1","1","3.7100","","","","","71662078539","","","","","","","CRA-587853","","","","","","","","","","","","","","","","","","","","","PACK","","","","","","",""
"CRA","","58 7800 036","Crayola Ultra Clean Markers","Orange","PACK","","6","1","5.9500","","","","","071662781361","","","","","","","CRA-587800036","","","","","","","","","","","","","","","","","","","","","PACK","","","","","","",""
"CRA","","58 7855","CRAYOLA WASHABLE BROAD MARKER","10 Asst Bright Colors","PACK","","1","1","3.7100","","","","","71662078553","","","","","","","CRA-587855","","","","","","","","","","","","","","","","","","","","","PACK","","","","","","",""
"CRA","","58 7800 038","Crayola Ultra Clean Markers","Red","PACK","","6","1","5.9500","","","","","071662781385","","","","","","","CRA-587800038","","","","","","","","","","","","","","","","","","","","","PACK","","","","","","",""
"CRA","","58 8106","CRAYOLA THINLINE MARKERS","20 Asst SuperTips","PACK","","6","1","4.8800","","","","","0071662081065","","","","","","","CRA-588106","","","","","","","","","","","","","","","","","","","","","PACK","","","","","","",""
"CRA","","58 7800 040","Crayola Ultra Clean Markers","Purple","PACK","","6","1","5.9500","","","","","071662781408","","","","","","","CRA-587800040","","","","","","","","","","","","","","","","","","","","","PACK","","","","","","",""
"CRA","","58 7800 042","Crayola Ultra Clean Markers","Blue","PACK","","6","1","5.9500","","","","","071662781422","","","","","","","CRA-587800042","","","","","","","","","","","","","","","","","","","","","PACK","","","","","","",""
"CRA","","58 7800 044","Crayola Ultra Clean Markers","Green","PACK","","6","1","5.9500","","","","","071662781446","","","","","","","CRA-587800044","","","","","","","","","","","","","","","","","","","","","PACK","","","","","","",""
"CRA","","58 8200","CRAYOLA WASHABLE BROAD MARKER","200 Asst Classic Classpack","PACK","","1","1","79.2300","","","","","0071662582005","","","","","","","CRA-588200","","","","","","","","","","","","","","","","","","","","","PACK","","","","","","",""
"CRA","","58 7800 051","Crayola Ultra Clean Markers","Black","PACK","","6","1","5.9500","","","","","071662781514","","","","","","","CRA-587800051","","","","","","","","","","","","","","","","","","","","","PACK","","","","","","",""
"CRA","","58 8232","CRAYOLA WASHABLE BROAD MARKER","32 Asst Bright Deskpack","PACK","","1","1","13.7000","","","","","0071662282325","","","","","","","CRA-588232","","","","","","","","","","","","","","","","","","","","","PACK","","","","","","",""
"CRA","","58 8240","CRAYOLA THINLINE MARKERS","40 Asst Super Tips Deskpack","PACK","","1","1","9.1700","","","","","0071662182403","","","","","","","CRA-588240","","","","","","","","","","","","","","","","","","","","","PACK","","","","","","",""
"CRA","","57 5055","Crayola Air Dry Clay","White 2.26kg","EACH","","4","1","11.6900","","","","","071662550554","","","","","","","CRA-575055","","","","","","","","","","","","","","","","","","","","","EACH","","","","","","",""
"CRA","","58 8703","CRAYOLA WASHABLE BROAD MARKER","16 Asst Pip Squeaks","PACK","","6","1","4.4700","","","","","0071662087036","","","","","","","CRA-588703","","","","","","","","","","","","","","","","","","","","","PACK","","","","","","",""
"CRA","","68 1118","CRAYOLA MY FIRST COLOR PENCILS","10 Assorted Jumbo Triangular","PACK","","6","1","3.3300","","","","","071662111182","","","","","","","CRA-681118","","","","","","","","","","","","","","","","","","","","","PACK","","","","","","",""
"CRA","","69 0020","Crayola Glitter Glue ","Classpack","PACK","","1","1","38.1500","","","","","071662600204","","","","","","","CRA-690020","","","","","","","","","","","","","","","","","","","","","PACK","","","","","","",""
"CRA","","68 1120","CRAYOLA SPECIALTY PENCILS","8 Asst eXtreme Colored","PACK","","6","1","2.3200","","","","","0071662211202","","","","","","","CRA-681120","","","","","","","","","","","","","","","","","","","","","PACK","","","","","","",""
"CRA","","68 4012","CRAYOLA COLORED PENCILS","12 Full Size Regular","PACK","","12","1","2.6300","","","","","0071662040123","","","","","","","CRA-684012","","","","","","","","","","","","","","","","","","","","","PACK","","","","","","",""
"CRA","","68 4024","CRAYOLA COLORED PENCILS","24 Full Size Regular","PACK","","6","1","5.4600","","","","","0071662040246","","","","","","","CRA-684024","","","","","","","","","","","","","","","","","","","","","PACK","","","","","","",""
"CRA","","58 6504","Crayola Erasable Highlighters","Pack of 6","PACK","","8","1","4.3400","","","","","071662065041
","","","","","","","CRA-586504","","","","","","","","","","","","","","","","","","","","","PACK","","","","","","",""
"CRA","","58 6505","Crayola Washable Gel Pens","Pack of 6","PACK","","8","1","4.3400","","","","","071662065058","","","","","","","CRA-586505","","","","","","","","","","","","","","","","","","","","","PACK","","","","","","",""
"CRA","","68 4112","CRAYOLA COLORED PENCILS","12 Half Size Regular","PACK","","12","1","1.0900","","","","","0071662041120","","","","","","","CRA-684112","","","","","","","","","","","","","","","","","","","","","PACK","","","","","","",""
"CRA","","58 6414","CRAYOLA WASHABLE GEL PENS","Pack of 14","PACK","","8","1","8.1900","","","","","071662264147","","","","","","","CRA-586414","","","","","","","","","","","","","","","","","","","","","PACK","","","","","","",""
"CRA","","68 4128","CRAYOLA MY FIRST COLOR PENCILS","8 Assorted Jumbo Hex Half Size","PACK","","6","1","1.9600","","","","","071662141288","","","","","","","CRA-684128","","","","","","","","","","","","","","","","","","","","","PACK","","","","","","",""
"CRA","","68 4214","CRAYOLA TRIANGULAR PENCILS","12 Full Size Colored","PACK","","6","1","1.9300","","","","","0071662142148","","","","","","","CRA-684214","","","","","","","","","","","","","","","","","","","","","PACK","","","","","","",""
"CRA","","68 7408","CRAYOLA PENCILS TWISTABLES","12 Asst Colored","PACK","","6","1","3.0800","","","","","0071662574086","","","","","","","CRA-687408","","","","","","","","","","","","","","","","","","","","","PACK","","","","","","",""
"CRA","","68 7424","CRAYOLA PENCILS TWISTABLES","24 Asst Colored","PACK","","6","1","5.7400","","","","","0071662574246","","","","","","","CRA-687424","","","","","","","","","","","","","","","","","","","","","PACK","","","","","","",""
"CRA","","68 8024","CRAYOLA COLORED PENCILS","240 Asst Classpack 12 Colors","PACK","","1","1","41.8200","","","","","0071662080242","","","","","","","CRA-688024","","","","","","","","","","","","","","","","","","","","","PACK","","","","","","",""
"CRA","","68 8048","CRAYOLA COLORED PENCILS","48 Asst Deskpack 12 Colors","PACK","","1","1","9.6700","","","","","0071662180485","","","","","","","CRA-688048","","","","","","","","","","","","","","","","","","","","","PACK","","","","","","",""
"CRA","","68 8214","CRAYOLA TRIANGULAR PENCILS","240 Asst Classpack 12 Colors","PACK","","1","1","36.8100","","","","","0071662182144","","","","","","","CRA-688214","","","","","","","","","","","","","","","","","","","","","PACK","","","","","","",""
"CRA","","68 8250","CRAYOLA TRIANGULAR PENCILS","48 Asst Deskpack 12 Colors","PACK","","1","1","7.3600","","","","","0071662182502","","","","","","","CRA-688250","","","","","","","","","","","","","","","","","","","","","PACK","","","","","","",""
"CRA","","69 3002A","CRAYOLA SCISSORS","Safety Tip","EACH","","24","1","1.4300","","","","","0071662030025","","","","","","","CRA-693002A","","","","","","","","","","","","","","","","","","","","","EACH","","","","","","",""
"CRA","","69 3009","CRAYOLA SCISSORS","Blunt Tip","EACH","","12","1","2.1600","","","","","0071662830090","","","","","","","CRA-693009","","","","","","","","","","","","","","","","","","","","","EACH","","","","","","",""
"CRA","","69 3522","CRAYOLA GLUE","5 Asst Glitter","PACK","","6","1","2.4900","","","","","0071662035228","","","","","","","CRA-693522","","","","","","","","","","","","","","","","","","","","","PACK","","","","","","",""
"CRA","","69 4200","CRAYOLA GLUE","16 Asst Pip Squeaks Glitter","PACK","","6","1","5.1000","","","","","0071662069421","","","","","","","CRA-694200","","","","","","","","","","","","","","","","","","","","","PACK","","","","","","",""
"CRA","","81 1323","CRAYOLA MY FIRST SCISSORS","3 Assorted Safety","PACK","","9","1","2.5700","","","","","071662113230","","","","","","","CRA-811323","","","","","","","","","","","","","","","","","","","","","PACK","","","","","","",""
"CRA","","81 1324","CRAYOLA MY FIRST MARKERS","8 Assorted Washable Round Nib","PACK","","6","1","3.8900","","","","","071662113247","","","","","","","CRA-811324","","","","","","","","","","","","","","","","","","","","","PACK","","","","","","",""
"CRA","","81 1334","CRAYOLA MY FIRST COLOR PENCILS","8 Assorted Easy Grip","PACK","","12","1","2.4200","","","","","071662113346","","","","","","","CRA-811334","","","","","","","","","","","","","","","","","","","","","PACK","","","","","","",""
"CRA","","98 8630","CRAYOLA DRY ERASE ACTIVITY KIT","Activity Centre","EACH","","2","1","10.0500","","","","","0071662186302","","","","","","","CRA-988630","","","","","","","","","","","","","","","","","","","","","EACH","","","","","","",""
"CRA","","98 8631","CRAYOLA DRY ERASE MARKERS","Magnetic Eraser","EACH","","4","1","4.9900","","","","","0071662186319","","","","","","","CRA-988631","","","","","","","","","","","","","","","","","","","","","EACH","","","","","","",""
"CRA","","98 8643","CRAYOLA DRY ERASE WORKBOOKS","Activity One Two at the Zoo","EACH","","1","1","2.6400","","","","","0071662586430","","","","","","","CRA-988643","","","","","","","","","","","","","","","","","","","","","EACH","","","","","","",""
"CRA","","98 8645","CRAYOLA DRY ERASE WORKBOOKS","Activity Handwriting Magic","EACH","","1","1","2.6400","","","","","0071662586454","","","","","","","CRA-988645","","","","","","","","","","","","","","","","","","","","","EACH","","","","","","",""
"CRA","","98 8900","CRAYOLA VISI MAX DRY ERASE MKR","8 Assorted Broad Line","PACK","","1","1","7.7000","","","","","071662098896","","","","","","","CRA-988900","","","","","","","","","","","","","","","","","","","","","PACK","","","","","","",""
"CRA","","98 8901","CRAYOLA VISI MAX DRY ERASE MKR","4 Assorted Fine Line","PACK","","1","1","3.4100","","","","","071662988906","","","","","","","CRA-988901","","","","","","","","","","","","","","","","","","","","","PACK","","","","","","",""
"CRA","","98 8902","CRAYOLA VISI MAX DRY ERASE MKR","4 Assorted Broad Line","PACK","","1","1","4.2200","","","","","071662898908","","","","","","","CRA-988902","","","","","","","","","","","","","","","","","","","","","PACK","","","","","","",""
"CRA","","99 3406","CRAYOLA LEARNING PAD","Beginning Alpha Numbers Pad","EACH","","6","1","2.2700","","","","","0071662993467","","","","","","","CRA-993406","","","","","","","","","","","","","","","","","","","","","EACH","","","","","","",""
"CRA","","58 8032","CRAYOLA WASHABLE BROAD MARKER","32 Asst Classic Deskpack","PACK","","1","1","13.7000","","","","","0071662180324","","","","","","","CRA-588032","","","","","","","","","","","","","","","","","","","","","PACK","","","","","","",""
"CRA","","04 5088","CRAYOLA COLORING STICKER BOOK","Funny Faces People","EACH","","1","1","2.0200","","","","","071662250881","","","","","","","CRA-045088","","","","","","","","","","","","","","","","","","","","","EACH","","","","","","",""
"CRA","","04 5169","CRAYOLA COLORING PAGES","Giant Disney Princess","PACK","","1","1","4.0800","","","","","0071662251697","","","","","","","CRA-045169","","","","","","","","","","","","","","","","","","","","","PACK","","","","","","",""
"CRA","","04 5516","CRAYOLA MY FIRST ACTIVITY SETS","Caddy","EACH","","2","1","9.1700","","","","","071662155155","","","","","","","CRA-045515","","","","","","","","","","","","","","","","","","","","","EACH","","","","","","",""
"CRA","","04 5523","CRAYOLA ESSENTIALS","Deskpack","EACH","","1","1","15.0400","","","","","0071662155230","","","","","","","CRA-045523","","","","","","","","","","","","","","","","","","","","","EACH","","","","","","",""
"CRA","","04 5524","CRAYOLA ESSENTIALS","Classpack","EACH","","1","1","53.5500","","","","","0071662155247","","","","","","","CRA-045524","","","","","","","","","","","","","","","","","","","","","EACH","","","","","","",""
"CRA","","05 3506","CRAYOLA PAINT BRUSHES","5 Asst Art Craft","PACK","","6","1","2.6400","","","","","0071662435066","","","","","","","CRA-053506","","","","","","","","","","","","","","","","","","","","","PACK","","","","","","",""
"CRA","","06 4270","CRAYOLA DRAWING PAPER","A4 White Paper Pad 70 Pages","EACH","","6","1","2.4900","","","","","0071662342708","","","","","","","CRA-064270","","","","","","","","","","","","","","","","","","","","","EACH","","","","","","",""
"CRA","","23 6001","CRAYOLA MODEL MAGIC","White Classpack 75x1oz","EACH","","1","1","44.4900","","","","","0071662160012","","","","","","","CRA-236001","","","","","","","","","","","","","","","","","","","","","EACH","","","","","","",""
"CRA","","23 6002","CRAYOLA MODEL MAGIC","Colored Classpack 75x1oz","EACH","","1","1","44.4900","","","","","0071662160029","","","","","","","CRA-236002","","","","","","","","","","","","","","","","","","","","","EACH","","","","","","",""
"CRA","","51 2012","CRAYOLA SIDEWALK CHALKS","12 Asst Large","PACK","","2","1","2.0500","","","","","071662612122","","","","","","","CRA-512012","","","","","","","","","","","","","","","","","","","","","PACK","","","","","","",""
"CRA","","51 2048","CRAYOLA SIDEWALK CHALKS","48 Asst Large","PACK","","2","1","5.5000","","","","","071662612481","","","","","","","CRA-512048","","","","","","","","","","","","","","","","","","","","","PACK","","","","","","",""
"CRA","","51 320 104","CRAYOLA CHALKBOARD CHALKS","12 Sticks White 81x10mm","PACK","","12","1","0.5500","","","","","0071662003203","","","","","","","CRA-51320104","","","","","","","","","","","","","","","","","","","","","PACK","","","","","","",""
"CRA","","51 6009","CRAYOLA CHALKBOARD ACCESSORY","Chalk n Duster","SET","","6","1","2.4900","","","","","0071662060091","","","","","","","CRA-516009","","","","","","","","","","","","","","","","","","","","","SET","","","","","","",""
"CRA","","51 816","CRAYOLA CHALKBOARD CHALKS","12 Sticks Assorted 81x10mm","PACK","","12","1","0.6300","","","","","0071662008161","","","","","","","CRA-51816","","","","","","","","","","","","","","","","","","","","","PACK","","","","","","",""
"CRA","","52 12","CRAYOLA CRAYONS REGULAR","12 Assorted Tuck Box 92x8mm","PACK","","6","1","0.8500","","","","","0071662000127","","","","","","","CRA-5212","","","","","","","","","","","","","","","","","","","","","PACK","","","","","","",""
"CRA","","52 2048","CRAYOLA CRAYONS LARGE","48 Asst Deskpack 8 Colors","PACK","","1","1","10.6400","","","","","0071662120481","","","","","","","CRA-522048","","","","","","","","","","","","","","","","","","","","","PACK","","","","","","",""
"CRA","","52 24","CRAYOLA CRAYONS REGULAR","24 Assorted Tuck Box 92x8mm","PACK","","6","1","1.1700","","","","","0071662000240","","","","","","","CRA-5224","","","","","","","","","","","","","","","","","","","","","PACK","","","","","","",""
"CRA","","52 3280","CRAYOLA CRAYONS LARGE","8 Assorted Washable 101x11mm","PACK","","12","1","2.9000","","","","","0071662032807","","","","","","","CRA-523280","","","","","","","","","","","","","","","","","","","","","PACK","","","","","","",""
"CRA","","52 3624","CRAYOLA PORTFOLIO OIL PASTELS","24 Asst Water Soluble","PACK","","6","1","10.0500","","","","","0071662036249","","","","","","","CRA-523624","","","","","","","","","","","","","","","","","","","","","PACK","","","","","","",""
"CRA","","52 4629","CRAYOLA OIL PASTELS","336 Asst Classpack 12 Colors","PACK","","1","1","55.0200","","","","","0071662046293","","","","","","","CRA-524629","","","","","","","","","","","","","","","","","","","","","PACK","","","","","","",""
"CRA","","52 5009","CRAYOLA CRAYONS SPECIALTY","8 Assorted Fabric 92x8mm","PACK","","12","1","2.6800","","","","","0071662050085","","","","","","","CRA-525009","","","","","","","","","","","","","","","","","","","","","PACK","","","","","","",""
"CRA","","52 7240","CRAYOLA CRAYONS TWISTABLES","240 Asst Deskpack 16 Colors","PACK","","1","1","77.3900","","","","","0071662172404","","","","","","","CRA-527240","","","","","","","","","","","","","","","","","","","","","PACK","","","","","","",""
"CRA","","52 7412","CRAYOLA CRAYONS TWISTABLES","12 Asst","PACK","","6","1","4.1100","","","","","0071662174125","","","","","","","CRA-527412","","","","","","","","","","","","","","","","","","","","","PACK","","","","","","",""
"CRA","","52 7432","CRAYOLA CRAYONS TWISTABLES","32 Asst Deskpack 8 Colors","PACK","","1","1","10.9700","","","","","0071662074326","","","","","","","CRA-527432","","","","","","","","","","","","","","","","","","","","","PACK","","","","","","",""
"CRA","","52 8038","CRAYOLA CRAYONS LARGE","400 Asst Classpack 8 Colors","PACK","","1","1","82.5300","","","","","0071662980382","","","","","","","CRA-528038","","","","","","","","","","","","","","","","","","","","","PACK","","","","","","",""
"CRA","","52 8039","CRAYOLA CRAYONS TRIANGULAR","256 Asst Classpack 16 Colors","PACK","","1","1","63.8200","","","","","0071662980399","","","","","","","CRA-528039","","","","","","","","","","","","","","","","","","","","","PACK","","","","","","",""
"CRA","","52 912","CRAYOLA MY FIRST JUMBO CRAYONS","12 Assorted 101x14mm","PACK","","6","1","4.2200","","","","","0071662009120","","","","","","","CRA-52912","","","","","","","","","","","","","","","","","","","","","PACK","","","","","","",""
"CRA","","52 9201","CRAYOLA MY FIRST JUMBO CRAYONS","20 Asst Sharpener 101x14mm","PACK","","1","1","6.7900","","","","","71662092016","","","","","","","CRA-52920","","","","","","","","","","","","","","","","","","","","","PACK","","","","","","",""
"CRA","","52 9512","CRAYOLA CRAYONS TWISTABLES","12 Asst Slick Stix","PACK","","4","1","7.7000","","","","","0071662095123","","","","","","","CRA-529512","","","","","","","","","","","","","","","","","","","","","PACK","","","","","","",""
"CRA","","52 9724","CRAYOLA CRAYONS TWISTABLES","24 Asst Mini","PACK","","6","1","5.7200","","","","","0071662097240","","","","","","","CRA-529724","","","","","","","","","","","","","","","","","","","","","PACK","","","","","","",""
"CRA","","52 9765","CRAYOLA CRAYONS SPECIALTY","5 Asst Washable Window Twist","PACK","","6","1","5.1400","","","","","0071662097653","","","","","","","CRA-529765","","","","","","","","","","","","","","","","","","","","","PACK","","","","","","",""
"CRA","","53 524","CRAYOLA WATERCOLORS PAINT","24 Asst Paints Brush","PACK","","6","1","6.5700","","","","","0071662052409","","","","","","","CRA-53524","","","","","","","","","","","","","","","","","","","","","PACK","","","","","","",""
"CRA","","54 125","CRAYOLA POSTER PAINT","18 Asst Kids Paints Brush","PACK","","1","1","5.0900","","","","","0071662003142","","","","","","","CRA-54125","","","","","","","","","","","","","","","","","","","","","PACK","","","","","","",""
"CRA","","54 2007","CRAYOLA POSTER PAINT","Brown 2Litre","EACH","","1","1","8.2600","","","","","0071662020071","","","","","","","CRA-542007","","","","","","","","","","","","","","","","","","","","","EACH","","","","","","",""
"CRA","","54 2034","CRAYOLA POSTER PAINT","Yellow 2Litre","EACH","","1","1","8.2600","","","","","0071662020347","","","","","","","CRA-542034","","","","","","","","","","","","","","","","","","","","","EACH","","","","","","",""
"CRA","","54 2036","CRAYOLA POSTER PAINT","Orange 2Litre","EACH","","1","1","8.2600","","","","","0071662020361","","","","","","","CRA-542036","","","","","","","","","","","","","","","","","","","","","EACH","","","","","","",""
"CRA","","54 2038","CRAYOLA POSTER PAINT","Red 2Litre","EACH","","1","1","8.2600","","","","","0071662020385","","","","","","","CRA-542038","","","","","","","","","","","","","","","","","","","","","EACH","","","","","","",""
"CRA","","54 2040","CRAYOLA POSTER PAINT","Violet Purple 2Litre","EACH","","1","1","8.2600","","","","","0071662020408","","","","","","","CRA-542040","","","","","","","","","","","","","","","","","","","","","EACH","","","","","","",""
"CRA","","54 2042","CRAYOLA POSTER PAINT","Blue 2Litre","EACH","","1","1","8.2600","","","","","0071662020422","","","","","","","CRA-542042","","","","","","","","","","","","","","","","","","","","","EACH","","","","","","",""
"CRA","","54 2044","CRAYOLA POSTER PAINT","Green 2Litre","EACH","","1","1","8.2600","","","","","0071662020446","","","","","","","CRA-542044","","","","","","","","","","","","","","","","","","","","","EACH","","","","","","",""
